serial_no,page_filename,cat_name,cat_no,cat_id,page_name,page_no,page_id,page_description,section_0_name,section_0_txt,section_0_img,section_1_name,section_1_txt,section_1_img,section_2_name,section_2_txt,section_2_img,section_3_name,section_3_txt,section_3_img,section_4_name,section_4_txt,section_4_img,section_5_name,section_5_txt,section_5_img,section_6_name,section_6_txt,section_6_img,section_7_name,section_7_txt,section_7_img,section_8_name,section_8_txt,section_8_img,section_9_name,section_9_txt,section_9_img,
P-1,1_01-firstly_about,はじめに,1,firstly,"ラベル屋さん™ラベル＆カード<br class=""pc-item"">作成ソフト10について",01,about,『ラベル屋さん10』は、エーワン™ 製品のOAラベルシールやカード製品をより多くの方へ親しんで便利にご利用いただけるように開発されたソフトウェアです,ラベル屋さん™ラベル＆カード作成ソフト10について,"※ 以降「ラベル屋さん™ラベル＆カード作成ソフト」を「ラベル屋さん」と表記します  

『ラベル屋さん10』は、エーワン™ 製品のOAラベルシールやカード製品を便利にご利用いただき、  
より多くの方へ親しんでいただけるように開発されたソフトウェアです。  
  
このヘルプファイルでは、ラベル屋さん10の詳細な操作説明を行っていきます。  

<img1>","![ ](./images//_-__ """")",web版について,"ラベル屋さん10は、Microsoft Windows™及び、 Apple社のmacOS™上で動作します。  

web版は各種ブラウザ上で利用でき、ラベル屋さんサイトからインストール不要でご利用いただけます。  
",,ヘルプファイルについて,"このヘルプファイルでは、以下の表現をします。
* 画面やキーボード操作の説明ではMicrosoft Windows™を基準に記載し、画面はweb版の表示を利用します。
* _ラベル:_ 特定目的の用紙説明以外、ラベルシールやカード用紙全般を「ラベル」で統一して記載します。
* _オブジェクト:_ デザイン画面では文字やイメージを使います。このデザイン要素を「オブジェクト」と呼びます。
* _オブジェクト枠:_ オブジェクトを選択して表示される枠や、枠周辺の丸い ポインタを使い、位置やサイズの調整をします。この枠のことを「オブジェクト枠」と記載します。
* その他、アプリケーション固有の用語は、各画面の説明で行います。",,ラベル屋さん10にできること," エーワン™製品1,000種以上のラベルシールやカード用紙に文字やイメージ画像を配置・編集してデザインを作成し、印刷ができます。  
テンプレートを利用して、簡単にラベルやカードのデザイン作成が可能です。また、 差し込み機能を利用して、宛名や出荷ラベルの印刷もできます。",,,,,,,,,,,,,,,,,,,,
P-2,1_02-firstly_caution,はじめに,1,firstly,ラベル屋さん9をお使いの方へ,02,caution,以前のバージョンでもラベル屋さんをご利用いただいていた方へのご案内と注意点,ラベル屋さん9をお使いの方へ,"### 作成したデザインファイルの利用について
『ラベル屋さん9』で作成したデザインファイル(lcxファイル)は『ラベル屋さん10』でも読み込めます。  
  
<img1 lcxファイル>  

ただし、ラベル屋さん10 web版ではパソコンに入っているフォントの使用ができません。  
そのため、利用できないフォントを含んだファイルを開くと、以下のダイアログが表示され、別のフォントに代替えされます。  

<img2 フォント変更>  

異なる環境で作成したファイルで使用できないフォントを含んでいる場合も表示されます。  ","![画像L lcx説明](./images/1/1_02-firstly_caution_1.png ""lcx説明"")  
![全体画面 フォント変更](./images/1/1_02-firstly_caution_2.png ""フォント変更"")",,,,,,,,,,,,,,,,,,,,,,,,,,,,
P-3,1_03-firstly_specification,はじめに,1,firstly,ラベル屋さん10の仕様,03,specification,最新バージョンのラベル屋さんの仕様について説明します,ラベル屋さん10の仕様,,,デザインファイルと差し込みファイルについて,"### デザインファイル
ホーム画面の[新規作成]から作成したデザインの保存ファイルで、拡張子は”aly”になります。  
保存されているデザインを差し込みに使用することができます。  

### 差し込みファイル
ホーム画面の[差し込み新規作成]から作成した差し込み用保存ファイルで、拡張子は”alym”になります。  
ホーム画面の[ファイルを開く]で開くと差し込みモードに切り替わります。  ",,表組の上限,表の列数の上限は10列、行数は10行です。,,差し込み表の上限,"### 行の上限 
追加できる行数は500行までです。

### 列の上限
追加できる列数は78列まで(BZ列まで)です。",,利用可能な画像のファイル形式,"デザイン画面で使用できるイメージファイルの形式は  
『bmp』, 『jpg』, 『png』, 『svg』です。",,使用できるフォント,"ラベル屋さん10では以下のフォントが使用できます。

### 日本語
* [Kosugi](https://fonts.google.com/specimen/Kosugi)
* [Kosugi Maru](https://fonts.google.com/specimen/Kosugi+Maru)
* [M PLUS 1p](https://fonts.google.com/specimen/M+PLUS+1p)
* [M PLUS Rounded 1c](https://fonts.google.com/specimen/M+PLUS+Rounded+1c)
* [Noto Sans JP](https://fonts.google.com/specimen/Noto+Sans+JP)
* [Noto Serif JP](https://fonts.google.com/specimen/Noto+Serif+JP)
* [さわらびゴシック](https://sawarabi-fonts.osdn.jp/index.html)
* [さわらび明朝](https://sawarabi-fonts.osdn.jp/index.html)

### Sans-Serif / ゴシック
* [Anton](https://fonts.google.com/specimen/Anton)
* [Fira Sans](https://fonts.google.com/specimen/Fira+Sans)
* [Lato](https://fonts.google.com/specimen/Lato)
* [McLaren](https://fonts.google.com/specimen/McLaren)
* [Monoton](https://fonts.google.com/specimen/Monoton)
* [Montserrat](https://fonts.google.com/specimen/Montserrat)
* [Muli](https://fonts.google.com/specimen/Muli)
* [Open Sans](https://fonts.google.com/specimen/Open+Sans)
* [Oswald](https://fonts.google.com/specimen/Oswald)
* [Raleway](https://fonts.google.com/specimen/Raleway)
* [Righteous](https://fonts.google.com/specimen/Righteous)
* [Work Sans](https://fonts.google.com/specimen/Work+Sans)

### Serif / 明朝
* [Abril Fatface](https://fonts.google.com/specimen/Abril+Fatface)
* [Cardo](https://fonts.google.com/specimen/Cardo)
* [Cutive](https://fonts.google.com/specimen/Cutive)
* [Lora](https://fonts.google.com/specimen/Lora)
* [Lusitana](https://fonts.google.com/specimen/Lusitana)
* [Merriweather](https://fonts.google.com/specimen/Merriweather)
* [Playfair Display](https://fonts.google.com/specimen/Playfair+Display)
* [Slabo 27px](https://fonts.google.com/specimen/Slabo+27px)
* [Vollkorn](https://fonts.google.com/specimen/Vollkorn)

### スクリプト / 手書き
* [Amatic SC](https://fonts.google.com/specimen/Amatic+SC)
* [Covered By Your Grace](https://fonts.google.com/specimen/Covered+By+Your+Grace)
* [Great Vibes](https://fonts.google.com/specimen/Great+Vibes)
* [Indie Flower](https://fonts.google.com/specimen/Indie+Flower)
* [Lobster](https://fonts.google.com/specimen/Lobster)
",,,,,,,,,,,,,,
P-4,1_04-firstly_features,はじめに,1,firstly,ラベル屋さん10の特徴,04,features,多くの新機能が盛り込まれた最新バージョンのラベル屋さんの特徴を紹介します,ラベル屋さん10の特徴,"ラベル屋さん10は、HTML技術を基盤にして開発されています。  
Web版は動作環境に記載されたHTML5対応ブラウザを使い、プラグイン不要でそのまま利用できます。  
また、多くの独自実装により、例えば標準文字や円周文字のダイレクト入力。  
文字や図形のベクター処理で滑らかな印刷を可能にしています。  ",,その他の主なラベル屋さん10の新機能,"* 画面の色を変えられるカラースキン機能
* 画像やイラストもベクター系ファイル形式のSVGに対応
* オブジェクトのマウス操作時に便利なスマートガイド
* 標準文字オブジェクトの複数選択時にプロパティの一括指定
* 標準文字オブジェクトの文字単位の色、大きさやフォントの指定
* オブジェクトリストでグループを展開してグループ内のオブジェクトの編集
* レイアウトでは別のデザインファイルにあるデザインを利用できます
",,差し込み機能の独立,"ラベル屋さん10の差し込み機能は、以下の目的のためにトップ画面で明確に分けました。  
* 誤った操作による差し込み状態有効で発生する混乱の回避
* 関連付け操作と差込データ確認に特化したわかりやすい画面遷移やUIの導入
",,,,,,,,,,,,,,,,,,,,,,,
P-5,2_01-operation_tips,操作概要,2,operation,操作Tips,01,tips,ラベル屋さん10でラベルをデザインする際の主な機能について説明します,操作Tips,"ラベル屋さん10では、デザイン作成を行うのに便利な機能が用意されています。  
これらの機能を利用して、効率良くデザインを作成することができます。

ラベル屋さん10のマニュアルも御用意しています。[ラベル屋さんマニュアル](http://labelyasan.a-one.jp/support/#sct02) になります。",,プロフィール機能,"ホーム画面のプロフィールに、名前や住所を登録すると、名刺などの対応するテンプレートの名前や住所に、プロフィール情報を表示できます。    

<img1 プロフィール>","![POP画像L プロフィール画面](./images/2/2_01-operation_tips_01.png ""プロフィール画面"")",メインツールバー,"『デザイン編集画面』や『レイアウト画面』では、[元に戻す]、[やり直す]ボタンやデザイン表示の拡大・縮小、  
[自動]ボタン、[面回転]ボタンで編集を円滑に進めることができます。

<img1 共通ツールバー>

### 元に戻す・やり直すボタン
[元に戻す]ボタンで操作する前の状態に戻したり、[やり直す]ボタンで戻した操作をやり直せます。

### デザイン表示サイズ操作
⊕ボタンでズームイン、⊝ボタンでズームアウト、スライドバーでもズームを調節可能で、[自動]ボタンは画面サイズに合わて表示します。

### 面回転ボタン
編集しているラベル面の回転は、[面回転]ボタンを利用します。これにより、面を回転させながら編集が可能です。","![上部ツール 共通ツールバー](./images/2/2_01-operation_tips_02.png ""共通ツールバー"")",オブジェクトリストの利用,"<img1 オブジェクトリスト>

複雑に重なり合うデザインや、フレーム枠の下の写真など、マウスで選択しにくい場合は画面左下にある[オブジェクトリスト]の利用が便利です。  
オブジェクトリストで編集したいオブジェクトを選択でき、グループ化やロック操作、表示順位の変更ができます。  ","![サイドツール オブジェクトリスト](./images/2/2_01-operation_tips_03.png ""オブジェクトリスト"")",オブジェクト枠の微調整,"<img1 位置移動>

サイズや位置、角度を数値入力できます。  
複数の文字オブジェクト枠の位置を、上下や左右・中央に揃える場合は[位置・移動]の、入力ボックスや整列ボタンで調整します。

","![サイドツール 位置移動](./images/2/2_01-operation_tips_04.png ""位置移動"")",デザインファイルと差し込みファイルについて,"### デザインファイル
ホーム画面の[新規作成]から作成したデザインの保存ファイルで、拡張子は”aly”になります。  
保存されているデザインを差し込みに使用することができます。  

### 差し込みファイル
ホーム画面の[差し込み新規作成]から作成した差し込み用保存ファイルで、拡張子は”alym”になります。  
ホーム画面の[ファイルを開く]で開くと差し込みモードに切り替わります。  ",,文字編集について,"### 文字編集の始めかた
文字オブジェクトを配置すると、すぐに文字入力が可能です。  
より

### フォント変更
文字オブジェクト選択中に表示される[フォント]をクリックし、使いたいフォントを選択することでフォントを変えることができます。    

<img1 通常文字フォント変更前>  

<img2 通常文字フォント変更後>   

### サイズ変更
文字オブジェクト選択中に表示される[サイズ]に数値を入力したり[上下]ボタンをクリックすることで文字の大きさを変更できます。  
※[自動]にチェックが入っていない場合のみ変更が可能です。  

<img3 通常文字サイズ変更前>  

<img4 通常文字サイズ変更後>  

### カラー変更
文字オブジェクト選択中に表示される[色]をクリックすることで文字の色を変更できます。
色の設定方法は下の「色変更」に説明があります。  

<img5 通常文字色変更前>  

<img6 通常文字色変更後>  
","![全体画面 通常文字フォント変更前](./images/2/2_01-operation_tips_06.png ""通常文字フォント変更前"")  
![全体画面 通常文字フォント変更後](./images/2/2_01-operation_tips_07.png ""通常文字フォント変更後"")  
![全体画面 通常文字サイズ変更前](./images/2/2_01-operation_tips_08.png ""通常文字サイズ変更前"")  
![全体画面 通常文字サイズ変更後](./images/2/2_01-operation_tips_09.png ""通常文字サイズ変更後"")  
![全体画面 通常文字色変更前](./images/2/2_01-operation_tips_10.png ""通常文字色変更前"")  
![全体画面 通常文字色変更後](./images/2/2_01-operation_tips_11.png ""通常文字色変更後"")",色変更,"<img1 カラーピッカー>  

文字の色や図形の塗りつぶしなど、色を変更する際には下のコントローラーで色を操作します。  

1. 設定したい色の部分をクリックすることで、クリックした部分の色に変更できます。
2. 白色のバーを動かすことで色を変更できます。
3. Hex、RGBの数値で色を設定できます。
4. カラーテンプレートを選択することで色を設定できます。  
","![サイドツール カラーピッカー](./images/2/2_01-operation_tips_12.png ""カラーピッカー"")",図形ポインタについて,"<img1 図形変更前>  

三角形や星などの図形は編集点を追加することで図形の形を自在に変化することが可能です。  

例えば、三角形に操作点を追加し、追加した点を動かすことで図形を三角形からダイヤ状の四角形に変更することができます。

<img2 図形変更後>","![全体画面 図形変更前](./images/2/2_01-operation_tips_13.png ""図形変更前"")
![全体画面 図形変更後](./images/2/2_01-operation_tips_14.png ""図形変更後"")",,,,
P-6,2_02-operation_flow,操作概要,2,operation,操作の流れ,02,flow,新規にラベルを作成する際の全体的な流れを説明します,操作の流れ,ここでは新規作成操作時の全体的な流れを説明します。,,1.起動,"『ラベル屋さん10』を起動します。

<img1 スプラッシュ>","![全体画面 スプラッシュ](./images/3/3_01-screen_top_11.png ""スプラッシュ"")",2.新規作成,"[新規作成]ボタンをクリックします。

<img1 トップ画面新規作成>
","![ ](./images//_-__ """")",3.用紙選択,"用紙選択画面が表示されたら利用する用紙を検索してクリックして[決定]してください。  

<img1 用紙選択画面>

","![全体画面 用紙選択画面](./images/3/3_02-screen_paper_1.png ""用紙選択画面"")",4.テンプレートの選択,"左の検索条件で、一辺サイズに近いもので絞り込み、キーワードからテンプレートの検索が行えます。

<img1 テンプレート画面>","![全体画面 テンプレート画面](./images/2/2_03-operation_template_1.png ""テンプレート画面"")",5.デザイン編集画面,"上部のバーより、『文字』や『画像』、『図形』などデザインに使うオブジェクトを挿入することが可能です。  
左のオブジェクトリストでは各オブジェクトのグループ化や、オブジェクトのロック操作が行えます。

<img1 デザイン編集画面>","![全体画面 デザイン編集画面](./images/4/4_00-design_index_1.png ""デザイン編集画面"")",6.レイアウト画面,"デザインを各面に配置して印刷用のレイアウトを作成します。  
デザイン面を選びコピーやデザインの再編集をして印刷レイアウトを完成させます。  

<img1 レイアウト画面>","![全体画面 レイアウト画面](./images/5/5_00-layout_index_1.png ""レイアウト画面"")",7.印刷画面,"印刷を行います。  
印刷面の表裏や、印刷ページ数の確認が終わったら、[印刷する]ボタンをクリックし印刷を行いましょう。

<img1 印刷画面>","![全体画面 印刷画面](./images/6/6_00-print_index_1.png ""印刷画面"")",8.保存,"作成したデザインの保存は[保存]ボタンを使います。  
初期の保存名は「日付-用紙の品番」になります。  
Web版ではファイルのダウンロードとして保存します。  ",,,,,
P-7,2_03-operation_template,操作概要,2,operation,テンプレートの利用,03,template,テンプレートを使うことでデザインの整ったラベルやカードが簡単に作成できます,テンプレートの利用,"テンプレート(雛形)を利用すればデザインされたラベルやカードが簡単に作成できます。  
この機能を理解することで、『ラベル屋さん10』をより便利にご利用いただくことができます。

<img1>","![全体画面 テンプレート画面](./images/2/2_03-operation_template_1.png ""テンプレート画面"")",使用テンプレート選択,"### 使用テンプレート選択
一覧の中からテンプレートを選択します。  
最初は用紙に関連付いたカテゴリ用途のテンプレートが表示されます。  
左のカテゴリ リストから利用したいカテゴリを選ぶことができます。

### 検索条件チェックボックス
選択中のカテゴリ内で、一片サイズに近いものに絞り込んでテンプレートを表示します。

### カテゴリ
リストやキーワードで利用用途に合わせたテンプレートを表示します。",,テンプレートの選択,"テンプレート表示部分をクリックすると、[このテンプレートを選択しますか]ダイアログが表示されます。

<img1 テンプレート選択ダイアログ>

画像や図形等の縦横比を崩したくない場合は[縦横比固定]にチェックを入れます。  
編集面を回転して貼り付けたい場合は、[編集面を～]プルダウンリストから、回転させたい角度を選んでください。

上記設定を確認して、利用する場合は[決定]ボタンをクリックしてください。","![全体画面 テンプレート選択ダイアログ](./images/2/2_03-operation_template_2.png ""テンプレート選択ダイアログ"")",,,,,,,,,,,,,,,,,,,,,,
P-8,2_04-operation_cloud,操作概要,2,operation,クラウドの利用について(4月中),04,cloud,■デスクリプション,,,,,,,,,,,,,,,,,,,,,,,,,,,,,,,
P-9,3_00-screen_index,画面説明,3,screen,画面説明,00,index,基本的な操作を行う画面と、画面共通のボタンやメニューについて説明します,画面説明,"ここでは、上記操作画面以外の主な画面と、画面共通のボタンやメニューについて説明します。

操作のメイン画面になるデザイン・レイアウト・印刷・差し込み画面については、各説明ページでご確認ください。  

",,ホーム画面,"ラベル屋さん™ラベル＆カード作成ソフト10の起動時に表示する画面です。
別の画面からは左上のホームボタンでトップ画面に戻れます。",,用紙選択,新規作成時や用紙の変更で利用するページです。ここで使用する用紙が設定できます。,,操作画面の共通部分,メインの設定画面で共通のボタンやアイコンについて説明します。,,,,,,,,,,,,,,,,,,,,
P-10,3_01-screen_top,画面説明,3,screen,ホーム画面,01,top,ラベル屋さん10 の起動後最初に表示される画面について説明します,ホーム画面,"<img1>  

『ラベル屋さん10』の起動画面で、各画面からホーム画面へは、最上部の画面移動タブバーを利用します。  


ラベル屋さん10の起動準備中にアニメーションのスプラッシュ画面を表示します。  
アニメーション終了より先に読み込み準備が終わると右上に[クリックしてスキップ]と表示されるので、  
画面の任意の場所をクリックすれば残りのアニメーションをスキップしてトップ画面を表示します。  

<img2>","![全体画面 トップ画面](./images/3/3_01-screen_top_01.png ""トップ画面"")  
![全体画面 スプラッシュ](./images/3/3_01-screen_top_11.png ""スプラッシュ"")",[ファイルを開く],"<img1>  

以前に保存した作成済みのデザインファイルを開きます。  
ラベル屋さん9のファイルを開くこともできます。","![ボタン ファイルを開くボタン](./images/3/3_01-screen_top_02.png ""ファイルを開くボタン"")",[新規作成],"<img1>  

用紙を選んでデザインファイルを新規作成します。","![ボタン 新規作成ボタン](./images/3/3_01-screen_top_03.png ""新規作成ボタン"")",[差し込み新規作成]ボタン,"<img1>  

新規に用紙とテンプレートを選択したり、デザインファイルから差し込みファイルを作成します。  ","![ボタン 差し込み新規作成ボタン](./images/3/3_01-screen_top_04.png ""差し込み新規作成ボタン"")",[プロフィール設定]ボタン,"<img1>  

画面右下のボタンから、名刺作成などに反映できるプロフィールの設定ができます。","![ボタン プロフィールボタン](./images/3/3_01-screen_top_05.png ""プロフィールボタン"")",[カラースキン]ボタン,"<img1>

画面右下のボタンから、ラベル屋さん™ラベル＆カード作成ソフト10の背景色などの色を変更できます。

<img2>

### テーマ
ラベル屋さん™ラベル＆カード作成ソフト10で用意したテンプレートカラーを選択できます。

### メイン色
タブバーなどの色を変更できます

### 背景色
デザイン編集画面の背景色などを変更できます。

### 文字色A、文字色B
文字の色を変更できます。
","![ボタン カラースキンボタン](./images/3/3_01-screen_top_09.png ""カラースキンボタン"")
![POP画像L カラースキン](./images/3/3_01-screen_top_10.png ""カラースキン"")",[一覧で見る],"<img1>  

新商品など、ラベル屋さん™ラベル＆カード作成ソフト10関連の最新情報の一覧を表示できます。","![ボタン 一覧で見る](./images/3/3_01-screen_top_08.png ""一覧で見る"")",,,,,,,,,,
P-11,3_02-screen_paper,画面説明,3,screen,用紙選択,02,paper,用紙選択時に希望の用紙を検索する方法や用紙設定について説明します,用紙選択 ,"<img1>  

新規作成時の[用紙選択画面]です。表示されている製品パッケージを選択します。  
品番やキーワード検索で絞り込みできます。  
選択した用紙でデザインの作成に移動するには、以下の方法があります。
* 用紙をダブルクリックする
* 選択した用紙の下に表示される[決定]ボタンをクリックする
* 右パネルの上にある[次へ]ボタンをクリックする

また、利用する用紙を検索することも可能です。","![全体画面 用紙選択画面](./images/3/3_02-screen_paper_1.png ""用紙選択画面"")",品番検索,"<img1>  

すでに用紙を持っている際はこの欄に品番を入力し、[検索]ボタンをクリックしてください。入力した品番の用紙が検索できます。  また、品名を入力することでも検索が可能です。  ","![上部ツール 品番検索](./images/3/3_02-screen_paper_2.png ""品番検索"")",一片サイズから検索,"<img1>  

<img2>  

右側の[一片サイズから検索]ボタンをクリックすると、大きさを入力する欄が表示され、一片サイズ検索ができます。  
品番検索に戻る場合は[品番・品名から探す]ボタンをクリックします。  ","![サイドツール 一片サイズから検索ボタン](./images/3/3_02-screen_paper_3.png ""一片サイズから検索ボタン"")
![上部ツール 一片サイズから検索](./images/3/3_02-screen_paper_4.png ""一片サイズから検索"")",用紙の向き,"<img1>  

編集する際に用紙の向きをあらかじめ変更することができます。  
回転しない,右90°,右180°,右270°から選択できます。","![サイドツール 用紙の向き](./images/3/3_02-screen_paper_5.png ""用紙の向き"")",用紙情報,"<img1>  

選択した用紙の情報を確認できます。  
用紙名、品番、対応する印刷面、用紙サイズ、一片サイズが確認できます。  
また、[商品詳細ブラウザを開く]でブラウザを開きオンラインカタログを表示します。","![POP画像M 用紙詳細情報](./images/3/3_02-screen_paper_6.png ""用紙詳細情報"")",用紙を探すなら…,"エーワン™のホームページの「商品情報サイト」を利用して、特設ページや用途別製品案内から探して、  
オンラインカタログで詳細情報を確認できます。是非御活用ください。    
[エーワン™](https://www.a-one.co.jp/product/)  
",,,,,,,,,,,,,,
P-12,3_03-screen_tools,画面説明,3,screen,操作画面の共通部分,03,tools,各画面の移動や、画面移動時の注意点について説明します,操作画面の共通部分,,,画面移動タブバー,"タブバーをクリックするとそれぞれの画面へ移動できます。  

<img1>

### [ホーム]
トップ画面に戻ります。

### [用紙選択]
用紙選択画面に移動します。

### [テンプレート]
テンプレート選択画面に移動します。

### [デザイン編集]
デザイン編集画面に移動します。

### [レイアウト]
レイアウト画面に移動します。

### [印刷]
印刷画面に移動します。

### [差し込み]
差し込み画面に移動します。  
このボタンは差し込みの操作の時に表示されます。","![上部ツール タブバー](./images/3/3_03-screen_tools_1.png ""タブバー"")",保存確認,"<img1>  

デザイン編集中にタブバーのボタンで画面を移動すると表示されます。  
ここで作成中のデザインを保存することが可能です。

### [保存する]
編集中のデザインをaly方式で保存します。

### [破棄して進む]
編集中のデザインを破棄します。

### [キャンセル]
元の画面に戻ります。","![POP画像L 保存確認](./images/3/3_03-screen_tools_2.png ""保存確認"")",,,,,,,,,,,,,,,,,,,,,,
P-13,3_04-screen_menu,画面説明,3,screen,操作画面のメニュー(DL版のみ),04,menu,■デスクリプション,,,,,,,,,,,,,,,,,,,,,,,,,,,,,,,
P-14,4_00-design_index,デザイン画面,4,design,デザイン画面,00,index,デザイン画面での操作の概要を説明します,デザイン画面,"ラベルのデザインを編集する画面となります。
ここの画面では様々なオブジェクトを配置してデザインを作成します。

<img1 デザイン画面>","![全体画面 デザイン編集画面](./images/4/4_00-design_index_1.png ""デザイン編集画面"")",デザイン画面の操作,"### [デザイン編集領域](./4_01-design_main_pane.html)
デザインを作成・編集します。  
オブジェクトの作成や、選択して表示されるオブジェクト枠を使い、サイズの変更や位置移動、回転ができます。  

編集面自体のを回転させて効率よくデザインを作成編集できます。  


### [左パネル](./4_02-design_controller_l.html)
画面左側の操作面で、デザインの編集面の切り替えやオブジェクトリストの操作をします。

### [通常文字](./4_03-design_text.html)
通常のテキストを入力できる文字オブジェクトを配置します。

### [円周文字](./4_04-design_text_circle.html)
文字を円周状に配置する円周文字オブジェクトを配置します。

### [3D文字](./4_05-design_text_3d.html)
文字が立体的に表示される3D文字オブジェクトを配置します。

### [日付文字](./4_06-design_text_date.html)
日付を自動的に表示する日付文字オブジェクトを配置します。

### [画像](./4_07-design_img.html)
イメージファイルを貼り付ける画像オブジェクトを配置します。
ラベル屋さんにある素材画像だけでなく、パソコンに保存してある画像も配置可能です。

### [四角形](./4_08-design_square.html)
四角形の図形オブジェクトを配置します。

### [多角形(三角形、五角形、六角形、星、矢印)](./4_09-design_poly.html)
三角形や三角形、五角形、六角形、星、矢印の図形オブジェクトを配置します。
このオブジェクトは図形を変えることも可能です。

### [丸](./4_10-design_circle.html)
丸の図形オブジェクトを配置します。

### [直線](./4_11-design_straight.html)
直線のオブジェクトを配置します。
始点や終点を矢印などに指定できます。

### [曲線](./4_12-design_curve.html)
曲線のオブジェクトを配置します。
操作点の増減が可能です。  

### [バーコード](./4_13-design_barcode.html)
バーコードのオブジェクトを配置します。
JANや物流用など、様々なバーコードが使用可能です。

### [QRコード](./4_14-design_qrcode.html)
QRコードのオブジェクトを配置します。

### [表](./4_15-design_table.html)
表のオブジェクトを配置します。
表のセルに文字を入力することが可能です。

### [連番](./4_16-design_serial.html)
連番のオブジェクトを配置します。

デザイン面ごとに番号を振り分けることができます。

### [複数オブジェクト選択時](./4_18-design_multiselect.html)
複数選択時は位置や、一部のプロパティを同時に編集できます。

### [編集画面の書き出し](./4_19-design_export.html)
編集しているデザイン面をpngもしくはjpg方式で保存ができます。 ",,,,,,,,,,,,,,,,,,,,,,,,,,
P-15,4_01-design_main_pane,デザイン画面,4,design,デザイン編集領域,01,main_pane,ラベルのデザインを作成する画面での基本的な操作を説明します,デザイン編集領域,"デザイン編集画面になります。  
上部ツールバーより、[文字][画像]の挿入など新規オブジェクトの作成が行えます。  
作成したオブジェクトを選択することで、右パネルにてプロパティや位置・サイズの編集を行います。",,オブジェクトの作成,"上部ツールバーより作成するオブジェクトボタンをクリックします。
複数のオブジェクトがある場合は作成できるオブジェクトボタンが表示されるので選択してクリックします。  

<img1 オブジェクト配置前>  

<img2 オブジェクト配置後>","![全体画面 オブジェクト配置前](./images/4/4_01-design_main_pane_1.png ""オブジェクト配置前"")
![全体画面 オブジェクト配置後](./images/4/4_01-design_main_pane_2.png ""オブジェクト配置後"")",オブジェクトの削除,"選択後にDeleteキーを押します。また、右パネルや右クリックの[削除]も使えます。  
ロックされているオブジェクトはロックを解除してから解除します。",,オブジェクトの選択,"オブジェクトの選択枠オブジェクトリスト編集領域のデザイン上やオブジェクトリストをクリックします。  

但し、ロックされたオブジェクトはマウス操作できません。  
例えば、写真前面のロックされたフレームは無視され、その下にある写真(画像オブジェクト)が選択されます。  
マウス操作をするためには、オブジェクトリストでロックされたオブジェクトのロックアイコンをクリックして解除してください。

<img1 ロックアイコン>","![サイドツール ロックアイコン](./images/4/4_01-design_main_pane_3.png ""ロックアイコン"")",オブジェクト枠とポインター,"選択されたオブジェクトは、文字や画像など領域を持つオブジェクトの場合、隣接する枠と、サイズや回転用の丸いポインターを表示します。

<img1 オブジェクト枠とポインター>

線や曲線は、始点と終点、制御点にポインターを表示します。

<img2 線のポインター>","![全体画面 オブジェクト枠とポインター](./images/4/4_01-design_main_pane_4.png ""オブジェクト枠とポインター"")
![全体画面 線のポインター](./images/4/4_01-design_main_pane_5.png ""線のポインター"")",複数選択,"オブジェクトのない部分からマウスをドラッグして複数のオブジェクトの表示部分に交わる矩形を描きマウスボタンを離すと、複数のオブジェクトを選択できます。

複数選択したオブジェクトは、まとめて移動できます。
プロパティ編集領域には、最後に選んだオブジェクト(ドラッグの場合は一番下)のプロパティが表示され、編集可能です。

<img1 複数選択時>  
  

更にグループ化することでポインタが表示され、回転やリサイズができます。

<img2 グループ化しているオブジェクトの画像>","![画像M 複数選択時](./images/4/4_01-design_main_pane_6.png ""複数選択時"")
![画像M グループ化しているオブジェクトの画像](./images/4/4_01-design_main_pane_7.png ""グループ化しているオブジェクトの画像"")",,,,,,,,,,,,,
P-16,4_02-design_controller_l,デザイン画面,4,design,左パネル,02,controller_l,デザイン画面の左側の共通ツールについて説明します,左パネル,,,編集面の切り替え,"編集面の切り替えを行うことができます。  
編集面の切替面をクリックしたり、上下や左右のボタンをクリックすることで編集面を切り替えることができます。  
右側のページ数表示部分でページの切り替えも可能です。  
また、両面利用可能な用紙では右上の表裏ボタンが表示されて切り替えることが可能です。  

<img1>","![サイドツール 編集面の切り替え](./images/4/4_02-design_controller_l_1.png ""編集面の切り替え"")",オブジェクトリスト,"オブジェクトの一覧を表示して、選択や重なり順の変更、ロック、グループ化等が行えます。  
例えば写真の上に飾り枠を配置した場合、デザイン表示領域では写真部分をクリックしても前面の飾り枠が選択されますが、オブジェクトリストのでは写真を選択できます。

<img1>

### 選択、複数選択、移動
オブジェクト部分をクリックすることで選択でき、Shiftを押しながらクリックで複数選択します。  
オブジェクトの重なり合う表示順位は、オブジェクトリストの表示順になります。  
表示順位は、選択したオブジェクトをオブジェクトリスト上で上下にドラッグします。  

### グループ化
グループボタンをクリックすると、選択中のオブジェクトをグループ化し、グループの中にもグループを作成できます。  
グループを選択して、グループ内のオブジェクト全てを同時に移動や回転、サイズ変更ができます。  
グループアイコン部分をクリックすると、展開してグループ内のオブジェクト表示し、もう一度クリックすることで折りたたみます。  
展開すればグループを解除することなく特定のオブジェクトの編集が可能です。  
また、オブジェクトリストで選択しているオブジェクトをドラッグすることでグループに入れたり、グループから外に出すこともできます。  

<img2>

<img3>

### オブジェクト名変更
右クリックの[名前変更]や、ダブルクリックでオブジェクトの名前を編集できます。  ","![Objectサンプル オブジェクトリスト](./images/4/4_02-design_controller_l_2.png ""オブジェクトリスト"")
![ボタン グループボタン](./images/4/4_02-design_controller_l_3.png ""グループボタン"")
![サイドツール オブジェクトリスト-グループ](./images/4/4_02-design_controller_l_4.png ""オブジェクトリスト-グループ"")",オブジェクトリストのコンテキストメニュー,"オブジェクト名上で右クリックをすることで、コンテキストメニューが表示され、以下の操作が行えます。

<img1>

* _コピー:_ オブジェクトをコピーして複製を貼り付けます。
* _削除:_ オブジェクトを削除します。
* _ロック/ロック解除:_ オブジェクトのロックを切り替えます。ロックしたオブジェクトはマウスで選択ができません。
* _最前面へ:_ オブジェクトを最前面に移動します。
* _最背面へ:_ オブジェクトを最背面へ移動します。
* _名前変更:_ オブジェクトの名前を変更します。","![サイドツール オブジェクトリスト右クリック](./images/4/4_02-design_controller_l_5.png ""オブジェクトリスト右クリック"")",ロック,"ロックしたり、ロックを解除するには、設定するオブジェクトリスト右端部分か、右クリックメニューの[ロック/ロック解除]で操作します。  
例えば写真の上に飾り枠を配置した場合、デザイン表示領域では写真部分をクリックしても前面の飾り枠が選択されます。  
この場合でもオブジェクトリストで写真を選択できますが、デザイン表示領域でもロックされた飾り枠部分をクリックすると、ロックされた飾り枠は無視され、下の写真を選択できます。
",,,,,,,,,,,,,,,,,
P-17,4_03-design_text,デザイン画面,4,design,通常文字,03,text,文字オブジェクトの扱い方について説明します,通常文字,"文字を表示します。
文字の一部を選択すると右パネルのプロパティ表示が変わり、選択文字の色や大きさ、フォントの変更もできます。  
通常文字オブジェクトは配置後すぐに文字入力ができます。  

__※通常文字オブジェクトを移動させたい際は、通常文字オブジェクトの枠線をドラッグしてください。  
　枠線内だと文字入力モードになってしまい、うまく動かせないことがあります。__

<img1 通常文字オブジェクト>","![Objectサンプル 通常文字オブジェクト](./images/4/4_03-design_text_01.png ""通常文字オブジェクト"")",通常文字設定,"文字単位の選択をしていない場合に変更できるプロパティです。

### スタイル
<img1 フォント>
* _フォント:_ 通常文字のフォントを変更します  

<img2 文字色>
* _色:_ 通常文字の色を変更します  

<img3 透明度>
* _透明度:_ 通常文字の透明度を変更します  

<img4 サイズ>
* _サイズ:_ 通常文字のサイズを変更します  

<img5 文字サイズ自動>
* _自動:_ 文字枠に合わせて文字サイズを自動変更します※[自動]の時は操作できません  
* _自動折り返し:_ 文字枠に合わせて文字を自動で折り返します  

<img6 字間>
* _字間:_ 通常文字の字間を変更します  

<img7 行間>
* _行間:_ 通常文字の行間を変更します  

<img8 横書き縦書き>
* _横書き:_ 通常文字を横書きに変更します  
* _縦書き:_ 通常文字を縦書きに変更します  

<img9 文字揃え>
* _左揃え:_ 通常文字を左端に揃えます  
* _中央揃え:_ 文字を横中央に揃えます  
* _右揃え:_ 通常文字を右端に揃えます  
* _両端揃え:_ 文字枠内で左右に余白ができないように文字の間隔を均等に調整します  
* _上揃え:_ 通常文字を表示枠の上に配置します  
* _中央配置:_ 通常文字を表示枠の縦中央に配置します  
* _下揃え:_ 通常文字を表示枠の下に配置します  

<img10 文字スタイル>
* _太字:_ 通常文字を太字に変更します※フォントにより太字がない場合があります。  
* _斜体:_ 通常文字を斜体に変更します※フォントにより斜体がない場合があります。  
* _下線:_ 通常文字に下線を引きます  

<img11 文字横幅>
* _文字横幅:_ 通常文字の横幅を変更します  

<img12 全角>
* _全角:_ 半角文字を全角に変更します  

<img13 語頭語尾>
* _語頭追加:_ 語頭に文字を追加します  
* _語尾追加:_ 語尾に文字を追加します  

### 影・縁取り
<img14 影>
* _影:_ 通常文字に影を追加します  
* _色:_ 影の色を変更します  
* _距離:_ 通常文字と影の距離を変更します  
* _角度:_ 影の角度を変更します  
* _ぼかし:_ 影のぼかし具合を変更します  
* _透明度:_ 影の透明度を変更します  

<img15 縁>
* _縁取り:_ 通常文字に縁取りを追加します  
* _色:_ 縁取りの色を変更します
* _太さ:_ 縁取りの太さを変更します  
* _透明度:_ 縁取りの透明度を変更します  

### 位置・移動
<img16 オブジェクト名>
* _オブジェクト名:_ オブジェクト名を変更します  

<img17 位置>
* _位置(横):_ 文字枠の横開始位置を変更します  
* _位置(縦):_ 文字枠の縦開始位置を変更します  

<img18 幅>
* _横幅:_ 文字枠の横幅を変更します  
* _縦幅:_ 文字枠の高さを変更します  

<img19 回転>
* _回転:_ 文字枠を回転させます  

<img20 コピー>
* _コピー:_ 文字オブジェクトをコピーして新たに配置します  

<img21 削除する>
* _削除する:_ 文字オブジェクトを削除します  

<img22 オブジェクトの整列>
* _左揃え:_ 文字枠を一片の左端に揃えます  
* _縦中央揃え:_ 文字枠を縦方向に中央揃えします  
* _右揃え:_ 文字枠を右に揃えます  
* _縦均等揃え:_ 文字枠を縦方向に均等揃えします  
* _上揃え:_ 文字枠を上に揃えます  
* _横中央揃え:_ 文字枠を横方向に中央揃えします  
* _下揃え:_ 文字枠を下に揃えます  
* _横均等揃え:_ 文字枠を横方向に均等揃えします ","![サイドツール 共通:フォント](./images/4/common/4_0-design_co_tools_06.png ""共通:フォント"")
![サイドツール 共通:文字色](./images/4/common/4_0-design_co_tools_30.png ""共通:文字色"")
![サイドツール 共通:透明度](./images/4/common/4_0-design_co_tools_22.png ""共通:透明度"")
![サイドツール 共通:文字サイズ](./images/4/common/4_0-design_co_tools_26.png ""共通:文字サイズ"")
![サイドツール 共通:文字サイズ自動](./images/4/common/4_0-design_co_tools_27.png ""共通:文字サイズ自動"")
![サイドツール 共通:字間](./images/4/common/4_0-design_co_tools_15.png ""共通:字間"")
![サイドツール 共通:行間](./images/4/common/4_0-design_co_tools_13.png ""共通:行間"")
![サイドツール 共通:横書き縦書き](./images/4/common/4_0-design_co_tools_10.png ""共通:横書き縦書き"")
![サイドツール 共通:文字揃え](./images/4/common/4_0-design_co_tools_31.png ""共通:文字揃え"")
![サイドツール 共通:文字スタイル](./images/4/common/4_0-design_co_tools_28.png ""共通:文字スタイル"")
![サイドツール 共通:文字横幅](./images/4/common/4_0-design_co_tools_29.png ""共通:文字横幅"")
![サイドツール 共通:全角](./images/4/common/4_0-design_co_tools_20.png ""共通:全角"")
![サイドツール 共通:語頭語尾](./images/4/common/4_0-design_co_tools_12.png ""共通:語頭語尾"")
![サイドツール 共通:影](./images/4/common/4_0-design_co_tools_08.png ""共通:影"")
![サイドツール 共通:縁取り](./images/4/common/4_0-design_co_tools_09.png ""共通:縁取り"")
![サイドツール 共通:オブジェクト名](./images/4/common/4_0-design_co_tools_02.png ""共通:オブジェクト名"")
![サイドツール 共通:位置](./images/4/common/4_0-design_co_tools_07.png ""共通:位置"")
![サイドツール 共通:幅](./images/4/common/4_0-design_co_tools_23.png ""共通:幅"")
![サイドツール 共通:回転](./images/4/common/4_0-design_co_tools_11.png ""共通:回転"")
![サイドツール 共通:コピー](./images/4/common/4_0-design_co_tools_05.png ""共通:コピー"")
![サイドツール 共通:削除する](./images/4/common/4_0-design_co_tools_14.png ""共通:削除する"")
![サイドツール 共通:オブジェクトの整列](./images/4/common/4_0-design_co_tools_01.png ""共通:オブジェクトの整列"")",文字一部選択時,"部分的に文字を選択した場合は[スタイル]パネルのプロパティが変わります。  

<img1 一部選択時>

#### 部分選択時だけに表示され、使えるプロパティ  

<img2 一部文字 縦中横全角>
* _縦中横文字:_ 縦書き時に選択範囲の文字を横書きにします。  

#### 複数選択時に使用できないプロパティ  
[透明度]、サイズの[自動]、[自動折り返し]、[行間]、[横書き]/[縦書き]、横方向と縦方向の[揃え]、[語頭/語尾追加] は使用いただけません
","![Objectサンプル 一部選択時オブジェクト](./images/4/4_03-design_text_23.png ""一部選択時オブジェクト"")
![サイドツール 一部文字:縦中横全角](./images/4/4_03-design_text_24.png ""一部文字:縦中横全角"")",,,,,,,,,,,,,,,,,,,,,,
P-18,4_04-design_text_circle,デザイン画面,4,design,円周文字,04,text_circle,円周状に文字を作成できる文字オブジェクトの扱い方について説明します,円周文字,"文字を円周に配置する円周文字のオブジェクトです。  
縦書きにすることで、文字を放射線状に配置することも可能です。  
__※円周文字オブジェクトを移動させたい際は、円周文字オブジェクトの枠線をドラッグしてください。  
　枠線内だと文字入力モードになってしまい、うまく動かせないことがあります。__  

<img1>","![Objectサンプル 円周文字オブジェクト](./images/4/4_04-design_text_circle_01.png ""円周文字オブジェクト"")",円周文字の設定,"円周文字オブジェクトを選択している時に変更できる設定です。

### スタイル
<img1 フォント>
* _フォント:_ 文字のフォントを変更します  

<img2 文字色>
* _色:_ 文字色を変更します  

<img3 透明度>
* _透明度:_ 円周文字の透明度を変更します  

<img4 文字サイズ>
* _サイズ:_ 円周文字のサイズを変更します  

<img5 字間>
* _字間:_ 円周文字の字間を変更します  

<img6 行間>
* _行間:_ 文字の行間を変更します  

<img7 文字向き>
* _外向き:_ 文字を外向きに表示します  
内向き:文字を内向きに表示します  

<img8 縦書き横書き>
* _横書き:_ 文字を横書きに変更します  
* _縦書き:_ 文字を縦書きに変更します  

<img9 水平揃え>
* _左揃え:_ 文字の開始を左90°に揃えます  
* _中央揃え:_ 文字を中央から左右均等に揃えます  
* _右揃え:_ 文字の終わり部分を右90°に揃えます  

<img10 文字スタイル>
* _太字:_ 文字を太字に変更します※フォントにより太字がない場合があります。  
* _斜体:_ 文字を斜体に変更します※フォントにより斜体がない場合があります。  
* _下線:_ 文字に下線を引きます  

<img11 文字横幅>
* _文字横幅:_ 文字の横幅を変更します  


### 影・縁取り
<img12 影>
* _影:_ 円周文字に影を追加します  
* _色:_ 影の色を変更します  
* _距離:_ 円周文字と影の距離を変更します  
* _角度:_ 影の角度を変更します  
* _ぼかし:_ 影のぼかし具合を変更します  
* _透明度:_ 影の透明度を変更します  

<img13 縁>
* _縁取り:_ 円周文字に縁取りを追加します  
* _色:_ 縁取りの色を変更します  
* _太さ:_ 縁取りの太さを変更します  
* _透明度:_ 縁取りの透明度を変更します  


### 位置・移動
<img14 オブジェクト名>
* _オブジェクト名:_ オブジェクト名を変更します  

<img15 位置>
* _位置(横):_ 文字枠の横位置を変更します  
* _位置(縦):_ 文字枠の縦位置を変更します  

<img16 幅>
* _横幅:_ 文字枠の横幅を変更します  
* _縦幅:_ 文字枠の縦幅を変更します  

<img17 回転>
* _回転:_ 文字枠を回転させます  

<img18 コピー>
* _コピー:_ 文字枠をコピーして新たに配置します  

<img19 削除する>
* _削除する:_ 文字枠を削除します  

<img20 オブジェクトの整列>
* _左揃え:_ 文字枠を左に揃えます  
* _縦中央揃え:_ 文字枠を縦方向中央に揃えます
* _右揃え:_ 文字枠を右に揃えます  
* _縦均等揃え:_ 文字枠を縦方向均等に揃えます
* _上揃え:_ 文字枠を上に揃えます  
* _横中央揃え:_ 文字枠を横方向中央に揃えます
* _下揃え:_ 文字枠を下に揃えます  
* _横均等揃え:_ 文字枠を横方向均等に揃えます
","![サイドツール 共通:フォント](./images/4/common/4_0-design_co_tools_06.png ""共通:フォント"")
![サイドツール 共通:文字色](./images/4/common/4_0-design_co_tools_30.png ""共通:文字色"")
![サイドツール 共通:透明度](./images/4/common/4_0-design_co_tools_22.png ""共通:透明度"")
![サイドツール 共通:文字サイズ](./images/4/common/4_0-design_co_tools_26.png ""共通:文字サイズ"")
![サイドツール 共通:字間](./images/4/common/4_0-design_co_tools_15.png ""共通:字間"")
![サイドツール 共通:行間](./images/4/common/4_0-design_co_tools_13.png ""共通:行間"")
![サイドツール 円周文字:文字向き](./images/4/4_04-design_text_circle_08.png ""円周文字:文字向き"")
![サイドツール 共通:横書き縦書き](./images/4/common/4_0-design_co_tools_10.png ""共通:横書き縦書き"")
![サイドツール 円周文字:水平揃え](./images/4/4_04-design_text_circle_10.png ""円周文字:水平揃え"")
![サイドツール 共通:文字スタイル](./images/4/common/4_0-design_co_tools_28.png ""共通:文字スタイル"")
![サイドツール 共通:文字横幅](./images/4/common/4_0-design_co_tools_29.png ""共通:文字横幅"")
![サイドツール 共通:影](./images/4/common/4_0-design_co_tools_08.png ""共通:影"")
![サイドツール 共通:縁取り](./images/4/common/4_0-design_co_tools_09.png ""共通:縁取り"")
![サイドツール 共通:オブジェクト名](./images/4/common/4_0-design_co_tools_02.png ""共通:オブジェクト名"")
![サイドツール 共通:位置](./images/4/common/4_0-design_co_tools_07.png ""共通:位置"")
![サイドツール 共通:幅](./images/4/common/4_0-design_co_tools_23.png ""共通:幅"")
![サイドツール 共通:回転](./images/4/common/4_0-design_co_tools_11.png ""共通:回転"")
![サイドツール 共通:コピー](./images/4/common/4_0-design_co_tools_05.png ""共通:コピー"")
![サイドツール 共通:削除する](./images/4/common/4_0-design_co_tools_14.png ""共通:削除する"")
![サイドツール 共通:オブジェクトの整列](./images/4/common/4_0-design_co_tools_01.png ""共通:オブジェクトの整列"")",,,,,,,,,,,,,,,,,,,,,,,,,
P-19,4_05-design_text_3d,デザイン画面,4,design,3D文字,05,text_3d,文字を立体的にできる文字オブジェクトの扱い方について説明します,3D文字,"立体的な文字を表示させることができる3D文字のオブジェクトです。

<img1 3D文字オブジェクト>","![Objectサンプル 3D文字オブジェクト](./images/4/4_05-design_text_3d_01.png ""3D文字オブジェクト"")",3D文字の設定,"3D文字オブジェクトを選択している時に変更できる設定です。

### スタイル
<img1 共通フォント>
* _フォント:_ 文字のフォントを変更します

<img2 共通文字色>
* _色:_ 文字色を変更します

<img3 共通透明度>
* _透明度:_ 3D文字の透明度を変更します

<img4 3D文字厚み>
* _厚み:_ 文字の厚みを変更します

<img5 3D文字形状>
* _形状:_ 3D文字の形状を変更します

<img6 3D文字回転>
* _回転(Y):_ 3D文字をY方向に回転させる
* _回転(X):_ 3D文字をX方向に回転させる
* _回転(Z):_ 3D文字をZ方向に回転させる

<img7 3D文字ライト>
* _ライト(Y):_ 3D文字のY方向のライトを変更します
* _ライト(X):_ 3D文字をX方向のライトを変更します
* _ライト(Z):_ 3D文字をZ方向のライトを変更します

<img8 3D文字ライト設定>
* _反射:_ 3D文字の反射を変更します
* _輝き:_ 3D文字の輝きを変更します


### 位置・移動
<img9 共通オブジェクト名>
* _オブジェクト名:_ オブジェクト名を変更します

<img10 共通位置>
* _位置(横):_ 文字枠の横位置を変更します
* _位置(縦):_ 文字枠の縦位置を変更します

<img11 共通幅>
* _横幅:_ 文字枠の横幅を変更します
* _縦幅:_ 文字枠の縦幅を変更します

<img12 共通回転>
* _回転:_ 文字枠を回転させます

<img13 共通コピー>
* _コピー:_ 文字枠をコピーして新たに配置します

<img14 共通削除します>
* _削除します:_ 文字枠を削除します

<img15 共通オブジェクトの整列>
* _左揃え:_ 文字枠を左に揃えます  
* _縦中央揃え:_ 文字枠を縦方向に中央揃えします  
* _右揃え:_ 文字枠を右に揃えます  
* _縦均等揃え:_ 文字枠を縦方向に均等揃えします  
* _上揃え:_ 文字枠を上に揃えます  
* _横中央揃え:_ 文字枠を横方向に中央揃えします  
* _下揃え:_ 文字枠を下に揃えます  
* _横均等揃え:_ 文字枠を横方向に均等揃えします  ","![サイドツール 共通:フォント](./images/4/common/4_0-design_co_tools_06.png ""共通:フォント"")
![サイドツール 共通:文字色](./images/4/common/4_0-design_co_tools_30.png ""共通:文字色"")
![サイドツール 共通:透明度](./images/4/common/4_0-design_co_tools_22.png ""共通:透明度"")
![サイドツール 3D文字:厚み](./images/4/4_05-design_text_3d_12.png ""3D文字:厚み"")
![サイドツール 3D文字:形状](./images/4/4_05-design_text_3d_13.png ""3D文字:形状"")
![サイドツール 3D文字:回転](./images/4/4_05-design_text_3d_14.png ""3D文字:回転"")
![サイドツール 3D文字:ライト](./images/4/4_05-design_text_3d_15.png ""3D文字:ライト"")
![サイドツール 3D文字:ライト設定](./images/4/4_05-design_text_3d_16.png ""3D文字:ライト設定"")
![サイドツール 共通:オブジェクト名](./images/4/common/4_0-design_co_tools_02.png ""共通:オブジェクト名"")
![サイドツール 共通:位置](./images/4/common/4_0-design_co_tools_07.png ""共通:位置"")
![サイドツール 共通:幅](./images/4/common/4_0-design_co_tools_23.png ""共通:幅"")
![サイドツール 共通:回転](./images/4/common/4_0-design_co_tools_11.png ""共通:回転"")
![サイドツール 共通:コピー](./images/4/common/4_0-design_co_tools_05.png ""共通:コピー"")
![サイドツール 共通:削除する](./images/4/common/4_0-design_co_tools_14.png ""共通:削除する"")
![サイドツール 共通:オブジェクトの整列](./images/4/common/4_0-design_co_tools_01.png ""共通:オブジェクトの整列"")",,,,,,,,,,,,,,,,,,,,,,,,,
P-20,4_06-design_text_date,デザイン画面,4,design,日付文字,06,text_date,日付を表示するための文字オブジェクトの扱い方について説明します,日付文字,"表示形式を指定して日付文字を自動表示します。
日付文字の前後に語頭や語尾で文字を追加して表示できます。  

<img1 日付文字オブジェクト>","![Objectサンプル 日付文字オブジェクト](./images/4/4_06-design_text_date_01.png ""日付文字オブジェクト"")",日付文字の設定,"日付文字オブジェクトを選択している時に変更できる設定です。

### スタイル
<img1 フォント>
* _フォント:_ 文字のフォントを変更します  

<img2 文字色>
* _色:_ 文字色を変更します  

<img3 透明度>
* _透明度:_ 文字の透明度を変更します  

<img4 区切り>
* _区切り:_ 日付文字の年月日の区切りを変更します  

<img5 日付>
* _年:_ 年の表示形式を変更します 
* _月:_ 月の表示形式を変更します  
* _日:_ 日の表示形式を変更します  
* _曜日:_ 曜日の表示形式を変更します  
* _月日2桁:_ 月や日が1桁の場合も”0”と追加して2桁表示します 

<img6 増減>
* _増減:_ 年、月、日単位どれかで利用時の日付から増減した日付を表示します  

<img7 文字サイズ>
* _サイズ:_ 文字のサイズを変更します※[自動]の時は操作できません  

<img8 文字サイズ自動>
* _自動:_ 文字枠に合わせて文字サイズを自動変更します  
* _自動折り返し:_ 文字枠に合わせて文字を自動で折り返します  

<img9 字間>
* _字間:_ 字間を変更します  

<img10 行間>
* _行間:_ 行間を変更します  

<img11 横書き縦書き>
* _横書き:_ 横書き表示にします  
* _縦書き:_ 縦書き表示にします  

<img12 文字揃え>
* _左揃え:_ 文字を左端に揃えます  
* _中央揃え:_ 文字を横中央に揃えます  
* _右揃え:_ 文字を右端に揃えます  
* _両端揃え:_ 文字枠内で左右に余白ができないように文字の間隔を均等に調整します  
* _上揃え:_ 文字を表示枠の上に配置します  
* _中央配置:_ 文字を表示枠の縦中央に配置します  
* _下揃え:_ 文字を表示枠の下に配置します  

<img13 文字スタイル>
* _太字:_ 文字を太字に変更します ※フォントにより太字が無い場合があります。 
* _斜体:_ 文字を斜体に変更します※フォントにより斜体が無い場合があります。  
* _下線:_ 文字に下線を引きます  

<img14 文字横幅>
* _文字横幅:_ 日付文字の横幅を変更します  

<img15 全角>
* _全角:_ 半角文字をを全角に変更します  

<img16 語頭語尾>
* _語頭追加:_ 語頭に文字を追加します  
* _語尾追加:_ 語尾に文字を追加します  

### 影・縁取り
<img17 影>
* _影:_ 日付文字に影を追加します  
* _色:_ 影の色を変更します  
* _距離:_ 日付文字と影の距離を変更します  
* _角度:_ 影の角度を変更します  
* _ぼかし:_ 影のぼかし具合を変更します  
* _透明度:_ 影の透明度を変更します  

<img18 縁取り>
* _縁取り:_ 日付文字に縁取りを追加します  
* _色:_ 縁取りの色を変更します  
* _太さ:_ 縁取りの太さを変更します  
* _透明度:_ 縁取りの透明度を変更します  


### 位置・移動
<img19 オブジェクト名>
* _オブジェクト名:_ オブジェクト名を変更します  

<img20 位置>
* _位置(横):_ 文字枠の横位置を変更します  
* _位置(縦):_ 文字枠の縦位置を変更します  

<img21 幅>
* _横幅:_ 文字枠の横幅を変更します  
* _縦幅:_ 文字枠の縦幅を変更します  

<img22 回転>
* _回転:_ 文字枠を回転させます  

<img23 コピー>
* _コピー:_ 文字枠をコピーして新たに配置します  

<img24 削除する>
* _削除する:_ 文字枠を削除します  

<img25 共通オブジェクトの整列>
* _左揃え:_ 文字枠を左に揃えます  
* _縦中央揃え:_ 文字枠を縦方向中央に揃えます 
* _右揃え:_ 文字枠を右に揃えます  
* _縦均等揃え:_ 文字枠を縦方向均等に揃えます  
* _上揃え:_ 文字枠を上に揃えます  
* _横中央揃え:_ 文字枠を横方向中央に揃えます  
* _下揃え:_ 文字枠を下に揃えます  
* _横均等揃え:_ 文字枠を横方向均等に揃えます  ","![サイドツール 共通:フォント](./images/4/common/4_0-design_co_tools_06.png ""共通:フォント"")
![サイドツール 共通:文字色](./images/4/common/4_0-design_co_tools_30.png ""共通:文字色"")
![サイドツール 共通:透明度](./images/4/common/4_0-design_co_tools_22.png ""共通:透明度"")
![サイドツール 日付文字:区切り](./images/4/4_06-design_text_date_05.png ""日付文字:区切り"")
![サイドツール 日付文字:日付](./images/4/4_06-design_text_date_06.png ""日付文字:日付"")
![サイドツール 日付文字:増減](./images/4/4_06-design_text_date_07.png ""日付文字:増減"")
![サイドツール 共通:文字サイズ](./images/4/common/4_0-design_co_tools_26.png ""共通:文字サイズ"")
![サイドツール 共通:文字サイズ自動](./images/4/common/4_0-design_co_tools_27.png ""共通:文字サイズ自動"")
![サイドツール 共通:字間](./images/4/common/4_0-design_co_tools_15.png ""共通:字間"")
![サイドツール 共通:行間](./images/4/common/4_0-design_co_tools_13.png ""共通:行間"")
![サイドツール 共通:横書き縦書き](./images/4/common/4_0-design_co_tools_10.png ""共通:横書き縦書き"")
![サイドツール 共通:文字揃え](./images/4/common/4_0-design_co_tools_31.png ""共通:文字揃え"")
![サイドツール 共通:文字スタイル](./images/4/common/4_0-design_co_tools_28.png ""共通:文字スタイル"")
![サイドツール 共通:文字横幅](./images/4/common/4_0-design_co_tools_29.png ""共通:文字横幅"")
![サイドツール 共通:全角](./images/4/common/4_0-design_co_tools_20.png ""共通:全角"")
![サイドツール 共通:語頭語尾](./images/4/common/4_0-design_co_tools_12.png ""共通:語頭語尾"")
![サイドツール 共通:影](./images/4/common/4_0-design_co_tools_08.png ""共通:影"")
![サイドツール 共通:縁取り](./images/4/common/4_0-design_co_tools_09.png ""共通:縁取り"")
![サイドツール 共通:オブジェクト名](./images/4/common/4_0-design_co_tools_02.png ""共通:オブジェクト名"")
![サイドツール 共通:位置](./images/4/common/4_0-design_co_tools_07.png ""共通:位置"")
![サイドツール 共通:幅](./images/4/common/4_0-design_co_tools_23.png ""共通:幅"")
![サイドツール 共通:回転](./images/4/common/4_0-design_co_tools_11.png ""共通:回転"")
![サイドツール 共通:コピー](./images/4/common/4_0-design_co_tools_05.png ""共通:コピー"")
![サイドツール 共通:削除する](./images/4/common/4_0-design_co_tools_14.png ""共通:削除する"")
![サイドツール 共通:オブジェクトの整列](./images/4/common/4_0-design_co_tools_01.png ""共通:オブジェクトの整列"")",,,,,,,,,,,,,,,,,,,,,,,,,
P-21,4_07-design_img,デザイン画面,4,design,画像,07,img,画像オブジェクトの扱い方について説明します,画像,"イメージ画像を表示します。
ラベル屋さん™ラベル＆カード作成ソフト10にある素材画像だけでなく、パソコンからの画像をオブジェクトとして配置することも可能です。  

使用できる画像の形式は『bmp』, 『jpg』, 『png』, 『svg』です。

<img1 画像オブジェクト>","![Objectサンプル 画像オブジェクト](./images/4/4_07-design_img_01.png ""画像オブジェクト"")",画像の設定,"画像オブジェクトを選択している時に変更できる設定です。

### オブジェクトの編集
<img1 トリミング>
* _トリミング:_ 画像をトリミングします  

<img2 クリッピング>
* _クリッピング:_ 画像を登録されている図形でクリッピングします  

<img3 縦横比白色透明化>
* _縦横比固定:_ 画像の縦横比を固定します  
* _白色透明化:_ 画像の白の部分を透明にします  

<img4 左右上下反転>
* _左右反転:_ 画像を左右反転します  
* _上下反転:_ 画像を上下反転します  

<img5 透明度>
* _透明度:_ 画像の透明度を変更します  

<img6 赤緑青設定>
* _赤:_ 画像の赤色の色調を変更します  
* _青:_ 画像の青色の色調を変更します  
* _緑:_ 画像の緑色の色調を変更します  

<img7 ぼかし>
* _ぼかし:_ 画像のぼかしを変更します  

<img8 画像変更>
* _画像変更:_ 画像を別の画像に差し替えます  

### 影
<img9 影>
* _影:_ 画像に影を追加します  
* _色:_ 影の色を変更します  
* _距離:_ 画像と影の距離を変更します  
* _角度:_ 影の角度を変更します  
* _ぼかし:_ 影のぼかし具合を変更します  
* _透明度:_ 影の透明度を変更します  

### 位置・移動
<img10 オブジェクト名>
* _オブジェクト名:_ オブジェクト名を変更します  

<img11 位置>
* _位置(横):_ 枠の横位置を変更します  
* _位置(縦):_ 枠の縦位置を変更します  

<img12 幅>
* _横幅:_ 枠の横幅を変更します  
* _縦幅:_ 枠の高さを変更します  

<img13 回転>
* _回転:_ 枠を回転させます  

<img14 コピー>
* _コピー:_ 枠をコピーして新たに配置します  

<img15 削除する>
* _削除する:_ 枠を削除します  

<img16 オブジェクトの整列>
* _左揃え:_ 枠を左に揃えます  
* _縦中央揃え:_ 枠を縦方向中央に揃えます
* _右揃え:_ 枠を右に揃えます  
* _縦均等揃え:_ 枠を縦方向均等に揃えます  
* _上揃え:_ 枠を上に揃えます  
* _横中央揃え:_ 枠を横方向向中央に揃えます  
* _下揃え:_ 枠を下に揃えます  
* _横均等揃え:_ 枠を横方向均等に揃えます","![サイドツール 画像:トリミング](./images/4/4_07-design_img_02.png ""画像:トリミング"")
![サイドツール 画像:クリッピング](./images/4/4_07-design_img_03.png ""画像:クリッピング"")
![サイドツール 画像:縦横比固定/白色透明化](./images/4/4_07-design_img_04.png ""画像:縦横比固定/白色透明化"")
![サイドツール 画像:上下左右反転](./images/4/4_07-design_img_05.png ""画像:上下左右反転"")
![サイドツール 共通:透明度](./images/4/common/4_0-design_co_tools_22.png ""共通:透明度"")
![サイドツール 画像:RGB設定](./images/4/4_07-design_img_07.png ""画像:RGB設定"")
![サイドツール 画像:ぼかし](./images/4/4_07-design_img_08.png ""画像:ぼかし"")
![サイドツール 画像:画像変更](./images/4/4_07-design_img_09.png ""画像:画像変更"")
![サイドツール 共通:影](./images/4/common/4_0-design_co_tools_08.png ""共通:影"")
![サイドツール 共通:オブジェクト名](./images/4/common/4_0-design_co_tools_02.png ""共通:オブジェクト名"")
![サイドツール 共通:位置](./images/4/common/4_0-design_co_tools_07.png ""共通:位置"")
![サイドツール 共通:幅](./images/4/common/4_0-design_co_tools_23.png ""共通:幅"")
![サイドツール 共通:回転](./images/4/common/4_0-design_co_tools_11.png ""共通:回転"")
![サイドツール 共通:コピー](./images/4/common/4_0-design_co_tools_05.png ""共通:コピー"")
![サイドツール 共通:削除する](./images/4/common/4_0-design_co_tools_14.png ""共通:削除する"")
![サイドツール 共通:オブジェクトの整列](./images/4/common/4_0-design_co_tools_01.png ""共通:オブジェクトの整列"")",トリミング,"選択中の画像オブジェクトをトリミングできます。
[トリミング]ボタンをクリックすると画像のポインタが四角に変わり、トリミング範囲を操作できます。  

<img1 トリミング中>  
トリミング操作を終わらせるには、他のオブジェクトを選択したり、画像枠の外をクリックして下さい。  

<img2 トリミング後>","![全体画面 画像:トリミング中](./images/4/4_07-design_img_18.png ""画像:トリミング中"")
![全体画面 画像:トリミング後](./images/4/4_07-design_img_19.png ""画像:トリミング後"")",クリッピング,"選択中の画像オブジェクトをクリッピングできます。  
任意の図形を選択し、クリッピングを開始します。  
[クリッピング]ボタンをクリックするとクリッピングに利用できる図形が表示されるので選択します。  
四角いポインタ操作でクリップする範囲を指定します。  

<img1 クリッピング中>  
クリッピング操作を終わらせるには、他のオブジェクトを選択したり、画像枠の外をクリックして下さい。  

<img2 クリッピング後>  
再度[クリッピング]ボタンをクリックすると図形の変更やクリッピング範囲の調整ができます。","![全体画面 画像:クリッピング中](./images/4/4_07-design_img_20.png ""画像:クリッピング中"")
![全体画面 画像:クリッピング後](./images/4/4_07-design_img_21.png ""画像:クリッピング後"")",,,,,,,,,,,,,,,,,,,
P-22,4_08-design_square,デザイン画面,4,design,四角形,08,square,四角形を描くオブジェクトの扱い方について説明します,四角形,"四角形のオブジェクトを配置します。

<img1 四角形>","![Objectサンプル 四角形オブジェクト](./images/4/4_08-design_square_01.png ""四角形オブジェクト"")",四角形の設定,"四角形オブジェクトを選択している時に変更できる設定です。

### オブジェクトの編集
<img1 縦横比固定>
* _縦横比固定:_ マウスによる選択枠4隅のポインタ操作で縦横比を固定します  

<img2 線設定図形>
* _外線:_ 外線の色を変更します  
* _線幅:_ 線幅を変更します  

<img3 丸み>
* _丸み(横):_ 角の横の丸みを変更します  
* _丸み(縦):_ 角の縦の丸みを変更します  


### 色
<img4 塗りつぶし>
* _塗りつぶしなし:_ 図形内を塗りつぶさない状態にします  
* _単色:_ 図形内を単色で塗りつぶします  
* _グラデーション:_ 図形内をグラデーションで塗りつぶします  


###### 塗りつぶしの設定を[単色]にした時は以下の設定ができます

<img12 色塗りつぶし>
* _色:_ 塗りつぶしの色を設定します  
* _透明度:_ 透明度を設定します。  


###### 塗りつぶしの設定を[グラデーション]にした時は以下の設定ができます

<img13 グラデーション設定>
* _種類:_ グラデーションを線形か円形を設定します  
* _方向:_ グラデーションの方向を設定します  
* _角度:_ グラデーションの角度を設定します  

<img14 分岐点>
* _分岐点:_ グラデーションの分岐点を増減します  

<img15 グラデーション>
* _グラデ:_ グラデーションの色を設定します  

<img16 透明度>
* _透明度:_ 透明度を設定します  


### 位置・移動
<img5 オブジェクト名>
* _オブジェクト名:_ オブジェクト名を変更します  

<img6 位置>
* _位置(横):_ 枠の横位置を変更します  
* _位置(縦):_ 枠の縦位置を変更します  

<img7 幅>
* _横幅:_ 枠の横幅を変更します  
* _縦幅:_ 枠の縦幅を変更します  

<img8 回転>
* _回転:_ 枠を回転させます  

<img9 コピー>
* _コピー:_ 枠をコピーして新たに配置します  

<img10 削除する>
* _削除する:_ 枠を削除します  

<img11 オブジェクトの整列>
* _左揃え:_ 枠を左に揃えます  
* _縦中央揃え:_ 枠を縦方向中央に揃えます
* _右揃え:_ 枠を右に揃えます  
* _縦均等揃え:_ 枠を縦方向均等に揃えます  
* _上揃え:_ 枠を上に揃えます  
* _横中央揃え:_ 枠を横方向向中央に揃えます  
* _下揃え:_ 枠を下に揃えます  
* _横均等揃え:_ 枠を横方向均等に揃えます



","![サイドツール 共通:縦横比固定](./images/4/common/4_0-design_co_tools_16.png ""共通:縦横比固定"")
![サイドツール 共通:図形の線設定](./images/4/common/4_0-design_co_tools_32.png ""共通:図形の線設定"")
![サイドツール 四角形:丸み](./images/4/4_08-design_square_04.png ""四角形:丸み"")
![サイドツール 共通:塗りつぶし設定](./images/4/common/4_0-design_co_tools_21.png ""共通:塗りつぶし設定"")
![サイドツール 共通:オブジェクト名](./images/4/common/4_0-design_co_tools_02.png ""共通:オブジェクト名"")
![サイドツール 共通:位置](./images/4/common/4_0-design_co_tools_07.png ""共通:位置"")
![サイドツール 共通:幅](./images/4/common/4_0-design_co_tools_23.png ""共通:幅"")
![サイドツール 共通:回転](./images/4/common/4_0-design_co_tools_11.png ""共通:回転"")
![サイドツール 共通:コピー](./images/4/common/4_0-design_co_tools_05.png ""共通:コピー"")
![サイドツール 共通:削除する](./images/4/common/4_0-design_co_tools_14.png ""共通:削除する"")
![サイドツール 共通:オブジェクトの整列](./images/4/common/4_0-design_co_tools_01.png ""共通:オブジェクトの整列"")
![サイドツール 共通:色塗りつぶし](./images/4/common/4_0-design_co_tools_18.png ""共通:色塗りつぶし"")
![サイドツール 共通:グラデーション設定](./images/4/common/4_0-design_co_tools_04.png ""共通:グラデーション設定"")
![サイドツール 共通:分岐点](./images/4/common/4_0-design_co_tools_25.png ""共通:分岐点"")
![サイドツール 共通:グラデーション色](./images/4/common/4_0-design_co_tools_03.png ""共通:グラデーション色"")
![サイドツール 共通:透明度](./images/4/common/4_0-design_co_tools_22.png ""共通:透明度"")",,,,,,,,,,,,,,,,,,,,,,,,,
P-23,4_09-design_poly,デザイン画面,4,design,多角形,09,poly,四角形以外の多角形を描くオブジェクトの扱い方について説明します,多角形,"三角形や五角形、六角形、星、矢印のオブジェクトを配置します。  
これらの図形は操作点の数を変えたり、操作点の位置を変えたりすることによって、他の図形に変えることも可能です。

<img1 三角形オブジェクト>","![Objectサンプル 三角オブジェクト](./images/4/4_09-design_poly_01.png ""三角オブジェクト"")",多角形の設定,"多角形オブジェクトを選択している時に変更できる設定です。

### オブジェクトの編集
<img1 変形>
* _変形:_ ポインタの移動や操作ポインタの追加や削除で変形します

<img2 縦横比固定>
* _縦横比固定:_ マウスによる選択枠4隅のポインタ操作で縦横比を固定します

<img3 線設定図形>
* _外線:_ 図形の外線の色を変更します
* _線幅:_ 図形の線幅を変更します

<img4 丸み>
* _丸み(横):_ 角の横の丸みを変更します
* _丸み(縦):_ 角の縦の丸みを変更します


### 色
<img5 塗りつぶし>
* _塗りつぶしなし:_ 図形内を塗りつぶさない状態にします
* _単色:_ 図形内を単色で塗りつぶします
* _グラデーション:_ 図形内をグラデーションで塗りつぶします

###### 塗りつぶしの設定を[単色]にした時は以下の設定ができます

<img13 色塗りつぶし>
* _色:_ 塗りつぶしの色を設定します
* _透明度:_ 透明度を設定します。

###### 塗りつぶしの設定を[グラデーション]にした時は以下の設定ができます

<img14 グラデーション設定>
* _種類:_ グラデーションを線形か円形を設定します
* _方向:_ グラデーションの方向を設定します
* _角度:_ グラデーションの角度を設定します

<img15 分岐点>
* _分岐点:_ グラデーションの分岐点を増減します

<img16 グラデーション>
* _グラデ:_ グラデーションの色を設定します

<img17 透明度>
* _透明度:_ 透明度を設定します

### 位置・移動
<img6 オブジェクト名>
* _オブジェクト名:_ オブジェクト名を変更します

<img7 位置>
* _位置(横):_ 枠の横位置を変更します
* _位置(縦):_ 枠の縦位置を変更します

<img8 幅>
* _横幅:_ 枠の横幅を変更します
* _縦幅:_ 枠の縦幅を変更します

<img9 回転>
* _回転:_ 枠を回転させます

<img10 コピー>
* _コピー:_ 枠をコピーして新たに配置します

<img11 削除する>
* _削除する:_ 枠を削除します

<img12 オブジェクトの整列>
* _左揃え:_ 枠を左に揃えます  
* _縦中央揃え:_ 枠を縦方向中央に揃えます
* _右揃え:_ 枠を右に揃えます  
* _縦均等揃え:_ 枠を縦方向均等に揃えます  
* _上揃え:_ 枠を上に揃えます  
* _横中央揃え:_ 枠を横方向向中央に揃えます  
* _下揃え:_ 枠を下に揃えます  
* _横均等揃え:_ 枠を横方向均等に揃えます


","![サイドツール 多角形:変形](./images/4/4_09-design_poly_02.png ""多角形:変形"")
![サイドツール 共通:縦横比固定](./images/4/common/4_0-design_co_tools_16.png ""共通:縦横比固定"")
![サイドツール 共通:図形の線設定](./images/4/common/4_0-design_co_tools_32.png ""共通:図形の線設定"")
![サイドツール 多角形:丸み](./images/4/4_09-design_poly_05.png ""多角形:丸み"")
![サイドツール 共通:塗りつぶし設定](./images/4/common/4_0-design_co_tools_21.png ""共通:塗りつぶし設定"")
![サイドツール 共通:オブジェクト名](./images/4/common/4_0-design_co_tools_02.png ""共通:オブジェクト名"")
![サイドツール 共通:位置](./images/4/common/4_0-design_co_tools_07.png ""共通:位置"")
![サイドツール 共通:幅](./images/4/common/4_0-design_co_tools_23.png ""共通:幅"")
![サイドツール 共通:回転](./images/4/common/4_0-design_co_tools_11.png ""共通:回転"")
![サイドツール 共通:コピー](./images/4/common/4_0-design_co_tools_05.png ""共通:コピー"")
![サイドツール 共通:削除する](./images/4/common/4_0-design_co_tools_14.png ""共通:削除する"")
![サイドツール 共通:オブジェクトの整列](./images/4/common/4_0-design_co_tools_01.png ""共通:オブジェクトの整列"")
![サイドツール 共通:色塗りつぶし](./images/4/common/4_0-design_co_tools_18.png ""共通:色塗りつぶし"")
![サイドツール 共通:グラデーション設定](./images/4/common/4_0-design_co_tools_04.png ""共通:グラデーション設定"")
![サイドツール 共通:分岐点](./images/4/common/4_0-design_co_tools_25.png ""共通:分岐点"")
![サイドツール 共通:グラデーション色](./images/4/common/4_0-design_co_tools_03.png ""共通:グラデーション色"")
![サイドツール 共通:透明度](./images/4/common/4_0-design_co_tools_22.png ""共通:透明度"")",変形操作について,"多角形オブジェクトは[変形]ボタンをクリックすると操作ポインターを自由に移動することができ、  
操作点の追加や、削除もできます。  

<img1 多角形操作>","![全体画面 多角形操作点追加後](./images/4/4_09-design_poly_19.png ""多角形操作点追加後"")",,,,,,,,,,,,,,,,,,,,,,
P-24,4_10-design_circle,デザイン画面,4,design,丸,10,circle,丸を描くオブジェクトの扱い方について説明します,丸,"丸のオブジェクトを配置します。

<img1 丸オブジェクト>","![Objectサンプル 丸オブジェクト](./images/4/4_10-design_circle_01.png ""丸オブジェクト"")",丸オブジェクトの設定,"丸オブジェクトを選択している時に変更できる設定です。

### オブジェクトの編集
<img1 縦横比固定>
* _縦横比固定:_ マウスによる選択枠4隅のポインタ操作で縦横比を固定します  

<img2 線設定図形>
* _外線:_ 外線の色を変更します  
* _線幅:_ 線幅を変更します  

### 色
<img3 塗りつぶし>
* _塗りつぶしなし:_ 図形内を塗りつぶさない状態にします  
* _単色:_ 図形内を単色で塗りつぶします  
* _グラデーション:_ 図形内をグラデーションで塗りつぶします  



###### 塗りつぶしの設定を[単色]にした時は以下の設定ができます

<img11 色塗りつぶし>
* _色:_ 塗りつぶしの色を設定します  
* _透明度:_ 透明度を設定します。  


###### 塗りつぶしの設定を[グラデーション]にした時は以下の設定ができます

<img12 グラデーション設定>
* _種類:_ グラデーションを線形か円形を設定します  
* _方向:_ グラデーションの方向を設定します  
* _角度:_ グラデーションの角度を設定します  

<img13 分岐点>
* _分岐点:_ グラデーションの分岐点を増減します  

<img14 グラデーション>
* _グラデ:_ グラデーションの色を設定します  

<img15 透明度>
* _透明度:_ 透明度を設定します  


### 位置・移動
<img4 オブジェクト名>
* _オブジェクト名:_ オブジェクト名を変更します  

<img5 位置>
* _位置(横):_ 枠の横位置を変更します  
* _位置(縦):_ 枠の縦位置を変更します  

<img6 幅>
* _横幅:_ 枠の横幅を変更します  
* _縦幅:_ 枠の縦幅を変更します  

<img7 回転>
* _回転:_ 枠を回転させます  

<img8 コピー>
* _コピー:_ 枠をコピーして新たに配置します  

<img9 削除する>
* _削除する:_ 枠を削除します  

<img10 オブジェクトの整列>
* _左揃え:_ 枠を左に揃えます  
* _縦中央揃え:_ 枠を縦方向中央に揃えます
* _右揃え:_ 枠を右に揃えます  
* _縦均等揃え:_ 枠を縦方向均等に揃えます  
* _上揃え:_ 枠を上に揃えます  
* _横中央揃え:_ 枠を横方向向中央に揃えます  
* _下揃え:_ 枠を下に揃えます  
* _横均等揃え:_ 枠を横方向均等に揃えます


","![サイドツール 共通:縦横比固定](./images/4/common/4_0-design_co_tools_16.png ""共通:縦横比固定"")
![サイドツール 共通:図形の線設定](./images/4/common/4_0-design_co_tools_32.png ""共通:図形の線設定"")
![サイドツール 共通:塗りつぶし設定](./images/4/common/4_0-design_co_tools_21.png ""共通:塗りつぶし設定"")
![サイドツール 共通:オブジェクト名](./images/4/common/4_0-design_co_tools_02.png ""共通:オブジェクト名"")
![サイドツール 共通:位置](./images/4/common/4_0-design_co_tools_07.png ""共通:位置"")
![サイドツール 共通:幅](./images/4/common/4_0-design_co_tools_23.png ""共通:幅"")
![サイドツール 共通:回転](./images/4/common/4_0-design_co_tools_11.png ""共通:回転"")
![サイドツール 共通:コピー](./images/4/common/4_0-design_co_tools_05.png ""共通:コピー"")
![サイドツール 共通:削除する](./images/4/common/4_0-design_co_tools_14.png ""共通:削除する"")
![サイドツール 共通:オブジェクトの整列](./images/4/common/4_0-design_co_tools_01.png ""共通:オブジェクトの整列"")
![サイドツール 共通:色塗りつぶし](./images/4/common/4_0-design_co_tools_18.png ""共通:色塗りつぶし"")
![サイドツール 共通:グラデーション設定](./images/4/common/4_0-design_co_tools_04.png ""共通:グラデーション設定"")
![サイドツール 共通:分岐点](./images/4/common/4_0-design_co_tools_25.png ""共通:分岐点"")
![サイドツール 共通:グラデーション色](./images/4/common/4_0-design_co_tools_03.png ""共通:グラデーション色"")
![サイドツール 共通:透明度](./images/4/common/4_0-design_co_tools_22.png ""共通:透明度"")",,,,,,,,,,,,,,,,,,,,,,,,,
P-25,4_11-design_straight,デザイン画面,4,design,直線,11,straight,直線を描くオブジェクトの扱い方について説明します,直線,"直線のオブジェクトを配置します。
直線の始点や終点を矢印にすることも可能です。

<img1 直線オブジェクト>
","![Objectサンプル 直線オブジェクト](./images/4/4_11-design_straight_01.png ""直線オブジェクト"")",直線の設定,"直線を選択している時に変更できる設定です。

### 色
<img1 色>
* _色:_ 線の色を変更します  

<img2 透明度>
* _透明度:_ 線の透明度を変更します  

### 線の操作
<img3 線設定>
* _線幅:_ 線の線幅を変更します  
* _線種:_ 線の線種を変更します  

<img4 始点設定>
* _始点:_ 線の始点を変更します  
* _大きさ:_ 始点の大きさを変更します  

<img5 終点設定>
* _終点:_ 線の終点を変更します  
* _大きさ:_ 終点の大きさを変更します  

### 位置・移動
<img6 オブジェクト名>
* _オブジェクト名:_ オブジェクト名を変更します  

<img7 位置>
* _位置(横):_ 枠の横位置を変更します  
* _位置(縦):_ 枠の縦位置を変更します  

<img8 幅>
* _横幅:_ 枠の横幅を変更します  
* _縦幅:_ 枠の縦幅を変更します  

<img9 回転>
* _回転:_ 枠を回転させます  

<img10 コピー>
* _コピー:_ 枠をコピーして新たに配置します  

<img11 削除する>
* _削除する:_ 枠を削除します  

<img12 オブジェクトの整列>
* _左揃え:_ 枠を左に揃えます  
* _縦中央揃え:_ 枠を縦方向中央に揃えます
* _右揃え:_ 枠を右に揃えます  
* _縦均等揃え:_ 枠を縦方向均等に揃えます  
* _上揃え:_ 枠を上に揃えます  
* _横中央揃え:_ 枠を横方向向中央に揃えます  
* _下揃え:_ 枠を下に揃えます  
* _横均等揃え:_ 枠を横方向均等に揃えます","![サイドツール 共通:色](./images/4/common/4_0-design_co_tools_17.png ""共通:色"")
![サイドツール 共通:透明度](./images/4/common/4_0-design_co_tools_22.png ""共通:透明度"")
![サイドツール 共通:線設定](./images/4/common/4_0-design_co_tools_19.png ""共通:線設定"")
![サイドツール 直線:始点設定](./images/4/4_11-design_straight_05.png ""直線:始点設定"")
![サイドツール 直線:終点設定](./images/4/4_11-design_straight_06.png ""直線:終点設定"")
![サイドツール 共通:オブジェクト名](./images/4/common/4_0-design_co_tools_02.png ""共通:オブジェクト名"")
![サイドツール 共通:位置](./images/4/common/4_0-design_co_tools_07.png ""共通:位置"")
![サイドツール 共通:幅](./images/4/common/4_0-design_co_tools_23.png ""共通:幅"")
![サイドツール 共通:回転](./images/4/common/4_0-design_co_tools_11.png ""共通:回転"")
![サイドツール 共通:コピー](./images/4/common/4_0-design_co_tools_05.png ""共通:コピー"")
![サイドツール 共通:削除する](./images/4/common/4_0-design_co_tools_14.png ""共通:削除する"")
![サイドツール 共通:オブジェクトの整列](./images/4/common/4_0-design_co_tools_01.png ""共通:オブジェクトの整列"")",,,,,,,,,,,,,,,,,,,,,,,,,
P-26,4_12-design_curve,デザイン画面,4,design,曲線,12,curve,曲線を描くオブジェクトの扱い方について説明します,曲線,"曲線のオブジェクトを配置します。
操作点を増やすことで様々なパターンの曲線を作成することも可能です。

<img1 曲線オブジェクト>","![Objectサンプル 曲線オブジェクト](./images/4/4_12-design_curve_01.png ""曲線オブジェクト"")",曲線の設定,"曲線オブジェクトを選択している時に変更できる設定です。

###  線の操作
<img1 操作点>
* _操作:_ 曲線の編集点の操作を行います  

### スタイル
<img2 色>
* _色:_ 曲線の色を変更します  

<img3 透明度>
* _透明度:_ 曲線の透明度を変更します  

<img4 線幅>
* _線幅:_ 曲線の線幅を変更します  

### 位置・移動
<img5 オブジェクト名>
* _オブジェクト名:_ オブジェクト名を変更します  

<img6 位置>
* _位置(横):_ 文字枠の横位置を変更します  
* _位置(縦):_ 文字枠の縦位置を変更します  

<img7 幅>
* _横幅:_ 枠の横幅を変更します  
* _縦幅:_ 枠の縦幅を変更します  

<img8 回転>
* _回転:_ 枠を回転させます  

<img9 コピー>
* _コピー:_ 枠をコピーして新たに配置します  

<img10 削除する>
* _削除する:_ 枠を削除します  

<img11 オブジェクトの整列>
* _左揃え:_ 枠を左に揃えます  
* _縦中央揃え:_ 枠を縦方向中央に揃えます
* _右揃え:_ 枠を右に揃えます  
* _縦均等揃え:_ 枠を縦方向均等に揃えます  
* _上揃え:_ 枠を上に揃えます  
* _横中央揃え:_ 枠を横方向向中央に揃えます  
* _下揃え:_ 枠を下に揃えます  
* _横均等揃え:_ 枠を横方向均等に揃えます","![サイドツール 曲線:線の操作](./images/4/4_12-design_curve_02.png ""曲線:線の操作"")
![サイドツール 共通:色](./images/4/common/4_0-design_co_tools_17.png ""共通:色"")
![サイドツール 共通:透明度](./images/4/common/4_0-design_co_tools_22.png ""共通:透明度"")
![サイドツール 曲線:線幅](./images/4/4_12-design_curve_05.png ""曲線:線幅"")
![サイドツール 共通:オブジェクト名](./images/4/common/4_0-design_co_tools_02.png ""共通:オブジェクト名"")
![サイドツール 共通:位置](./images/4/common/4_0-design_co_tools_07.png ""共通:位置"")
![サイドツール 共通:幅](./images/4/common/4_0-design_co_tools_23.png ""共通:幅"")
![サイドツール 共通:回転](./images/4/common/4_0-design_co_tools_11.png ""共通:回転"")
![サイドツール 共通:コピー](./images/4/common/4_0-design_co_tools_05.png ""共通:コピー"")
![サイドツール 共通:削除する](./images/4/common/4_0-design_co_tools_14.png ""共通:削除する"")
![サイドツール 共通:オブジェクトの整列](./images/4/common/4_0-design_co_tools_01.png ""共通:オブジェクトの整列"")",操作について,"曲線は操作点を増やすことによって、様々な曲線を作成できます。
また、不要な操作点の削除も可能です。

<img1 曲線操作点追加後>
","![全体画面 曲線:操作点追加後](./images/4/4_12-design_curve_13.png ""曲線:操作点追加後"")",,,,,,,,,,,,,,,,,,,,,,
P-27,4_13-design_barcode,デザイン画面,4,design,バーコード,13,barcode,バーコードを表示するオブジェクトの扱い方について説明します,バーコード,"バーコードのオブジェクトを配置します。
JANや物流用など、様々なバーコードを使用可能です。

<img1 バーコードオブジェクト>","![Objectサンプル バーコードオブジェクト](./images/4/4_13-design_barcode_01.png ""バーコードオブジェクト"")","バーコードの設定
","バーコードオブジェクトを選択している時に変更できる設定です。

### オブジェクトの編集

<img1 タイプ>
* _タイプ:_ バーコードのタイプを指定します。記載可能なバーコードは以下の種類です。  
_JAN(標準)、JAN(短縮)、物流(標準)、物流(拡張)、物流(アドオン)、ITF、NW-7、CODE39、CODE128_

<img2 バーコード入力欄>
* _テキストボックス:_ バーコードに表示するキャラクタを編集できます  

<img3 文字表示>
* _文字表示:_ バーコード下部にキャラクタを表示します  

### 位置・移動

<img4 オブジェクト名>
* _オブジェクト名:_ オブジェクト名を変更します  

<img5 位置>
* _位置(横):_ 枠の横方向開始位置を変更します  
* _位置(縦):_ 枠の縦方向開始位置を変更します  

<img6 幅>
* _横幅:_ 枠の横幅を変更します  
* _縦幅:_ 枠の高さを変更します  

<img7 回転>
* _回転:_ 枠の回転角度を変更します  

<img8 コピー>
* _コピー:_ 枠をコピーして新たに配置します  

<img9 削除する>
* _削除する:_ バーコードオブジェクトを削除します  

<img10 オブジェクトの整列>
* _左揃え:_ 枠を左に揃えます  
* _縦中央揃え:_ 枠を縦方向中央に揃えます
* _右揃え:_ 枠を右に揃えます  
* _縦均等揃え:_ 枠を縦方向均等に揃えます  
* _上揃え:_ 枠を上に揃えます  
* _横中央揃え:_ 枠を横方向向中央に揃えます  
* _下揃え:_ 枠を下に揃えます  
* _横均等揃え:_ 枠を横方向均等に揃えます","![サイドツール バーコード:タイプ](./images/4/4_13-design_barcode_02.png ""バーコード:タイプ"")
![サイドツール バーコード:コード入力欄](./images/4/4_13-design_barcode_03.png ""バーコード:コード入力欄"")
![サイドツール バーコード:文字表示](./images/4/4_13-design_barcode_04.png ""バーコード:文字表示"")
![サイドツール 共通:オブジェクト名](./images/4/common/4_0-design_co_tools_02.png ""共通:オブジェクト名"")
![サイドツール 共通:位置](./images/4/common/4_0-design_co_tools_07.png ""共通:位置"")
![サイドツール 共通:幅](./images/4/common/4_0-design_co_tools_23.png ""共通:幅"")
![サイドツール 共通:回転](./images/4/common/4_0-design_co_tools_11.png ""共通:回転"")
![サイドツール 共通:コピー](./images/4/common/4_0-design_co_tools_05.png ""共通:コピー"")
![サイドツール 共通:削除する](./images/4/common/4_0-design_co_tools_14.png ""共通:削除する"")
![サイドツール 共通:オブジェクトの整列](./images/4/common/4_0-design_co_tools_01.png ""共通:オブジェクトの整列"")",,,,,,,,,,,,,,,,,,,,,,,,,
P-28,4_14-design_qrcode,デザイン画面,4,design,QRコード,14,qrcode,QRコードを表示するオブジェクトの扱い方について説明します,QRコード,"QRコードのオブジェクトを配置します。

<img1 QRコードオブジェクト>","![Objectサンプル QRコードオブジェクト](./images/4/4_14-design_qrcode_01.png ""QRコードオブジェクト"")",QRコードの設定,"QRコードオブジェクトを選択している時に変更できる設定です。

### オブジェクトの編集
<img1 URL入力欄>
* _テキストボックス:_ QRコードに表示する文字を編集できます  

<img2 誤り訂正>
* _誤り訂正:_ コードのサイズを変更します  

<img3 バージョン>
* _バージョン:_ コードのバージョンを変更します※「自動」以外は文字数により表示でき無い場合があります  

<img4 マージン>
* _マージン:_ マージンの有無を変更します  

### 位置・移動
<img5 オブジェクト名>
* _オブジェクト名:_ オブジェクト名を変更します  

<img6 位置>
* _位置(横):_ 枠の横位置を変更します  
* _位置(縦):_ 枠の縦位置を変更します  

<img7 幅>
* _横幅:_ 枠の横幅を変更します  
* _縦幅:_ 枠の縦幅を変更します  

<img8 回転>
* _回転:_ 枠を回転させます  

<img9 コピー>
* _コピー:_ 枠をコピーして新たに配置します  

<img10 削除する>
* _削除する:_ 枠を削除します  

<img11 オブジェクトの整列>
* _左揃え:_ 枠を左に揃えます  
* _縦中央揃え:_ 枠を縦方向中央に揃えます
* _右揃え:_ 枠を右に揃えます  
* _縦均等揃え:_ 枠を縦方向均等に揃えます  
* _上揃え:_ 枠を上に揃えます  
* _横中央揃え:_ 枠を横方向向中央に揃えます  
* _下揃え:_ 枠を下に揃えます  
* _横均等揃え:_ 枠を横方向均等に揃えます","![サイドツール QRコード:URL入力欄](./images/4/4_14-design_qrcode_02.png ""QRコード:URL入力欄"")
![サイドツール QRコード:誤り訂正](./images/4/4_14-design_qrcode_03.png ""QRコード:誤り訂正"")
![サイドツール QRコード:バージョン](./images/4/4_14-design_qrcode_04.png ""QRコード:バージョン"")
![サイドツール QRコード:マージン](./images/4/4_14-design_qrcode_05.png ""QRコード:マージン"")
![サイドツール 共通:オブジェクト名](./images/4/common/4_0-design_co_tools_02.png ""共通:オブジェクト名"")
![サイドツール 共通:位置](./images/4/common/4_0-design_co_tools_07.png ""共通:位置"")
![サイドツール 共通:幅](./images/4/common/4_0-design_co_tools_23.png ""共通:幅"")
![サイドツール 共通:回転](./images/4/common/4_0-design_co_tools_11.png ""共通:回転"")
![サイドツール 共通:コピー](./images/4/common/4_0-design_co_tools_05.png ""共通:コピー"")
![サイドツール 共通:削除する](./images/4/common/4_0-design_co_tools_14.png ""共通:削除する"")
![サイドツール 共通:オブジェクトの整列](./images/4/common/4_0-design_co_tools_01.png ""共通:オブジェクトの整列"")",,,,,,,,,,,,,,,,,,,,,,,,,
P-29,4_15-design_table,デザイン画面,4,design,表,15,table,表を描くオブジェクトの扱い方について説明します,表,"表のオブジェクトを配置します。  
表のセルには文字を入力できます。  
表の新規作成ボタンをクリックすると、作成時の行数と列数を設定するダイアログが表示されますが、作成後も行数や列数は増減可能です。  
表の列数の上限は10列、行数は10行です。  

<img1 表オブジェクト>","![Objectサンプル 表オブジェクト](./images/4/4_15-design_table_01.png ""表オブジェクト"")",表の設定,"表オブジェクトを選択している時に変更できる設定です。


### 表オブジェクトの編集
<img1 表編集>
* _行を追加:_ 表に行を追加します  
* _列を追加:_ 表に列を追加します  
* _行を削除:_ 表内の行を削除します  
* _列を削除:_ 表内の列を削除します  


### スタイル
<img2 線設定>
* _線色:_ 表の線色を変更します  
* _線幅:_ 表の線幅を変更します  

<img3 背景色>
* _背景色:_ 表の背景色を変更します  

<img4 フォント>
* _フォント:_ 表内の文字のフォントを変更します  

<img5 文字色>
* _色:_ 表内の文字の色を変更します  

<img6 透明度>
* _透明度:_ 表内の文字の透明度を変更します  

<img7 文字サイズ>
* _サイズ:_ 表内の文字のサイズを変更します※[自動]の時は操作できません  

<img8 文字サイズ自動>
* _自動:_ 文字枠に合わせて文字サイズを自動変更します  
* _自動折り返し:_ 文字枠に合わせて文字を自動で折り返します  

<img9 字間>
* _字間:_ 表内の文字の字間を変更します  

<img10 行間>
* _行間:_ 表内の文字の行間を変更します  

<img11 横書き縦書き>
* _横書き:_ 表内の文字を横書きに変更します  
* _縦書き:_ 表内の文字を縦書きに変更します  

<img12 文字揃え>
* _左揃え:_ 表内の文字を左端に揃えます  
* _中央揃え:_ 表内の文字を中央に揃えます  
* _右揃え:_ 表内の文字を右端に揃えます  
* _両端揃え:_ 表内内で左右に余白ができないように文字の間隔を均等に調整します  
* _上揃え:_ 表内の文字を表示枠の上に配置します  
* _中央配置:_ 表内の文字を表示枠の縦中央に配置します  
* _下揃え:_ 表内の文字を表示枠の下に配置します  


### 影・縁取り
<img13 影>
* _影:_ 表内の文字に影を追加します  
* _色:_ 影の色を変更します  
* _距離:_ 表内の文字と影の距離を変更します  
* _角度:_ 影の角度を変更します  
* _ぼかし:_ 影のぼかし具合を変更します  
* _透明度:_ 影の透明度を変更します  

<img14 縁取り>
* _縁取り:_ 表内文字に縁取りを追加します  
* _色:_ 縁取りの色を変更します  
* _太さ:_ 縁取りの太さを変更します  
* _透明度:_ 縁取りの透明度を変更します  


### 位置・移動
<img15 オブジェクト名>
* _オブジェクト名:_ オブジェクト名を変更します  

<img16 位置>
* _位置(横):_ 枠の横開始位置を変更します  
* _位置(縦):_ 枠の縦開始位置を変更します  

<img17 幅>
* _横幅:_ 枠の横幅を変更します  
* _縦幅:_ 枠の縦幅を変更します  

<img18 回転>
* _回転:_ 枠を回転させます  

<img19 コピー>
* _コピー:_ 枠をコピーして新たに配置します  

<img20 削除する>
* _削除する:_ 表オブジェクトを削除します  


<img21 オブジェクトの整列>
* _左揃え:_ 枠を左に揃えます  
* _縦中央揃え:_ 枠を縦方向中央に揃えます
* _右揃え:_ 枠を右に揃えます  
* _縦均等揃え:_ 枠を縦方向均等に揃えます  
* _上揃え:_ 枠を上に揃えます  
* _横中央揃え:_ 枠を横方向向中央に揃えます  
* _下揃え:_ 枠を下に揃えます  
* _横均等揃え:_ 枠を横方向均等に揃えます","![サイドツール 表:表オブジェクト編集](./images/4/4_15-design_table_02.png ""表:表オブジェクト編集"")
![サイドツール 共通:図形の線設定](./images/4/common/4_0-design_co_tools_32.png ""共通:図形の線設定"")
![サイドツール 表:背景色](./images/4/4_15-design_table_04.png ""表:背景色"")
![サイドツール 共通:フォント](./images/4/common/4_0-design_co_tools_06.png ""共通:フォント"")
![サイドツール 共通:文字色](./images/4/common/4_0-design_co_tools_30.png ""共通:文字色"")
![サイドツール 共通:透明度](./images/4/common/4_0-design_co_tools_22.png ""共通:透明度"")
![サイドツール 共通:文字サイズ](./images/4/common/4_0-design_co_tools_26.png ""共通:文字サイズ"")
![サイドツール 共通:文字サイズ自動](./images/4/common/4_0-design_co_tools_27.png ""共通:文字サイズ自動"")
![サイドツール 共通:字間](./images/4/common/4_0-design_co_tools_15.png ""共通:字間"")
![サイドツール 共通:行間](./images/4/common/4_0-design_co_tools_13.png ""共通:行間"")
![サイドツール 共通:横書き縦書き](./images/4/common/4_0-design_co_tools_10.png ""共通:横書き縦書き"")
![サイドツール 共通:文字揃え](./images/4/common/4_0-design_co_tools_31.png ""共通:文字揃え"")
![サイドツール 共通:影](./images/4/common/4_0-design_co_tools_08.png ""共通:影"")
![サイドツール 共通:縁取り](./images/4/common/4_0-design_co_tools_09.png ""共通:縁取り"")
![サイドツール 共通:オブジェクト名](./images/4/common/4_0-design_co_tools_02.png ""共通:オブジェクト名"")
![サイドツール 共通:位置](./images/4/common/4_0-design_co_tools_07.png ""共通:位置"")
![サイドツール 共通:幅](./images/4/common/4_0-design_co_tools_23.png ""共通:幅"")
![サイドツール 共通:回転](./images/4/common/4_0-design_co_tools_11.png ""共通:回転"")
![サイドツール 共通:コピー](./images/4/common/4_0-design_co_tools_05.png ""共通:コピー"")
![サイドツール 共通:削除する](./images/4/common/4_0-design_co_tools_14.png ""共通:削除する"")
![サイドツール 共通:オブジェクトの整列](./images/4/common/4_0-design_co_tools_01.png ""共通:オブジェクトの整列"")",表の設定(セル選択時),"表のセルを選択時の設定は以下のようになります


### 操作
<img1 表セル行追加>
* _行追加:_ 選択中のセルから行を追加します  

<img2 表セル列追加>
* _列追加:_ 選択中のセルから列を追加します  

<img3 表セル背景色>
* _行を塗る:_ 選択中のセルの行をセルの背景色にします  
* _列を塗る:_ 選択中のセルの列をセルの背景色にします  

<img4 表セル行高>
* _行高:_ 選択中のセルの行の高さを変更します  

<img5 表セル列幅>
* _列幅:_ 選択中のセルの列の幅を変更します  


### スタイル
<img6 表セルフォント>
* _フォント:_ 表内の文字のフォントを変更します  

<img7 表セル文字色>
* _色:_ 表内の文字の色を変更します  

<img8 表セル文字サイズ>
* _サイズ:_ 表内の文字のサイズを変更します※[自動]の時は操作できません  

<img9 表セル文字サイズ自動>
* _自動:_ 文字枠に合わせて文字サイズを自動変更します  
* _自動折り返し:_ 文字枠に合わせて文字を自動で折り返します  

<img10 表セル字間>
* _字間:_ 表内の文字の字間を変更します  

<img11 表セル行間>
* _行間:_ 表内の文字の行間を変更します  


### 位置・移動
<img12 表セルオブジェクト名>
* _オブジェクト名:_ オブジェクト名を変更します  

<img13 表セル位置>
* _位置(横):_ 枠の横位置を変更します  
* _位置(縦):_ 枠の縦位置を変更します  

<img14 表セル幅>
* _横幅:_ 枠の横幅を変更します  
* _縦幅:_ 枠の縦幅を変更します  

<img15 表セル回転>
* _回転:_ 枠を回転させます  

<img16 表セルコピー>
* _コピー:_ 枠をコピーして新たに配置します  

<img17 表セル削除する>
* _削除する:_ 枠を削除します  

<img18 表セルオブジェクトの整列>
* _左揃え:_ 枠を左に揃えます  
* _縦中央揃え:_ 枠を縦方向中央に揃えます
* _右揃え:_ 枠を右に揃えます  
* _縦均等揃え:_ 枠を縦方向均等に揃えます  
* _上揃え:_ 枠を上に揃えます  
* _横中央揃え:_ 枠を横方向向中央に揃えます  
* _下揃え:_ 枠を下に揃えます  
* _横均等揃え:_ 枠を横方向均等に揃えます","![サイドツール 表:セル行追加](./images/4/4_15-design_table_23.png ""表:セル行追加"")
![サイドツール 表:セル列追加](./images/4/4_15-design_table_24.png ""表:セル列追加"")
![サイドツール 表:セル背景色](./images/4/4_15-design_table_25.png ""表:セル背景色"")
![サイドツール 表:セル行高](./images/4/4_15-design_table_26.png ""表:セル行高"")
![サイドツール 表:セル列幅](./images/4/4_15-design_table_27.png ""表:セル列幅"")
![サイドツール 共通:フォント](./images/4/common/4_0-design_co_tools_06.png ""共通:フォント"")
![サイドツール 共通:文字色](./images/4/common/4_0-design_co_tools_30.png ""共通:文字色"")
![サイドツール 共通:文字サイズ](./images/4/common/4_0-design_co_tools_26.png ""共通:文字サイズ"")
![サイドツール 共通:文字サイズ自動](./images/4/common/4_0-design_co_tools_27.png ""共通:文字サイズ自動"")
![サイドツール 共通:字間](./images/4/common/4_0-design_co_tools_15.png ""共通:字間"")
![サイドツール 共通:行間](./images/4/common/4_0-design_co_tools_13.png ""共通:行間"")
![サイドツール 共通:オブジェクト名](./images/4/common/4_0-design_co_tools_02.png ""共通:オブジェクト名"")
![サイドツール 共通:位置](./images/4/common/4_0-design_co_tools_07.png ""共通:位置"")
![サイドツール 共通:幅](./images/4/common/4_0-design_co_tools_23.png ""共通:幅"")
![サイドツール 共通:回転](./images/4/common/4_0-design_co_tools_11.png ""共通:回転"")
![サイドツール 共通:コピー](./images/4/common/4_0-design_co_tools_05.png ""共通:コピー"")
![サイドツール 共通:削除する](./images/4/common/4_0-design_co_tools_14.png ""共通:削除する"")
![サイドツール 共通:オブジェクトの整列](./images/4/common/4_0-design_co_tools_01.png ""共通:オブジェクトの整列"")",,,,,,,,,,,,,,,,,,,,,,
P-30,4_16-design_serial,デザイン画面,4,design,連番,16,serial,ラベルごとに異なる連番の数字を表示するオブジェクトの扱い方について説明します,連番,"連番のオブジェクトを配置します。
ラベルごとに番号を振り分けることができます。  
連番文字は一つのラベルに配置すると、他のラベルに移ることで連番文字が自動的に配置されます。  

<img1 連番オブジェクト>","![Objectサンプル 連番文字オブジェクト](./images/4/4_16-design_serial_01.png ""連番文字オブジェクト"")",連番の設定,"連番オブジェクトを選択している時に変更できる設定です。


### 連番設定
<img1 開始番号>
* _開始番号:_ 連番文字の開始番号を変更します  

<img2 連番増減>
* _増減:_ 連番文字の開始番号の増減を設定します。  

<img3 語頭語尾>
* _語頭追加:_ 連番文字の前に文字を追加します  
* _語尾追加:_ 連番文字の後に文字を追加します  


### スタイル
<img4 フォント>
* _フォント:_ 連番文字のフォントを変更します  

<img5 文字色>
* _色:_ 連番文字の色を変更します  

<img6 透明度>
* _透明度:_ 連番文字の透明度を変更します  

<img7 サイズ>
* _サイズ:_ 連番文字のサイズを変更します※[自動]の時は操作できません  

<img8 文字サイズ自動>
* _自動:_ 文字枠に合わせて文字サイズを自動変更します  
* _自動折り返し:_ 文字枠に合わせて文字を自動で折り返します  

<img9 字間>
* _字間:_ 連番文字の字間を変更します  

<img10 行間>
* _行間:_ 連番文字の行間を変更します  

<img11 横書き縦書き>
* _横書き:_ 連番文字を横書きに変更します  
* _縦書き:_ 連番文字を縦書きに変更します  

<img12 文字揃え>
* _左揃え:_ 連番文字を左端に揃えます  
* _中央揃え:_ 連番文字を横中央に揃えます  
* _右揃え:_ 連番文字を右端に揃えます  
* _両端揃え:_ 連番文字枠内で左右に余白ができないように文字の間隔を均等に調整します  
* _上揃え:_ 連番文字を表示枠の上に配置します  
* _中央配置:_ 連番文字を表示枠の縦中央に配置します  
* _下揃え:_ 連番文字を表示枠の下に配置します  

<img13 文字スタイル>
* _太字:_ 連番文字を太字に変更します※フォントにより太字がない場合があります  
* _斜体:_ 連番文字を斜体に変更します※フォントにより斜体がない場合があります  
* _下線:_ 連番文字に下線を引きます  

<img14 文字横幅>
* _文字横幅:_ 連番文字の横幅を変更します  

<img15 全角>
* _全角:_ 半角文字を全角に変更します  


### 影・縁取り
<img16 影>
* _影:_ 表内の文字に影を追加します  
* _色:_ 影の色を変更します  
* _距離:_ 表内の文字と影の距離を変更します  
* _角度:_ 影の角度を変更します  
* _ぼかし:_ 影のぼかし具合を変更します  
* _透明度:_ 影の透明度を変更します  

<img17 縁取り>
* _縁取り:_ 表内文字に縁取りを追加します  
* _色:_ 縁取りの色を変更します  
* _太さ:_ 縁取りの太さを変更します  
* _透明度:_ 縁取りの透明度を変更します  


### 位置・移動
<img18 オブジェクト名>
* _オブジェクト名:_ オブジェクト名を変更します  

<img19 位置>
* _位置(横):_ 枠の横開始位置を変更します  
* _位置(縦):_ 枠の縦開始位置を変更します  

<img20 幅>
* _横幅:_ 枠の横幅を変更します  
* _縦幅:_ 枠の高さを変更します  

<img21 回転>
* _回転:_ 枠を回転させます  

<img22 コピー>
* _コピー:_ 枠をコピーして新たに配置します  

<img23 削除する>
* _削除する:_ 連番文字オブジェクトを削除します  

<img24 オブジェクトの整列>
* _左揃え:_ 枠を一片の左端に揃えます  
* _横中央揃え:_ 文字枠を横中央に揃えます  
* _右揃え:_ 文字枠を一片の右端に揃えます  
* _縦均等揃え:_ 文字枠を縦方向均等に揃えます
* _上揃え:_ 文字枠を一片の上端に揃えます  
* _縦中央揃え:_ 文字枠を縦中央に揃えます  
* _下揃え:_ 文字枠を一片の下端に揃えます  
* _横均等揃え:_ 枠を横方向均等に揃えます  ","![サイドツール 連番:開始番号](./images/4/4_16-design_serial_02.png ""連番:開始番号"")
![サイドツール 連番:連番増減](./images/4/4_16-design_serial_03.png ""連番:連番増減"")
![サイドツール 共通:語頭語尾](./images/4/common/4_0-design_co_tools_12.png ""共通:語頭語尾"")
![サイドツール 共通:フォント](./images/4/common/4_0-design_co_tools_06.png ""共通:フォント"")
![サイドツール 共通:文字色](./images/4/common/4_0-design_co_tools_30.png ""共通:文字色"")
![サイドツール 共通:透明度](./images/4/common/4_0-design_co_tools_22.png ""共通:透明度"")
![サイドツール 共通:文字サイズ](./images/4/common/4_0-design_co_tools_26.png ""共通:文字サイズ"")
![サイドツール 共通:文字サイズ自動](./images/4/common/4_0-design_co_tools_27.png ""共通:文字サイズ自動"")
![サイドツール 共通:字間](./images/4/common/4_0-design_co_tools_15.png ""共通:字間"")
![サイドツール 共通:行間](./images/4/common/4_0-design_co_tools_13.png ""共通:行間"")
![サイドツール 共通:横書き縦書き](./images/4/common/4_0-design_co_tools_10.png ""共通:横書き縦書き"")
![サイドツール 共通:文字揃え](./images/4/common/4_0-design_co_tools_31.png ""共通:文字揃え"")
![サイドツール 共通:文字スタイル](./images/4/common/4_0-design_co_tools_28.png ""共通:文字スタイル"")
![サイドツール 共通:文字横幅](./images/4/common/4_0-design_co_tools_29.png ""共通:文字横幅"")
![サイドツール 共通:全角](./images/4/common/4_0-design_co_tools_20.png ""共通:全角"")
![サイドツール 共通:影](./images/4/common/4_0-design_co_tools_08.png ""共通:影"")
![サイドツール 共通:縁取り](./images/4/common/4_0-design_co_tools_09.png ""共通:縁取り"")
![サイドツール 共通:オブジェクト名](./images/4/common/4_0-design_co_tools_02.png ""共通:オブジェクト名"")
![サイドツール 共通:位置](./images/4/common/4_0-design_co_tools_07.png ""共通:位置"")
![サイドツール 共通:幅](./images/4/common/4_0-design_co_tools_23.png ""共通:幅"")
![サイドツール 共通:回転](./images/4/common/4_0-design_co_tools_11.png ""共通:回転"")
![サイドツール 共通:コピー](./images/4/common/4_0-design_co_tools_05.png ""共通:コピー"")
![サイドツール 共通:削除する](./images/4/common/4_0-design_co_tools_14.png ""共通:削除する"")
![サイドツール 共通:オブジェクトの整列](./images/4/common/4_0-design_co_tools_01.png ""共通:オブジェクトの整列"")",,,,,,,,,,,,,,,,,,,,,,,,,
P-31,4_17-design_sns,デザイン画面,4,design,SNS連携(4月以降),17,sns,■デスクリプション,,,,,,,,,,,,,,,,,,,,,,,,,,,,,,,
P-32,4_18-design_multiselect,デザイン画面,4,design,複数オブジェクト選択時,18,multiselect,複数のオブジェクトを選択しているときの操作について説明します,複数オブジェクト選択時,"オブジェクトをドラッグし、複数選択時の動作を説明します。

<img1 複数オブジェクト選択時オブジェクト>","![Objectサンプル 複数オブジェクト](./images/4/4_18-design_multiselect_1.png ""複数オブジェクト"")",複数オブジェクト選択時の設定,"複数オブジェクトを選択している時に変更できる設定です。

### 整列
<img1 複数オブジェクト選択時ライトコントローラー>

* _位置(横):_ 枠の横位置を変更します  
* _位置(縦):_ 枠の縦位置を変更します  
* _削除する:_ 枠を削除します  
* _左揃え:_ 枠を左に揃えます  
* _縦中央揃え:_ 枠を縦方向中央に揃えます  
* _右揃え:_ 枠を右に揃えます  
* _縦均等揃え:_ 枠を縦方向均等に揃えます  
* _上揃え:_ 枠を上に揃えます  
* _横中央揃え:_ 枠を横方向中央に揃えます 
* _下揃え:_ 枠を下に揃えます  
* _横均等揃え:_ 枠を横方向均等に揃えます","![サイドツール 複数オブジェクトライトコントローラー](./images/4/4_18-design_multiselect_2.png ""複数オブジェクトライトコントローラー"")",通常文字複数選択時,"通常文字を複数選択した際に行える設定です。


### スタイル
<img1 通常文字複数選択時ツール スタイル>

* _フォント:_ 通常文字のフォントを変更します  
* _色:_ 通常文字の色を変更します  
* _サイズ:_ 通常文字のサイズを変更します  
* _自動:_ 文字枠に合わせて文字サイズを自動変更します  
* _自動折り返し:_ 文字枠に合わせて文字を自動で折り返します  
* _字間:_ 通常文字の字間を変更します  
* _行間:_ 通常文字の行間を変更します  
* _横書き:_ 通常文字を横書きに変更します  
* _縦書き:_ 通常文字を縦書きに変更します  
* _左揃え:_ 通常文字を左端に揃えます  
* _中央揃え:_ 通常文字を中央に揃えます  
* _右揃え:_ 通常文字を右端に揃えます  
* _両端揃え:_ 通常文字の両端を揃えます  
* _上揃え:_ 通常文字を上に配置します  
* _中央配置:_ 通常文字を中央に配置します  
* _下揃え:_ 通常文字を下に配置します  
* _太字:_ 通常文字を太字に変更します  
* _斜体:_ 通常文字を斜体に変更します  
* _下線:_ 通常文字に下線を引きます  
* _文字横幅:_ 通常文字の横幅を変更します  

### 影・縁取り
<img2 通常文字複数選択時ツール 影・縁取り>

* _影:_ 通常文字に影を追加します  
* _色:_ 影の色を変更します  
* _距離:_ 通常文字と影の距離を変更します  
* _角度:_ 影の角度を変更します  
* _ぼかし:_ 影のぼかし具合を変更します  
* _透明度:_ 影の透明度を変更します  
* _縁取り:_ 通常文字に縁取りを追加します  
* _太さ:_ 縁取りの太さを変更します  
* _透明度:_ 縁取りの透明度を変更します  ","![サイドツール 通常文字複数選択時ツール スタイル](./images/4/4_18-design_multiselect_4.png ""通常文字複数選択時ツール スタイル"")
![サイドツール 通常文字複数選択時ツール 影・縁取り](./images/4/4_18-design_multiselect_5.png ""通常文字複数選択時ツール 影・縁取り"")",文字オブジェクト複数選択時,"また、文字オブジェクトを複数選択した際は以下のようになります。

<img1 文字オブジェクト複数選択時オブジェクト>

###### 変更できる設定も変化します。


### スタイル
<img2 複数文字オブジェクト選択時ツール スタイル>

* _フォント:_ 通常文字のフォントを変更します  
* _色:_ 通常文字の色を変更します  
* _サイズ:_ 通常文字のサイズを変更します  
* _自動:_ 文字枠に合わせて文字サイズを自動変更します  
* _自動折り返し:_ 文字枠に合わせて文字を自動で折り返します  
* _字間:_ 通常文字の字間を変更します  
* _行間:_ 通常文字の行間を変更します  
* _横書き:_ 通常文字を横書きに変更します  
* _縦書き:_ 通常文字を縦書きに変更します  
* _左揃え:_ 通常文字を左端に揃えます  
* _中央揃え:_ 通常文字を中央に揃えます  
* _右揃え:_ 通常文字を右端に揃えます  
* _両端揃え:_ 通常文字の両端を揃えます  
* _上揃え:_ 通常文字を上に配置します  
* _中央配置:_ 通常文字を中央に配置します  
* _下揃え:_ 通常文字を下に配置します  
* _太字:_ 通常文字を太字に変更します  
* _斜体:_ 通常文字を斜体に変更します  
* _下線:_ 通常文字に下線を引きます  
* _文字横幅:_ 通常文字の横幅を変更します  

### 影・縁取り
<img3 複数文字オブジェクト選択時 影・縁取り>
* _影:_ 通常文字に影を追加します  
* _色:_ 影の色を変更します  
* _距離:_ 通常文字と影の距離を変更します  
* _角度:_ 影の角度を変更します  
* _ぼかし:_ 影のぼかし具合を変更します  
* _透明度:_ 影の透明度を変更します  
* _縁取り:_ 通常文字に縁取りを追加します  
* _太さ:_ 縁取りの太さを変更します  
* _透明度:_ 縁取りの透明度を変更します  ","![Objectサンプル 通常文字複数選択時オブジェクト](./images/4/4_18-design_multiselect_3.png ""通常文字複数選択時オブジェクト"")
![サイドツール 複数文字オブジェクト選択時ツール スタイル](./images/4/4_18-design_multiselect_6.png ""複数文字オブジェクト選択時ツール スタイル"")
![サイドツール 複数文字オブジェクト選択時ツール 影・縁取り](./images/4/4_18-design_multiselect_7.png ""複数文字オブジェクト選択時ツール 影・縁取り"")",,,,,,,,,,,,,,,,,,,
P-33,4_19-design_export,デザイン画面,4,design,編集画面の書き出し,19,export,デザインを確認用に画像で保存する操作について説明します,編集画面の書き出し,"編集しているデザイン面をpngもしくはjpg方式で保存ができます。  

<img1>  
","![全体画面 書き出し画面](./images/4/4_19-design_export_1.png ""書き出し画面"")",イメージの書き出し形式の指定,"* _面全体 / デザイン部分:_ 保存する領域をデザイン面全体、もしくはデザイン部分に設定できます。
* _ファイル形式:_ 保存するファイル形式をPNGもしくはJPEGの設定ができます。
* _解像度:_ 保存するファイルの解像度を設定できます。
* _書き出し:_ 編集面を書き出します。Web版ではファイルのダウンロードとして保存します
* _キャンセル:_ 編集面の書き出し画面を閉じます。",,,,,,,,,,,,,,,,,,,,,,,,,,
P-34,5_00-layout_index,レイアウト画面,5,layout,レイアウト画面,00,index,作成したデザインを印刷用に調整やレイアウトする画面について説明します,レイアウト画面,"<img1>

デザイン面の移動や削除、コピーやページの増減、塗り足しの設定をして印刷レイアウトを作成します。  
また、別のファイルにあるデザインを利用することも可能で、用紙の変更にも使えます。","![全体画面 レイアウト画面](./images/5/5_00-layout_index_1.png ""レイアウト画面"")",レイアウト画面の操作,"### [面のコピー](./5_01-layout_copy.html)
選択中の編集面を他の面にコピーします。

### [面の削除](./5_02-layout_delete.html)
選択した面の削除を行います。

### [ページの操作](./5_03-layout_page.html)
ページの追加や、ページの削除を行います。

### [塗り足し](./5_04-layout_overwrite.html)
ラベル一片の周りを余分に描画する際の設定を行います。",,別ファイルのデザインを利用する,"保存されているデザインファイルや差し込みファイルを選択することで、選択したファイルのデザインを使用することができます。
右に表示されたデザインをレイアウトのデザイン面にドラッグすることで利用します。    

<img1>","![全体画面 別ファイルのデザイン](./images/5/5_00-layout_index_2.png ""別ファイルのデザイン"")",,,,,,,,,,,,,,,,,,,,,,
P-35,5_01-layout_copy,レイアウト画面,5,layout,デザイン面のコピーと移動,01,copy,作成したデザインを印刷枠へ配置する方法を説明します,デザイン面のコピーと移動,ツールバーのボタンや、デザイン面の右クリックで表示されるコンテキストメニューでコピー操作が可能です。,,縦コピー,"選択したデザイン面と同じ縦の面全てにコピーします。  
また、右クリックした際の「縦一列にコピー」も同じ機能です。  

<img1>","![全体画面 縦コピー](./images/5/5_01-layout_copy_1.png ""縦コピー"")",横コピー,"選択したデザイン面と同じ横の面全てにコピーします。  
また、右クリックした際の「横一列にコピー」も同じ機能です。  

<img1>","![全体画面 横コピー](./images/5/5_01-layout_copy_2.png ""横コピー"")",全コピー,"選択したデザイン面を、全ての面にコピーします。  
また、右クリックした際の「ページ全体にコピー」も同じ機能です。  

<img1>","![全体画面 全コピー](./images/5/5_01-layout_copy_3.png ""全コピー"")",右クリックでコピー,"デザイン面を右クリックでコピーした後、好きな空白に貼り付けることが可能です。  
別のページにデザインをコピーすることもできます。  

<img1>

<img2>

<img3>","![全体画面 右クリックでコピー](./images/5/5_01-layout_copy_4.png ""右クリックでコピー"")
![全体画面 右クリックで貼り付け](./images/5/5_01-layout_copy_5.png ""右クリックで貼り付け"")
![全体画面 右クリックコピー後](./images/5/5_01-layout_copy_6.png ""右クリックコピー後"")",ドラッグで移動,"デザイン面をドラッグすることで、別の面に移動させることができます。
",,別ファイルのデザインを利用する,"保存されているデザインファイルや差し込みファイルを選択することで、選択したファイルのデザインを使用することができます。
右に表示されたデザインをレイアウトのデザイン面にドラッグすることで利用します。    

<img1>","![全体画面 別ファイルのデザイン](./images/5/5_01-layout_copy_7.png ""別ファイルのデザイン"")",,,,,,,,,,
P-36,5_02-layout_delete,レイアウト画面,5,layout,デザイン面の削除,02,delete,印刷枠へ配置したデザインを削除する方法を説明します,デザイン面の削除,記載してあるデザイン面の削除ができます。,,個別削除,"選択中のデザイン面を削除します。  

<img1>

<img2>","![全体画面 削除前](./images/5/5_02-layout_delete_1.png ""削除前"")
![全体画面 個別削除](./images/5/5_02-layout_delete_2.png ""個別削除"")",全て削除,"表示しているページのデザイン面を全て削除します。  
表示していないページのデザイン面は削除しません。  

<img1>

<img2>
","![全体画面 削除前](./images/5/5_02-layout_delete_1.png ""削除前"")
![全体画面 全て削除](./images/5/5_02-layout_delete_3.png ""全て削除"")",右クリックで削除,"デザイン面を右クリックで削除することができます。  

<img1>  

<img2>
","![全体画面 削除前](./images/5/5_02-layout_delete_1.png ""削除前"")
![全体画面 右クリックで削除](./images/5/5_02-layout_delete_4.png ""右クリックで削除"")",ドラッグで用紙の外にドロップして削除,デザイン面をドラッグし、用紙の外に移動させることでドラッグしたラベルを削除することができます。,,,,,,,,,,,,,,,,,
P-37,5_03-layout_page,レイアウト画面,5,layout,ページの操作,03,page,作成したデザインを複数ページの印刷枠へ配置する方法を説明します,ページの操作,ページの追加や削除はレイアウト画面で行えます。,,ページの追加,"表示しているページの後ろに新しいページを追加します。  

<img1>","![全体画面 ページ追加後](./images/5/5_03-layout_page_1.png ""ページ追加後"")",ページの削除,"複数のページがある場合、表示しているページを削除します。

<img1>","![全体画面 ページ削除中](./images/5/5_03-layout_page_2.png ""ページ削除中"")",ページ移動,"用紙の下の左右ボタンでページを移動することができます。  
また、数値を入力することで、任意のページに移動することもできます。",,表裏の切替,"[レイアウト画面]に表示させる用紙の面の表、裏を切り替えます。  
※使用している用紙が『両面』でないと機能しません。  

<img1>","![全体画面 レイアウト表裏ボタン](./images/5/5_03-layout_page_4.png ""レイアウト表裏ボタン"")",,,,,,,,,,,,,,,,
P-38,5_04-layout_overwrite,レイアウト画面,5,layout,塗り足し,04,overwrite,配置したデザインと印刷枠の間に出来てしまう隙間の埋め方を説明します,塗り足し,"面付きで、面と面の間に間隔のある用紙では余白部分にも印刷の塗り足しをすることができます。  
塗り足しを設定すると、印刷時に余白部分に設定数値分だけ一片枠の外側に印刷します。  
これにより、わずかな印刷時のズレで印刷されない部分が発生することを防げます。  

面同士に間隔が空いていない場合は、面の間の塗り足しはできませんが、周辺に余白がある場合は周辺に塗り足し印刷が可能です。  

<img1><img2>

__※間隔のない面付きで端まで色のあるデザインを印刷すると、印刷時のズレが隣接する面に印刷されるので御注意ください。__  　
","![画像S 塗り足し縁](./images/5/5_04-layout_overwrite_3.png ""塗り足し縁"")
![画像M 塗り足しイメージ](./images/5/5_04-layout_overwrite_4.png ""塗り足しイメージ"")",,,,,,,,,,,,,,,,,,,,,,,,,,,,
P-39,6_00-print_index,印刷画面,6,print,印刷画面,00,index,デザインを配置したページを印刷する画面について説明します,印刷画面,"<img1>  

作成したデザインの印刷をします。","![全体画面 印刷画面](./images/6/6_00-print_index_1.png ""印刷画面"")",印刷画面の操作,"### [印刷ページの設定](./6_01-print_pageset.html)
印刷を行いたいページや、印刷面の設定を行います。

### [印刷設定](./6_02-print_settings.html)
ラベルの枠の設定や反転印刷、ラベルごとの印刷のONOFFを切り替え,印刷の位置の変更ができます。

### [印刷・PDF書き出し](./6_03-print_export.html)
印刷準備が終わったら、印刷を行います。
印刷せず、PDFにすることも可能です。

",,,,,,,,,,,,,,,,,,,,,,,,,,
P-40,6_01-print_pageset,印刷画面,6,print,印刷ページの設定,01,pageset,印刷時のページの扱いについて説明します,印刷ページの設定,"印刷画面では、印刷するページ範囲の設定、印刷面の設定を行えます。  

<img1>","![上部ツール 印刷ページ設定](./images/6/6_01-print_pageset_1.png ""印刷ページ設定"")",印刷ページ,印刷を行いたいページの範囲を設定できます。,,印刷面,"両面印刷対応の用紙の場合に、印刷する面(両面・表面・裏面)を指定します。  
※両面印刷の場合は、表面と裏面の印刷データを連続してプリンターに送ります。  
自動で両面する制御は行いません。表面印刷後に裏面側で給紙して印刷の再開をするか、  
プリンターのプロパティやプリンター側での設定が必要です。
",,,,,,,,,,,,,,,,,,,,,,,
P-41,6_02-print_settings,印刷画面,6,print,印刷設定,02,settings,デザインやレイアウトとは別に、印刷時に可能な調整について説明します,印刷設定,"ラベルの枠の設定や反転印刷、ラベルごとの印刷のONOFFの切り替えを行います。  

<img1>","![上部ツール 印刷設定](./images/6/6_02-print_settings_1.png ""印刷設定"")",反転印刷,"デザインを全て左右反転させます。  

<img1>","![全体画面 反転印刷](./images/6/6_02-print_settings_2.png ""反転印刷"")",枠あり印刷,"印刷デザインに一片枠を描画・印刷をします。   
枠の色の変更もできます。  

<img1>","![全体画面 枠あり印刷](./images/6/6_02-print_settings_3.png ""枠あり印刷"")",印刷切り替え,"各ラベルを個別に印刷する／しないの切り替えを行えます。  
印刷しない面はラベルに×が表示されます。  

<img1>","![全体画面 印刷切り替え](./images/6/6_02-print_settings_4.png ""印刷切り替え"")",印刷開始位置,"印刷を開始する位置を調整できます。  
上下、左右それぞれ0.1mm単位で設定することができます。
  
<img1>","![全体画面 印刷位置](./images/6/6_02-print_settings_5.png ""印刷位置"")",,,,,,,,,,,,,,,,
P-42,6_03-print_export,印刷画面,6,print,印刷・PDF書き出し,03,export,具体的な印刷方法について説明します,印刷・PDF書き出し,"作成したデザインを印刷およびPDF書き出しをします。

<img1>","![サイドツール 印刷ボタン](./images/6/6_03-print_export_1.png ""印刷ボタン"")",印刷,"使用しているブラウザの機能を用いて印刷を行います。  
印刷準備中にオススメの用紙が表示されます。  
Web版ではファイルのダウンロードとして保存します。  

__※Microsoft Edgeでは、PDFがダウンロードされます。
ダウンロードされたファイルをAdobe ReaderなどのPDF印刷可能なソフトで開いて印刷してください。__",,PDF書き出し,"作成したデザインをPDF形式で書き出し、ファイルに保存します。
PDF作成準備中にオススメの用紙が表示されます。",,ブラウザごとの印刷方法,"### Google Chrome
[印刷]ボタンをクリックすると、印刷準備画面が表示されるので、[詳細設定]をクリックします。
そのあと、[ページサイズに合わせる]のチェックを外し、倍率を「100」にし、用紙サイズを設定してください。

### FireFox
[印刷]ボタンをクリックすると、印刷準備画面が表示されるので、[詳細を表示]をクリックします。
そのあと、拡大縮小を「100%」にし、用紙サイズを設定してください。

### Microsoft Edge
PDFファイルがダウンロードされます。Adobe Acrobat Reader等の _PDFビューアーでファイルを開いて印刷_ してください。
ページサイズに[合わせる]は選択せずに、[実際のサイズ]または[100%]で印刷してください。  
Microsoft Edgeは自動的にページサイズに合わせてしまうため、他のPDFビューアーをご利用ください。  

### Safari
[印刷]ボタンをクリックすると、印刷準備画面が表示されるので、[詳細を表示]をクリックします。
そのあと、[拡大縮小]を「100%」にし、用紙サイズを設定してください。",,,,,,,,,,,,,,,,,,,,
P-43,7_00-pouring_index,差し込み画面,7,pouring,差し込み画面,00,index,連絡帳などのテキストデータから半自動で個別の情報を記載したラベルを作成する方法について説明します。,差し込み画面,,,差し込みについて,"差し込みを使うと、同じデザインを利用して差し込む情報分の面に対して文字やバーコードを表示・印刷できます。  
例えば宛名印刷なら住所録データを一度に差し込んで利用できます。
差し込みに利用できるオブジェクトは、標準文字、円周文字、QRコード、バーコードとダウンロード版の画像オブジェクトです。
",,差し込み関連の操作,"### [差し込みの操作説明](./7_01-pouring_operation.html)
差し込み画面の操作について説明します。

### [差し込みデザインの読み込み](./7_02-pouring_loaddesign.html)
すでにあるデザインファイルを読み込み、差し込みに利用する操作について説明します。

### [差し込みデータの書き出し・読み込み](./7_03-pouring_csv.html)
差し込みに利用するテキストデータをCSVに書き出したり、CSVから読み込んだりする操作について説明します。

### [差し込み時のレイアウト](./7_04-pouring_layout.html)
差し込み時のレイアウトについて説明します。

### [差し込み時の印刷](./7_05-pouring_print.html)
差し込み時の印刷について説明します。
",,,,,,,,,,,,,,,,,,,,,,,
P-44,7_01-pouring_operation,差し込み画面,7,pouring,差し込みの操作説明,01,operation,テキストの表データをラベル上に表示する手順について説明します,差し込みの操作説明,差し込みデータは表形式で表示され、ファイルの読み込みや文字の編集ができます。,,"表の使い方
","<img1>

* _No:_ 行数を示します。
* _印刷:_ その行の差し込みデータを差し込んで印刷するかどうかを設定します。  
チェックが入っていなければその行のデータは印刷されません。
* _枚数:_ その行の差し込みデータの印刷枚数を設定します。
* _セル:_ 差し込みデータを編集します。
","![全体画面 差し込み画面](./images/7/7_01-pouring_operation_1.png ""差し込み画面"")","差し込み位置の指定方法(関連付け)
","差し込みデータをデザイン上のオブジェクトに反映させます。  
列名部分をクリックすると差し込み位置指定モードになります。  

<img1>  

この状態で選んだ列のデータの差し込みするオブジェクトをクリックすると、列から関連付いたオブジェクトに向かい線が表示されます。  

<img2>

<img3>  

関連状態の確認は、列名をクリックすることで全ての関連付いた状態を示す線が表示されます。","![画像L 差し込みイメージ](./images/7/7_01-pouring_operation_2.png ""差し込みイメージ"")
![全体画面 差し込み中](./images/7/7_01-pouring_operation_3.png ""差し込み中"")
![全体画面 差し込み後](./images/7/7_01-pouring_operation_4.png ""差し込み後"")  
![全体画面 差し込み関連づけ確認](./images/7/7_01-pouring_operation_5.png ""差し込み関連づけ確認"")",表選択時の右パネルについて,"列名部分をクリックして「列選択状態」と、データ部分の「セル選択状態」で、表示する内容が変わります。

### 列選択状態の表、スタイル
<img1 列選択時 追加パネル>

* _昇順、降順:_ 選択している列の並び文字コードおよび、数字として比較し、昇順もしくは降順に並び替えます。
* _語頭・語尾追加:_ 選択している列データの先頭や後ろに文字を追加して関連付いたオブジェクトに表示します。

### セル選択状態の表
<img2 セル選択時の右パネル>

* _行追加:_ 選択しているセルの[上]もしくは[下]に行を追加します。  
追加できる行数は500行までです。
* _列追加:_ 選択しているセルの[左]もしくは[右]に列を追加します。
追加できる列数は78列まで(BZ列まで)です。
* _行を削除:_ 選択しているセルの行を削除します。  
* _列を削除:_ 選択しているセルの列を削除します。  
* _一行目を列名にする:_ 一行目のデータをを列名にします。  
列名にしたデータはオブジェクトには反映されなくなります。  
","![サイドツール 差し込み右パネル列選択](./images/7/7_01-pouring_operation_6.png ""差し込み右パネル列選択"")
![サイドツール 差し込み右パネルセル選択](./images/7/7_01-pouring_operation_7.png ""差し込み右パネルセル選択"")",,,,,,,,,,,,,,,,,,,
P-45,7_02-pouring_loaddesign,差し込み画面,7,pouring,差し込みデザインの読み込み,02,loaddesign,差し込みデザインに .aly 形式のファイルを利用する方法について説明します,"差し込みデザインの読み込み
","あらかじめ作成したデザインのファイル(aly様式)を差し込みのデザインに使用することができます。  
ファイルを読み込んだ後、ファイルにあるデザインを選択し、「表データを読み込む」「表データなしで進む」で、差し込みができます。

<img1>","![全体画面 差し込み用デザイン選択画面](./images/7/7_02-pouring_loaddesign_1.png ""差し込み用デザイン選択画面"")",表データなしで進む,そのまま差し込み画面に移動します。,,表データを読み込む,CSVファイルなど差し込みデータがあるファイルを読み込ませることにより、差し込みデータを表に読み込みます。,,,,,,,,,,,,,,,,,,,,,,,
P-46,7_03-pouring_csv,差し込み画面,7,pouring,差し込みデータの書き出し・読み込み,03,csv,差し込みデザインにMicrosoft Excel™のデータを読み込んだり、CSVを書き出す方法について説明します,差し込みデータの書き出し・読み込み,"あらかじめ作成した差込データファイルを表に読み込ませたり、表にある差し込みデータをCSVファイルに書き出すことができます。

<img1>","![全体画面 差し込み画面](./images/7/7_03-pouring_csv_1.png ""差し込み画面"")",読み込み,"Microsoft Excel™のxlsxブック形式と、CSV形式が読み込めます。
読み込まれたデータは、現在のデータに上書きされます。部分的な読み込みはできません。  

<img1>","![全体画面 CSV読み込み後](./images/7/7_03-pouring_csv_2.png ""CSV読み込み後"")",書き出し,ラベル屋さん内で編集した差し込みテキストの表をCSV形式で書き出します。,,,,,,,,,,,,,,,,,,,,,,,
P-47,7_04-pouring_layout,差し込み画面,7,pouring,差し込み時のレイアウト,04,layout,差し込み時専用のレイアウト画面について説明します,差し込み時のレイアウト,"差し込みを利用している時のレイアウト画面は、差し込みの印刷レイアウト作成用に変わります。

<img1>","![全体画面 差し込み時のレイアウト画面](./images/7/7_04-pouring_layout_1.png ""差し込み時のレイアウト画面"")",開始面,差し込みを開始する面を指定します。,,差し込み範囲,"差し込みを行う表データの開始行と終了行の範囲を設定します。  
右側の数値は、行データの印刷する枚数を設定します。  
差し込み画面の行単位で設定する[枚数]と、レイアウトの枚数を掛けた分を表示、印刷します。  

",,流し込み,"流し込みはラベルの印刷する順番を、横方向か横方向に切り替えます。
",,,,,,,,,,,,,,,,,,,,
P-48,7_05-pouring_print,差し込み画面,7,pouring,差し込み時の印刷,05,print,■デスクリプション,差し込み時の印刷,"差し込み時の印刷の機能は通常のラベル作成と同じ機能を使用することができます。
",,印刷・PDF書き出し,"作成したデザインを印刷およびPDF書き出しをします。

<img1>

### 印刷
作成したデザインの印刷を行います。  
使用しているブラウザの機能を用いて印刷を行います。  
Web版ではファイルのダウンロードとして保存します  
__※Microsoft Edgeでは、PDFがダウンロードされます。  
ダウンロード後、Adobe Readerでファイルを開いてから印刷してください。__

### PDF書き出し
作成したデザインをPDFにして保存します。
","![サイドツール 印刷ボタン](./images/7/7_05-pouring_print_1.png ""印刷ボタン"")",印刷ページの設定,"印刷画面では、印刷したいページ範囲の設定や、印刷面の設定を行えます。  

<img1>

### 印刷ページ
印刷するページの範囲や、印刷面の設定をします。

### 印刷面
両面印刷対応の用紙の場合に、印刷する面(両面・表面・裏面)を指定します。  
__※両面印刷の場合は、表面と裏面の印刷データを連続してプリンターに送ります。  
自動で両面する制御は行いません。表面印刷後に裏面側で給紙して印刷の再開をするか、  
プリンターのプロパティやプリンター側での設定が必要です。__
","![上部ツール 印刷ページ設定](./images/7/7_05-pouring_print_2.png ""印刷ページ設定"")",印刷設定,"一片枠の印刷設定や反転印刷、ラベルごとの印刷のOn/Offの切り替えを行います。
<img1>

### 反転印刷
デザインを全て左右反転させます。

<img2>

### 枠あり印刷
印刷デザインに一片枠を描画・印刷をします。
枠の色の変更もできます。

<img3>

### 印刷切り替え
各ラベルを個別に印刷する／しないの切り替えをします。。
印刷しない面はラベルに×が表示されます。

<img4>","![上部ツール 印刷設定](./images/7/7_05-pouring_print_3.png ""印刷設定"")
![全体画面 反転印刷](./images/7/7_05-pouring_print_4.png ""反転印刷"")
![全体画面 枠あり印刷](./images/7/7_05-pouring_print_5.png ""枠あり印刷"")
![全体画面 印刷切り替え](./images/7/7_05-pouring_print_6.png ""印刷切り替え"")",位置,"印刷を開始する位置を調整できます。
上下、左右それぞれ0.1mm単位で設定することができます。

<img1 印刷位置>
","![全体画面 印刷切り替え](./images/7/7_05-pouring_print_6.png ""印刷切り替え"")",,,,,,,,,,,,,,,,
