serial NO,serial_no,P-1,P-2,P-3,P-4,P-5,P-6,P-7,P-8,P-9,P-10,P-11,P-12,P-13,P-14,P-15,P-16,P-17,P-18,P-19,P-20,P-21,P-22,P-23,P-24,P-25,P-26,P-27,P-28,P-29
"ファイル名
(自動で入力されます)",page_filename,1_01-firstly_about,1_03-firstly_specification,1_04-firstly_features,2_01-operation_tips,2_02-operation_flow,2_03-operation_template,2_04-operation_cloud,3_01-screen_top,3_02-screen_paper,3_05-screen_save,4_01-design_main_pane,4_03-design_text,4_04-design_text_circle,4_06-design_text_date,4_07-design_img,4_08-design_square,4_09-design_poly,4_10-design_circle,4_11-design_straight,4_12-design_curve,4_13-design_barcode,4_14-design_qrcode,4_17-design_sns,4_20-design_ar,5_01-layout_copy,5_02-layout_delete,5_03-layout_page,6_02-print_settings,6_03-print_export
カテゴリ名,cat_name,はじめに,はじめに,はじめに,操作概要,操作概要,操作概要,操作概要,画面説明,画面説明,画面説明,デザイン画面,デザイン画面,デザイン画面,デザイン画面,デザイン画面,デザイン画面,デザイン画面,デザイン画面,デザイン画面,デザイン画面,デザイン画面,デザイン画面,デザイン画面,デザイン画面,レイアウト画面,レイアウト画面,レイアウト画面,印刷画面,印刷画面
カテゴリNO,cat_no,1,1,1,2,2,2,2,3,3,3,4,4,4,4,4,4,4,4,4,4,4,4,4,4,5,5,5,6,6
カテゴリID,cat_id,firstly,firstly,firstly,operation,operation,operation,operation,screen,screen,screen,design,design,design,design,design,design,design,design,design,design,design,design,design,design,layout,layout,layout,print,print
ページ名,page_name,"ラベル屋さん™ラベル＆カード<br class=""pc-item"">作成ソフト10について",ラベル屋さん10の仕様,ラベル屋さん10の特徴,操作Tips,操作の流れ,テンプレートの利用,クラウドの利用について,ホーム画面,用紙選択,保存画面,デザイン編集領域,通常文字,円周文字,日付文字,画像,四角形,多角形,丸,直線,曲線,バーコード,QRコード,SNS連携,AR,デザイン面のコピーと移動,デザイン面の削除,ページの操作,印刷設定,印刷
ページ NO,page_no,01,03,04,01,02,03,04,01,02,05,01,03,04,06,07,08,09,10,11,12,13,14,17,20,01,02,03,02,03
"ページ ID
(カテゴリ内で同じ名前は避けてください)",page_id,about,specification,features,tips,flow,template,cloud,top,paper,save,main_pane,text,text_circle,text_date,img,square,poly,circle,straight,curve,barcode,qrcode,sns,ar,copy,delete,page,settings,export
デスクリプション,page_description,『ラベル屋さん10』は、エーワン™ 製品のOAラベルシールやカード製品をより多くの方へ親しんで便利にご利用いただけるように開発されたソフトウェアです,最新バージョンのラベル屋さんの仕様について説明します,多くの新機能が盛り込まれた最新バージョンのラベル屋さんの特徴を紹介します,ラベル屋さん10でラベルをデザインする際の主な機能について説明します,新規にラベルを作成する際の全体的な流れを説明します,テンプレートを使うことでデザインの整ったラベルやカードが簡単に作成できます,"""専用クラウド「ラベル屋さんクラウド」を利用することで、
複数端末で同じデータを簡単に使用できます。""",ラベル屋さん10 の起動後最初に表示される画面について説明します,用紙選択時に希望の用紙を検索する方法や用紙設定について説明します,ファイルの保存、編集方法について説明します,ラベルのデザインを作成する画面での基本的な操作を説明します,文字オブジェクトの扱い方について説明します,円周状に文字を作成できる文字オブジェクトの扱い方について説明します,日付を表示するための文字オブジェクトの扱い方について説明します,画像オブジェクトの扱い方について説明します,四角形を描くオブジェクトの扱い方について説明します,四角形以外の多角形を描くオブジェクトの扱い方について説明します,丸を描くオブジェクトの扱い方について説明します,直線を描くオブジェクトの扱い方について説明します,曲線を描くオブジェクトの扱い方について説明します,バーコードを表示するオブジェクトの扱い方について説明します,QRコードを表示するオブジェクトの扱い方について説明します,TwitterやFacebookで投稿した画像を、デザインに用いる操作について説明します。,作成したデザインの確認に使用するAR確認について説明します,作成したデザインを印刷枠へ配置する方法を説明します,印刷枠へ配置したデザインを削除する方法を説明します,作成したデザインを複数ページの印刷枠へ配置する方法を説明します,デザインやレイアウトとは別に、印刷時に可能な調整について説明します,具体的な印刷方法について説明します
"セクション名0
(必ずページ名と同じ)",section_0_name,ラベル屋さん™ラベル＆カード作成ソフト10について,ラベル屋さん10の仕様,ラベル屋さん10の特徴,操作Tips,操作の流れ,テンプレートの利用,クラウドの利用について,ホーム画面,用紙選択 ,保存ファイル,"デザイン編集領域（共通）
",通常文字,円周文字,日付文字,画像,四角形,多角形,丸,直線,曲線,バーコード,QRコード,SNS連携,AR確認,デザイン面のコピー,デザイン面の削除,ページの操作,印刷設定,印刷
セクション本文0,section_0_txt,"※ 以降「ラベル屋さん™ラベル＆カード作成ソフト」を「ラベル屋さん」と表記します  
『ラベル屋さん10』は、エーワン™ 製品のOAラベルシールやカード製品を便利にご利用いただき、  より多くの方へ親しんでいただけるように開発されたソフトウェアです。  
  
このヘルプファイルでは、ラベル屋さん10モバイルの詳細な操作説明を行っていきます。  

<img1 ホーム>",,"ラベル屋さん10は、HTML技術を基盤にして開発されています。  
Mobile版は動作環境に記載された各OSのStoreからインストールすることでそのまま利用できます。  
また、多くの独自実装により、例えばAR確認機能。  
文字や図形のベクター処理で滑らかな印刷を可能にしています。
","ラベル屋さん10では、デザイン作成を行うのに便利な機能が用意されています。  
これらの機能を利用して、効率良くデザインを作成することができます。

ラベル屋さん10のマニュアルも御用意しています。[ラベル屋さんマニュアル](http://labelyasan.a-one.jp/support/#sct02) になります。
",ここでは新規作成操作時の全体的な流れを説明します。,"テンプレート(雛形)を利用すればデザインされたラベルやカードが簡単に作成できます。この機能を利用することで、『ラベル屋さん10』をより便利にご利用いただくことができます。



","ラベル屋さん10では、専用クラウド「ラベル屋さんクラウド」をご用意しています。
ラベル屋さんクラウドを利用することで、簡単に複数端末から同じデータを扱うことができます。 

また、ラベル屋さんクラウド以外の「Google ドライブ」、「DropBox」、「One Drive」も使用可能です。","『ラベル屋さん10』の起動画面です。

<img1 ホーム画面>","新規作成時の[用紙選択画面]です。  
表示されている製品パッケージを選択します。

品番やキーワード検索で用紙の絞り込みができます。

選択した用紙でのテンプレート選択画面への移動は、選択した用紙をタップして、後に画面右下に表示される［決定］ボタンをタップすることで移動できます。  

<img1 用紙選択>  

<img2 用紙選択_選択後>

","［保存ファイル］内では端末やクラウドに保存されているファイルの各種編集や、ファイルをデザインとして開いて、そのファイルの編集、印刷などが行えます  

* ファイル選択画面  
端末内とクラウド内のどちらかを選択してタップすることにより、利用できるフォルダ及びファイルが表示されます。それをタップすることによってレイアウト画面に移動し、ファイルが開かれます。  
※ファイルが存在しない場合は表示されません

<img1 保存画面_ファイル選択>

画面内のURLは、アカウント登録者のみが利用できる機能について解説しているページへ移動することができます  

<img2 保存画面_保存ファイル決定>  

* フォルダ新規作成  
新しいフォルダを作成します。名前も変更できます  

* フォルダ変更    
画面上のフォルダやクラウドを別のフォルダ及びクラウドに切り替えて表示することができます  

* 設定ボタン  
新規フォルダの作成、マイページへの移動、ラベル屋さんからのログアウトが行えます

<img3 保存画面_設定>












","デザイン編集画面になります。  
下部ツールバーより、文字や画像の挿入および新規オブジェクトの作成などを行うことができます。  
作成したオブジェクトを選択することで、プロパティや位置・サイズの編集及びオブジェクトの編集が行えます。

<img1 デザイン編集画面>","文字をオブジェクトとして配置します。  

<img1 通常文字>","文字を円周に配置する円周文字のオブジェクトです。
縦書きにすることで、文字を放射線状に配置することも可能です。  

<img1 円周文字>","表示形式を指定して日付文字を自動表示するオブジェクトです。

<img1 日付文字>","端末のアルバム内から画像を配置します。  
アプリ内で用意されているサンプルから選択することもできます  

<img1 画像>  

<img2 画像_サンプル>  ","四角形のオブジェクトを配置します。  

<img1 四角形>","三角形や五角形、六角形、星、矢印のオブジェクトを配置します。  

<img1 多角形>","丸のオブジェクトを配置します。  

<img1 丸>","直線のオブジェクトを配置します。  
直線の始点や終点を矢印にすることも可能です。  

<img1 直線>
","曲線のオブジェクトを配置します。 曲線の始点や終点を矢印にすることも可能です。  

<img1 曲線>","バーコードのオブジェクトを配置します。  
JANや物流用など、様々なバーコードを使用可能です。  

<img1 バーコード>  

","ラベル屋さん10は、HTML技術を基盤にして開発されています。  
Mobile版は動作環境に記載された各OSのStoreからインストールすることでそのまま利用できます。  
また、多くの独自実装により、例えばAR確認機能が実装されています。  
また、文字や図形のベクター処理で滑らかな印刷を可能にしています。
",ラベル屋さん10では、TwitterやFacebookの画像付き投稿を読み取り、投稿をデザイン面に貼り付けることができます。,"起動することによりカメラ内にラベルが表示されます。  
そのまま図のようにカメラを製品に合わせることで、ラベルを実際に使用した時の状態を印刷前に確認できます  
※起動前にカメラへのアクセスが求められるので、「許可する」をタップしてアプリ側のカメラへのアクセスを許可してください。  

<img1 AR_カメラ画面>","作成したデザインが挿入されている面をタップすることでメニューが表示されます。  
このメニューでデザイン面のコピー操作を行うことができます  

<img1 デザイン面のコピーと移動>
","作成したデザインが挿入されている面をタップすることでメニューが表示されます。  
このメニューでデザイン面の削除を行うことができます  

<img1 デザイン面の削除>","ページの追加や削除はレイアウト画面で行えます。  

<img1 ページの操作>","ラベルの枠の設定や反転印刷、ラベルごとの印刷のON,OFFの切り替えを行います。  

<img1 印刷設定>","作成したデザインを印刷します  

<img1 印刷>"
セクション画像0,section_0_img,"![画像M ホーム](./images/1/1_01-firstly_about_1.png ""ホーム"")",,,,,,,"![画像M ホーム画面](./images/3/3_01-screen_top_1.png ""ホーム画面"")","![画像M 用紙選択画面](./images/3/3_02-screen_paper_1.png ""用紙選択画面"")
![画像M 用紙選択_選択後](./images/3/3_02-screen_paper_2.png ""用紙選択_選択後"")","![画像M 保存画面_ファイル選択](./images/3/3_05-screen_save_1.png ""保存画面_ファイル選択"")
![画像M 保存画面_保存ファイル決定](./images/3/3_05-screen_save_4.png ""保存画面_保存ファイル決定"")
![画像M 保存画面_設定](./images/3/3_05-screen_save_2.png ""保存画面_設定"")","![画像M デザイン編集画面](./images/4/4_01-design_main_pane_1.png ""デザイン編集画面"")","![画像M 通常文字](./images/4/4_03-design_text_01.png ""通常文字"")","![画像M 円周文字](./images/4/4_04-design_text_circle_01.png ""円周文字"")","![画像M 日付文字](./images/4/4_06-design_text_date_01.png ""日付文字"")","![画像M 画像](./images/4/4_07-design_img_1.png ""画像"")
![画像M 画像_サンプル](./images/4/4_07-design_img_2.png ""画像_サンプル"")","![画像M 四角形](./images/4/4_08-design_square_1.png ""四角形"")","![画像M 多角形](./images/4/4_09-design_poly_1.png ""多角形"")","![画像M 丸](./images/4/4_10-design_circle_1.png ""丸"")","![画像M 直線](./images/4/4_11-design_straight_1.png ""直線"")","![画像M 曲線](./images/4/4_12-design_curve_1.png ""曲線"")","![画像M バーコード](./images/4/4_13-design_barcode_1.png ""バーコード"")","![画像M QRコード](./images/4/4_14-design_qrcode_1.png ""QRコード"")",,"![画像M AR_カメラ画面](./images/4/4_20-design_ar_1.png ""AR_カメラ画面"")","![画像M デザイン面のコピーと移動](./images/5/5_01-layout_copy_1.png ""デザイン面のコピーと移動"")","![画像M デザイン面の削除](./images/5/5_02-layout_delete_1.png ""デザイン面の削除"")","![画像M ページの操作](./images/5/5_03-layout_page_1.jpeg ""ページの操作"")","![画像M 印刷設定](./images/6/6_02-print_settings_1.png ""印刷設定"")","![画像M 印刷](./images/6/6_03-print_export_1.png ""印刷"")"
セクション名1,section_1_name,モバイル版について,デザインファイルについて,モバイル版特有の機能,プロフィール機能,1.起動,使用テンプレート選択,アカウント登録方法,[ファイルを開く],品番検索,ファイル・フォルダ編集,オブジェクトの作成,通常文字入力画面,円周文字入力画面,日付文字入力画面,編集：画像,四角形の編集,多角形の編集,丸オブジェクトの編集,直線：編集,曲線:編集,"バーコード：編集
","QRコード：編集
",アカウント登録方法,,縦一列コピー,削除,ページの追加,反転印刷,印刷
セクション本文1,section_1_txt,"ラベル屋さん10モバイルは、Google社のAndroid™及び、 Apple社のiOS™上で動作します。  
ラベル屋さん10モバイルは、ラベル屋さんサイトからダウンロードすることで利用できます。
","### デザインファイル
ホーム画面の[新規作成]から作成したデザインの保存ファイルで、拡張子は”aly”になります。  
保存されているデザインを差し込みに使用することができます。  

","ラベル屋さんのモバイル版は以下の機能が実装されています。  

* _AR機能_  
デザイン編集でデザインしたラベルをスマートフォンのカメラからARで表示させることができます。  
これによって、ラベルの確認が可能です。

* _用紙バーコード選択_  
製品にあるバーコードを読み取ることで使いたい用紙を簡単に検索することができます。  ","ホーム画面のプロフィールに、名前や住所を登録すると、名刺などの対応するテンプレートの名前や住所に、プロフィール情報を表示できます。    

<img1  操作Tips_プロフィール>","『ラベル屋さん10 モバイル』を起動します。  

 <img1 操作の流れ_アプリ起動>

","### 使用テンプレート選択

<img1 テンプレート1列3枚>  

一覧の中からテンプレートを選択します。  
最初は用紙に関連付いたカテゴリ用途のテンプレートが表示されます。  
画面右下のカテゴリリストから利用したいカテゴリを選ぶことができます。

### 検索条件プルダウンリスト
切り替えることで、画面に表示されるテンプレートを「用紙の一片サイズに近いもの」か、「カテゴリ内のテンプレート全て」にするかを選ぶことができます。


### カテゴリ
画面右下の「カテゴリマーク」をタップすることで、利用用途で分類されたテンプレートのリストを表示します。  
キーワードを入力することによってカテゴリ検索も行うことができます。

","各種クラウドを使用する際には、ラベル屋さんアカウントを登録する必要があります。 
登録方法はかんたんマニュアルのユーザー登録をご覧ください。
 
",［保存ファイル］へ移動し、作成済みのデザインファイルを開きます。  ,"すでに用紙を持っている際は画面上部の検索欄に品番を入力してください。入力した品番の用紙が検索できます。   
また、キーワードを入力することでも検索が可能です。  

<img1 用紙選択_検索結果>","* 名前変更  
選択中のファイル、フォルダの名前を変更します
入力フォームが表示されます  

* 削除  
選択中のファイル、フォルダを削除します  

* 移動  
選択中のファイル・フォルダを任意の場所に移動させます

<img1  保存画面_ファイル操作>


",下部ツールバーより、作成したいオブジェクトのボタンをタップします,"画面下部ツールバーの[文字]より、通常文字を選択すると表示される画面です。ここで入力した内容がオブジェクトに反映されます。  

<img1 通常文字_文字入力>    

* 文字入力欄  
この欄に文字を入力して画面右上の［決定］をタップすることで、
文字がデザインに配置されます  

* 縦,横書きプルダウンリスト    
文字の縦書き、横書きが選択できます  

* 文字寄せプルダウンリスト（左右・上下）  
切り替えることによって文字の配置位置を調節することができます  

* 語頭追加  
語頭に文字を追加します  

* 語尾追加   
語尾に文字を追加します  
","画面下部ツールバーの[文字]より、円周文字を選択すると表示される画面です。ここで入力した内容がオブジェクトに反映されます  
<img1 円周文字_文字入力>

* 文字入力欄  
この欄に文字を入力して画面右上の［決定］をタップすることで、文字がデザインに配置されます  

* 文字向きプルダウンリスト  
円周文字の外向き、内向きを変更できます  

* 縦・横書きプルダウンリスト  
文字の縦書き、横書きが選択できます  

* 文字寄せプルダウンリスト（左右）  
切り替えることによって文字の配置位置を調節することができます  
","画面下部ツールバーの[文字]より、日付文字を選択すると表示される画面です。ここで入力した内容がオブジェクトに反映されます  
<img1 日付文字_入力画面>  

* 区切り  
日付文字の年月日の区切りを変更します  

* 年  
年の表示形式を変更します  

* 月  
月の表示形式を変更します  

* 日  
日の表示形式を変更します  

* 曜日  
曜日の表示形式を変更します  

* 月日2桁  
月や日が1桁の場合も”0”と追加して2桁表示します  

* 増減  
年、月、日単位どれかで利用時の日付から増減した日付を表示します  

* 桁数  
月日の表示を１桁にするか２桁にするかを選択できます  
※月日2桁:の場合は月や日が1桁の場合も”0”と追加して2桁表示します  

* 語頭追加    
語頭に文字を追加します  
   
* 語尾追加  
語尾に文字を追加します
","* 固定  
画像のサイズを固定する箇所を決めることができます  

<img1 画像_縦横比固定>  

* 透明度  
画像の透明度を変更します。画像の白色部分透明化のON,OFFも変更できます  

<img2 画像_透明度>  

* 画像加工  
モノクロ、ブライト、セピア、コントラスト、オリジナル、フレッシュから選んで画像を加工することができます  

<img3 画像_画像加工>

* トリミング  
任意の図形を選択して画像のトリミングを行います。  複数用意されているトリミングのパターンを選択し、ポインターでトリミングする範囲の選択を行います  

<img4 画像_トリミング>  

* 反転  
画像の反転を行います。左右と上下の選択ができます  

<img5 画像_反転>


","四角形オブジェクトを選択している時に変更できる設定です。  

* 固定    
図形の縦横比固定のON,OFFを切り替えることができます  

<img1 四角形_縦横比固定>  

* 丸み  
図形の角の丸みを調整できます。四角形のオブジェクトでは、縦・横の２方向から調整できます  

<img2 四角形_丸み>  

* 線幅  
線幅の調整ができます  

<img3 四角形_線幅>  

* 塗りつぶし  
図形内の塗りつぶしを行います。各色のアイコンをタップすることで変更されます。バーによって細かく調節することもできます  

<img4 四角形_塗りつぶし（単色）>  

* 色の設定  
二つまで図形内の色を設定することができます。  
図形の中央には二つの色が混ざって表示され、図形内での色の回転も行うことができます  

<img5 四角形_塗りつぶし（2色）>  

* 線色  
図形の凱旋の色を変更できます。各色のアイコンをタップすることで変更されます  

<img6 四角形_線色>  

* 透明度  
図形の透明度を変更できます  

<img7 四角形_透明度>  



","多角形オブジェクトを選択している時に変更できる設定です。  

* 固定    
図形の縦横比固定のON,OFFを切り替えることができます  

<img1 多角形_縦横比固定>  

* 丸み  
図形の角の丸みを調整できます。四角形のオブジェクトでは、縦・横の２方向から調整できます  

<img2 多角形_丸み>  

* 線幅  
線幅の調整ができます  

<img3 多角形_線幅>  

* 塗りつぶし  
図形内の塗りつぶしを行います。各色のアイコンをタップすることで変更されます。バーによって細かく調節することもできます  

<img4 多角形_塗りつぶし（単色）>  

* 色の設定  
二つまで図形内の色を設定することができます。  
図形の中央には二つの色が混ざって表示され、図形内での色の回転も行うことができます  

<img5 多角形_塗りつぶし（2色）>  

* 線色  
図形の外線の色を変更できます。各色のアイコンをタップすることで変更されます  

<img6 多角形_線色>  

* 透明度  
図形の透明度を変更できます  

<img7 多角形_透明度>
","丸オブジェクトを選択している時に変更できる設定です。  
※丸オブジェクトには「丸み」の編集項目は存在しません    

* 固定    
図形の縦横比固定のON,OFFを切り替えることができます  

<img1 丸_縦横比固定>  

* 線幅  
線幅の調整ができます  

<img2 丸_線幅>  

* 塗りつぶし  
図形内の塗りつぶしを行います。各色のアイコンをタップすることで変更されます。バーによって細かく調節することもできます  

<img3 塗りつぶし（単色）>  

* 色の設定  
二つまで図形内の色を設定することができます。  
図形の中央には二つの色が混ざって表示され、図形内での色の回転も行うことができます  

<img4 塗りつぶし（2色）>  

* 線色  
図形の凱旋の色を変更できます。各色のアイコンをタップすることで変更されます  

<img5 丸_線色>  

* 透明度  
図形の透明度を変更できます  

<img6 丸_透明度>  
","* 太さ  
直線の太さを調整できます  

<img1 直線_太さ>  

* 色  
直線の色を変更します。各色のアイコンをタップすることで変更されます。バーによって細かく調節することもできます  

<img2 直線_色>  

* 透明度  
線の透明度を変更します  

<img3 直線_透明度>  

* 線種  
線の線種を変更します  

<img4 直線_線種>  

* 始点  
線の始点の種類を変更します。大きさの変更も可能です  

<img5 直線_始点>  

* 終点  
線の終点の種類を変更します。大きさの変更も可能です  

<img6 直線_終点>","* 太さ  
曲線の太さを調整できます  

<img1 曲線_太さ>  

* 色  
曲線の色を変更します。各色のアイコンをタップすることで変更されます。バーによって細かく調節することもできます  

<img2 曲線_色>  

* 透明度  
線の透明度を変更します  

<img3 曲線_透明度>  


","* 入力  
タップすることでバーコード情報の入力画面が開かれるのでバーコードの数字を入力します。  
 バーコードのタイプを変更することも可能です。記載可能なバーコードは以下になります。  

JAN(標準),
JAN(短縮),
物流(標準).
物流(拡張),
物流(アドオン).
ITF,
NW-7
CODE39
CODE128  
  
<img1 バーコード_入力>  

* 固定  
バーコードのサイズ変更を固定する箇所を縦、横、縦横両方から決めることができます。  
固定した箇所はサイズの変更ができなくなります
  
<img2 バーコード_固定>

* 文字表示   
バーコード下部にキャラクタ（数字）を表示するかどうかを選択できます  

<img3 バーコード_文字表示>




","* 入力  
 タップすることでバーコード情報の入力画面が開かれるので、QRコードに表示する文字を編集できます  
（文字数が多すぎるとエラーが表示されます）  

<img1 QRコード_入力>  

* 誤り訂正  
コードのサイズを変更します    

<img2 QRコード_誤り訂正>  

* バージョン  
コードのバージョンを変更します  
※自動OFFにしている際は文字数により表示されないバージョンがあります  

<img3 QRコード_バージョン>  

* マージン  
マージンの有無を変更します  

<img4 QRコード_マージン>","SNS連携を使用する際には、ラベル屋さんアカウントを登録する必要があります。  
登録方法はかんたんマニュアルのユーザー登録をご覧ください。",,選択したデザイン面と同じ縦の面全てにデザインをコピーします。  ,"選択しているデザイン面の削除ができます
","表示しているページの後ろに新しいページを追加します。  

",デザインを全て左右反転させます。  ,"印刷を行う直前に使用するプリンターや用紙の設定を行います。  
待機中にはおすすめ用紙の情報が表示されます  

<img1 印刷_プリント情報>

* プリント情報  
使用プリンター、プリントしようとしている用紙の品番・用紙サイズが表示されます。  
プリンターとプリント位置・サイズの変更はここで行います  

* プリンター設定  
使用するプリンターを指定します。  
接続が完了しているプリンターがプルダウンリストに表示されます


<img2 印刷_印刷調整>

* プリント位置・サイズ調整  
プリント位置の調整及びサイズの調整を行います。プリント位置は矢印アイコンで行い、  
サイズ調整はスライドバーで行います  

"
セクション画像1,section_1_img,,,,"![画像M 操作Tips_プロフィール](./images/2/2_01-operation_tips_1.png ""操作Tips_プロフィール"")","![画像M 操作の流れ_アプリ起動](./images/2/2_02-operation_flow_01.png ""操作の流れ_アプリ起動"")","![画像M テンプレート1列3枚](./images/2/2_03-operation_template_1.png ""テンプレート1列3枚"")",,"![画像M クラウド_パスワード変更](./images/2/2_09-operation_cloud_21.png ""クラウド_パスワード変更"")","![画像M 用紙選択_検索結果](./images/3/3_02-screen_paper_3.png ""用紙選択_検索結果"")","![画像M 保存画面_ファイル操作](./images/3/3_05-screen_save_3.png ""保存画面_ファイル操作"")",,"![画像M 通常文字_文字入力](./images/4/4_03-design_text_02.png ""通常文字_文字入力"")","![画像M 円周文字_文字入力](./images/4/4_04-design_text_circle_02.png ""円周文字_文字入力"")","![画像M 日付文字_入力画面](./images/4/4_06-design_text_date_02.png ""日付文字_入力画面"")","![画像M 画像_縦横比固定](./images/4/4_07-design_img_3.png ""画像_縦横比固定"")
![画像M 画像_透明度](./images/4/4_07-design_img_4.png ""画像_透明度"")
![画像M 画像_画像加工](./images/4/4_07-design_img_5.png ""画像_画像加工"")
![画像M 画像_トリミング](./images/4/4_07-design_img_6.png ""画像_トリミング"")
![画像M 画像_反転](./images/4/4_07-design_img_7.png ""画像_反転"")","![画像M 四角形_縦横比固定](./images/4/4_08-design_square_2.png ""四角形_縦横比固定"")
![画像M 四角形_丸み](./images/4/4_08-design_square_3.png ""四角形_丸み"")
![画像M 四角形_線幅](./images/4/4_08-design_square_4.png ""四角形_線幅"")
![画像M 四角形_塗りつぶし（単色）](./images/4/4_08-design_square_5.png ""四角形_塗りつぶし（単色）"")
![画像M 四角形_塗りつぶし（2色）](./images/4/4_08-design_square_6.png ""四角形_塗りつぶし（2色）"")
![画像M 四角形_線色](./images/4/4_08-design_square_7.png ""四角形_線色"")
![画像M 四角形_透明度](./images/4/4_08-design_square_8.png ""四角形_透明度"")","![画像M 多角形_縦横比固定](./images/4/4_09-design_poly_2.png ""多角形_縦横比固定"")
![画像M 多角形_丸み](./images/4/4_09-design_poly_3.png ""多角形_丸み"")
![画像M 多角形_線幅](./images/4/4_09-design_poly_4.png ""多角形_線幅"")
![画像M 多角形_塗りつぶし（単色）](./images/4/4_09-design_poly_5.png ""多角形_塗りつぶし（単色）"")
![画像M 多角形_塗りつぶし（2色）](./images/4/4_09-design_poly_6.png ""多角形_塗りつぶし（2色）"")
![画像M 多角形_線色](./images/4/4_09-design_poly_7.png ""多角形_線色"")
![画像M 多角形_透明度](./images/4/4_09-design_poly_8.png ""多角形_透明度"")","![画像M 丸_縦横比固定](./images/4/4_10-design_circle_2.png ""丸_縦横比固定"")
![画像M 丸_線幅](./images/4/4_10-design_circle_3.png ""丸_線幅"")
![画像M 塗りつぶし（単色）](./images/4/4_10-design_circle_4.png ""塗りつぶし（単色）"")
![画像M 塗りつぶし（2色）](./images/4/4_10-design_circle_5.png ""塗りつぶし（2色）"")
![画像M 丸_線色](./images/4/4_10-design_circle_6.png ""丸_線色"")
![画像M 丸_透明度](./images/4/4_10-design_circle_7.png ""丸_透明度"")","![画像M 直線_太さ](./images/4/4_11-design_straight_2.png ""直線_太さ"")
![画像M 直線_色](./images/4/4_11-design_straight_3.png ""直線_色"")
![画像M 直線_透明度](./images/4/4_11-design_straight_4.png ""直線_透明度"")
![画像M 直線_線種](./images/4/4_11-design_straight_5.png ""直線_線種"")
![画像M 直線_始点](./images/4/4_11-design_straight_6.png ""直線_始点"")
![画像M 直線_終点](./images/4/4_11-design_straight_7.png ""直線_終点"")","![画像M 曲線_太さ](./images/4/4_12-design_curve_2.png ""曲線_太さ"")
![画像M 曲線_色](./images/4/4_12-design_curve_3.png ""曲線_色"")
![画像M 曲線_透明度](./images/4/4_12-design_curve_4.png ""曲線_透明度"")","![画像M バーコード_入力](./images/4/4_13-design_barcode_2.png ""バーコード_入力"")
![画像M バーコード_固定](./images/4/4_13-design_barcode_3.png ""バーコード_固定"")
![画像M バーコード_文字表示](./images/4/4_13-design_barcode_4.png ""バーコード_文字表示"")","![画像M QRコード_入力](./images/4/4_14-design_qrcode_2.png ""QRコード_入力"")
![画像M QRコード_誤り訂正](./images/4/4_14-design_qrcode_3.png ""QRコード_誤り訂正"")
![画像M QRコード_バージョン](./images/4/4_14-design_qrcode_4.png ""QRコード_バージョン"")
![画像M QRコード_マージン](./images/4/4_14-design_qrcode_5.png ""QRコード_マージン"")",,,,,,,"![画像M 印刷_プリント情報](./images/6/6_03-print_export_2.png ""印刷_プリント情報"")
![画像M 印刷_印刷調整](./images/6/6_03-print_export_3.png ""印刷_印刷調整"")"
セクション名2,section_2_name,ヘルプファイルについて,モバイル版で使用できない機能,,メインツールバー,2.新規作成,テンプレートの選択,ログイン,[新規作成],用紙の向き,,オブジェクトの削除,編集：通常文字,編集：円周文字,編集：日付文字,,,,,,,,,ログイン,,横一列コピー,,ページの削除,枠あり印刷,AndroidとiOSの印刷方式の違い
セクション本文2,section_2_txt,"このヘルプファイルでは、以下の表現をします。
* 画面やキーボード操作の説明ではiOS™を基準に記載し、画面はweb版の表示を利用します。
* _ラベル:_ 特定目的の用紙説明以外、ラベルシールやカード用紙全般を「ラベル」で統一して記載します。
* _オブジェクト:_ デザイン画面では文字やイメージを使います。このデザイン要素を「オブジェクト」と呼びます。
* その他、アプリケーション固有の用語は、各画面の説明で行います。","「差し込み」の機能はモバイル版では使用できません。  

モバイル版では以下のオブジェクトは使用できません。
* _3D文字_  
* _表_  
* _連番文字_  

WEB 版、DL 版から開いたデータではオブジェクトの配置を変更することは可能です。   

### 印刷について
印刷可能用紙:A4 判 ,A5 判、はがきサイズ、L 判  
対応プリンター:インクジェットプリンタ  
※印刷可能用紙や対応プリンター以外の用紙も編集は可能です。


",,"『デザイン編集画面』や『レイアウト画面』では[元に戻す]、[やり直す]ボタンやデザイン表示の拡大・縮小、  [面回転]ボタンで編集を円滑に進めることができます。  

<img1  操作Tips_ツールバー>

### 元に戻す・やり直すボタン
[元に戻す]ボタンで操作する前の状態に戻したり、[やり直す]ボタンで戻した操作をやり直せます。

### デザイン表示サイズ操作
ピンチインでズームアウト、ピンチアウトでズームインすることができます。

### 面回転ボタン
編集しているラベル面の回転は、[面回転]ボタンを利用します。これにより、面を回転させながら編集が可能です。","[新規作成]ボタンをタップします。  

<img1 操作の流れ_ホーム>","表示されているテンプレートをタップすると、テンプレートの確認ダイアログが表示されます。  
画像や図形等の縦横比を崩したくない場合はプルダウンリストから[縦横比を固定する]にチェックを入れます。  
編集面を回転して貼り付けたい場合は、[編集面を～]プルダウンリストから、回転させたい角度を選んでください。  
上記設定を確認して、利用する場合は[決定]ボタンをタップしてください。


<img1 テンプレート_テンプレート確認>","ログイン時には、 _ラベル屋さんアカウントID (メールアドレス)_ と _パスワード_ が必要です。 

<img1 クラウド_ラベル屋さんアカウントログイン画面>  

また、初めてログインする端末では、ワンタイムパスコードの入力が必要です。  
パスコードがメールで送信されますので、受け取ったパスコードを入力してください。 

<img2 クラウド_ワンタイムパスコード>  ",用紙を選んでデザインファイルを新規作成します。,"デザイン編集に移動する前に用紙の向きをプルダウンリストからあらかじめ変更しておくことができます。
用紙の向きは回転しない,右90°,右180°,右270°から選択できます。

<img1 用紙選択_用紙回転>",,"オブジェクト選択後に下部ツールバーより【削除】をタップします
","通常文字オブジェクトを選択しているときに変更できるプロパティです。  

* 文字  
文字の入力画面を再度開きます  

* 文字色  
通常文字の色を変更します。各色のアイコンをタップすることで変更されます。バーによって細かく調節することもできます  

<img1 通常文字_文字色>  

* フォント  
通常文字のフォントを変更します  

<img2 通常文字_フォント>  

* サイズ  
通常文字のサイズを変更します  

<img3 通常文字_サイズ（自動OFF）>  

* 自動  
文字枠に合わせて文字サイズを自動変更します。また、［自動折り返し］の時は、文字枠に合わせて文字を自動で折り返します。  
※[自動]の時は文字サイズの操作はできません  

<img4 通常文字_サイズ（自動ON）>    

* スタイル  
文字幅の調節ができます。文字を太字・細字、正体・斜線のいずれかにするか、下線を引くか引かないかを選択することもできます    

<img5 通常文字_スタイル>  

* 間隔  
字間及び行間を調節します  

<img6 通常文字_間隔>  

* フチ  
文字のフチの太さ、強さを調節します  

<img7 通常文字_フチ>  

* フチ色  
文字のフチの色を調節します  

<img8 通常文字_フチ色>  

* 影  
文字に付く影の距離、角度、ぼかし、強さをそれぞれ調節できます  

<img9 通常文字_影>  

* 影色  
文字の影の色を変更できます。  
各色のアイコンをタップすることで変更されます。バーによって細かく調節することもできます  

<img10 通常文字_影色>  



","円周文字オブジェクトを選択しているときに変更できるプロパティです。

* 文字  
文字の入力画面を再度開きます    

* 文字色  
通常文字の色を変更します。各色のアイコンをタップすることで変更されます。バーによって細かく調節することもできます  

<img1 円周文字_文字色>  

* フォント  
通常文字のフォントを変更します  

<img2 円周文字_フォント>  

* サイズ  
通常文字のサイズを変更します  

<img3 円周文字_サイズ>  

* スタイル  
文字幅の調節ができます。文字を太字・細字、正体・斜線のいずれかにするか、下線を引くか引かないかを選択することもできます  

<img4 円周文字_スタイル>  

* 間隔  
字間及び行間を調節します  

<img5 円周文字_間隔>  

* フチ  
文字のフチの太さ、強さを調節します  

<img6 円周文字_フチ>  

* フチ色  
文字のフチの色を調節します  

<img7 円周文字_フチ色>  

* 影  
文字に付く影の距離、角度、ぼかし、強さをそれぞれ調節できます  

<img8 円周文字_影>  

* 影色    
文字の影の色を変更できます。  
各色のアイコンをタップすることで変更されます。バーによって細かく調節することもできます    

<img9 円周文字_影色>　　

","日付文字オブジェクトを選択しているときに変更できるプロパティです。  

* 文字  
文字の入力画面を再度開きます  

* 文字色  
通常文字の色を変更します。各色のアイコンをタップすることで変更されます。バーによって細かく調節することもできます  

<img1 日付文字_文字色>  

* フォント  
通常文字のフォントを変更します  

<img2 日付文字_フォント>  

* サイズ  
通常文字のサイズを変更します  

<img3 日付文字_サイズ（自動OFF）>  

* 自動  
文字枠に合わせて文字サイズを自動変更します。また、［自動折り返し］の時は、文字枠に合わせて文字を自動で折り返します。  
※[自動]の時は文字サイズの操作はできません  

<img4 日付文字_サイズ（自動ON）>  

* スタイル  
文字幅の調節ができます。また、文字を太字・細字、正体・斜線のいずれかにするか、下線を引くか引かないかを選択できます  

<img5 日付文字_スタイル>  

* 間隔  
字間及び行間を調節します  

<img6 日付文字_間隔>  

* フチ  
文字のフチの太さ、強さを調節します  
<img7 日付文字_フチ>  

* フチ色  
文字のフチの色を調節します  
<img8 日付文字_フチ色>  

* 影  
文字に付く影の距離、角度、ぼかし、強さをそれぞれ調節できます  
<img9 日付文字_影>  

* 影色  
文字の影の色を変更できます。  
各色のアイコンをタップすることで変更されます。バーによって細かく調節することもできます  

<img10 日付文字_影色>


",,,,,,,,,"ログイン時には、 _ラベル屋さんアカウントID (メールアドレス)_ と _パスワード_ が必要です。 

<img1 SNS_ラベル屋さんアカウントログイン画面>

また、初めてログインする端末では、ワンタイムパスコードの入力が必要です。  
パスコードがメールで送信されますので、受け取ったパスコードを入力してください。 

<img2 SNS_ワンタイムパスコード>",,選択したデザイン面と同じ横の面全てにデザインをコピーします。  ,,"複数のページがある場合、表示しているページを削除します。

","印刷デザインに一片枠を描画・印刷をします。  
枠の色の変更もできます。  
色はサンプルから選ぶことも、自由に設定することもできます  
","* _Android_ 
印刷前に表示されるダイアログに習い、各社プリンターサービスアプリケーションで  
用紙サイズ,用紙種類,フチや品質などの設定を行ってください。  

<img1 Android印刷画面> 

<img2 Android印刷設定>


* _iOS_ 
印刷前に表示されるダイアログに習い、操作パネルで用紙のサイズと  
種類を指定する機種の場合は、プリンタの操作パネルで、  
用紙サイズと種類の設定を行ってください。  

<img3 iOS印刷画面>"
セクション画像2,section_2_img,,,,"![画像M 操作Tips_ツールバー](./images/2/2_01-operation_tips_2.png ""操作Tips_ツールバー"")","![画像M 操作の流れ_ホーム](./images/2/2_02-operation_flow_02.png ""操作の流れ_ホーム"")","![画像M テンプレート_テンプレート確認](./images/2/2_03-operation_template_2.png ""テンプレート_テンプレート確認"")","![画像M クラウド_ラベル屋さんアカウントログイン画面](./images/2/2_04-operation_cloud_01.png ""クラウド_ラベル屋さんアカウントログイン画面"")
![画像M クラウド_ワンタイムパスコード](./images/2/2_04-operation_cloud_02.png ""クラウド_ワンタイムパスコード"")",,"![画像M 用紙選択_用紙回転](./images/3/3_02-screen_paper_4.png ""用紙選択_用紙回転"")",,,"![画像M 通常文字_文字色](./images/4/4_03-design_text_03.png ""通常文字_文字色"")
![画像M 通常文字_フォント](./images/4/4_03-design_text_04.png ""通常文字_フォント"")
![画像M 通常文字_サイズ（自動OFF）](./images/4/4_03-design_text_05.png ""通常文字_サイズ（自動OFF）"")
![画像M 通常文字_サイズ（自動ON）](./images/4/4_03-design_text_06.png ""通常文字_サイズ（自動ON）"")
![画像M 通常文字_スタイル](./images/4/4_03-design_text_07.png ""通常文字_スタイル"")
![画像M 通常文字_間隔](./images/4/4_03-design_text_08.png ""通常文字_間隔"")
![画像M 通常文字_フチ](./images/4/4_03-design_text_09.png ""通常文字_フチ"")
![画像M 通常文字_フチ色](./images/4/4_03-design_text_10.png ""通常文字_フチ色"")
![画像M 通常文字_影](./images/4/4_03-design_text_11.png ""通常文字_影"")
![画像M  通常文字_影色](./images/4/4_03-design_text_12.png "" 通常文字_影色"")","![画像M 円周文字_文字色](./images/4/4_04-design_text_circle_03.png ""円周文字_文字色"")
![画像M 円周文字_フォント](./images/4/4_04-design_text_circle_04.png ""円周文字_フォント"")
![画像M 円周文字_サイズ](./images/4/4_04-design_text_circle_05.png ""円周文字_サイズ"")
![画像M 円周文字_スタイル](./images/4/4_04-design_text_circle_06.png ""円周文字_スタイル"")
![画像M 円周文字_間隔](./images/4/4_04-design_text_circle_07.png ""円周文字_間隔"")
![画像M 円周文字_フチ](./images/4/4_04-design_text_circle_08.png ""円周文字_フチ"")
![画像M 円周文字_フチ色](./images/4/4_04-design_text_circle_09.png ""円周文字_フチ色"")
![画像M 円周文字_影](./images/4/4_04-design_text_circle_10.png ""円周文字_影"")
![画像M 円周文字_影色](./images/4/4_04-design_text_circle_11.png ""円周文字_影色"")","![画像M 日付文字_文字色](./images/4/4_06-design_text_date_03.png ""日付文字_文字色"")
![画像M 日付文字_フォント](./images/4/4_06-design_text_date_04.png ""日付文字_フォント"")
![画像M 日付文字_サイズ（自動OFF）](./images/4/4_06-design_text_date_05.png ""日付文字_サイズ（自動OFF）"")
![画像M 日付文字_サイズ（自動ON）](./images/4/4_06-design_text_date_06.png ""日付文字_サイズ（自動ON）"")
![画像M 日付文字_スタイル](./images/4/4_06-design_text_date_07.png ""日付文字_スタイル"")
![画像M 日付文字_間隔](./images/4/4_06-design_text_date_08.png ""日付文字_間隔"")
![画像M 日付文字_フチ](./images/4/4_06-design_text_date_09.png ""日付文字_フチ"")
![画像M 日付文字_フチ色](./images/4/4_06-design_text_date_10.png ""日付文字_フチ色"")
![画像M 日付文字_影](./images/4/4_06-design_text_date_11.png ""日付文字_影"")
![画像M 日付文字_影色](./images/4/4_06-design_text_date_12.png ""日付文字_影色"")",,,,,,,,,"![画像M SNS_ラベル屋さんアカウントログイン画面](./images/4/4_17-design_sns_01.png ""SNS_ラベル屋さんアカウントログイン画面"")
![画像M SNS_ワンタイムパスコード](./images/4/4_17-design_sns_02.png ""SNS_ワンタイムパスコード"")",,,,,,"![画像M Android印刷画面](./images/6/6_03-print_export_4.png ""Android印刷画面"")
![画像M Android印刷設定](./images/6/6_03-print_export_5.png ""Android印刷設定"")
![画像M iOS印刷画面](./images/6/6_03-print_export_6.png ""iOS印刷画面"")"
セクション名3,section_3_name,ラベル屋さん10モバイルにできること,利用可能な画像のファイル形式,,オブジェクト階層の利用,3.用紙選択,,各種クラウドのログイン,[設定]ボタン,用紙情報,,オブジェクトの選択,,,,,,,,,,,,Twitterの投稿読み取り,,"全面にコピー
",,ページ移動,印刷切り替え,印刷時の注意
セクション本文3,section_3_txt," エーワン™製品1,000種以上のラベルシールやカード用紙に文字やイメージ画像を配置・編集してデザインを作成し、印刷ができます。  
テンプレートを利用して、簡単にラベルやカードのデザイン作成が可能です。また、 差し込み機能を利用して、宛名や出荷ラベルの印刷もできます。","デザイン画面で使用できるイメージファイルの形式は  
『bmp』, 『jpg』, 『png』, 『svg』です。",,"複雑に重なり合うデザインや、フレーム枠の下の写真など、選択しにくい場合は[階層]の利用が便利です。  
［階層］を操作することでオブジェクト表示順位の変更ができます。  

<img1 操作Tips_階層>
 ","用紙選択画面が表示されたら利用する用紙を検索してタップして、[決定]してください。   

<img1 操作の流れ_用紙選択>  

<img2 操作の流れ_用紙決定>",,"### Googleドライブ 
GoogleのIDを以下の画面で入力します。  

<img1 クラウド_GoogleDriveログイン>   

その後、パスワードを入力します。  

<img2 クラウド_GoogleDriveパスワード> 

### Dropbox  
DropboxのIDとパスワードを以下の画面で入力します。  

<img3 クラウド_Dropboxログイン>

### OneDrive 
OneDriveのIDを以下の画面で入力します。

<img4 クラウド_OneDriveログイン> 

その後、パスワードを入力します。 

<img5 クラウド_OneDriveパスワード> 

※Googleドライブは、Google LLCの商標または登録商標です。  
※OneDriveは、米国Microsoft Corporationの米国およびその他の国における登録商標または商標です。  
※Dropboxは、米国Dropbox, Inc.の商標または登録商標です。 


","利用規約などの確認や、  名刺作成などに反映できるプロフィールの設定を行うことができるページへ移動します。
","用紙一覧から、用紙の品名と品番が記載されている箇所をタップすることで選択した用紙の情報を確認できます。  
用紙の名前、品番、対応する印刷面、用紙サイズ、一片サイズが確認できます。  
また、用紙のパッケージ部分をタップすれば、パッケージが拡大表示されます。  
同時に表示される[商品詳細をブラウザで開く]をタップすることでブラウザを開いて、オンラインカタログを表示することもできます。  

<img1 用紙選択_用紙情報>",,"選択したいオブジェクトをタップすることで選択できます
",,,,,,,,,,,,"1. SNSを選択します。  
テンプレート画面で「SNSテンプレート」を選択し、表示される画面で  
「Twitterでログイン」をタップします。  

<img1 TwitterSNSテンプレート>  

<img2 TwitterSNS選択>  

2. Twitterにログインします。  

<img3 Twitterログイン> 

3. 投稿期間を選択します。  
以下の期間から選択できます。   
    * _1ヶ月_ 
    * _3ヶ月_ 
    * _6ヶ月_ 
    * _12ヶ月_  

<img4 Twitter投稿期間選択> 

4. 取得する投稿を選択します。  
以下の項目から選択できます。  
    * _アカウント名_ 
    * _アカウントのアイコン_ 
    * _テキスト_ 
    * _画像_ 
    * _いいね数_ 
    * _投稿日時_  

<img5 Twitter投稿項目選択>

5. 投稿選択 
ラベルに貼り付けたい投稿を選択します。 

<img6 Twitter投稿選択> 

6. ラベルに貼り付け
「決定」をタップすることでデザイン画面に貼り付けることができます。  

<img7 Twitter貼り付け後>",,"選択したデザイン面を、全ての面にデザインをコピーします。  
",,用紙の下の左右ボタンでページを移動することができます。  ,"各ラベルを個別に印刷する／しないの切り替えを行えます。  
印刷しない面はラベルに×が表示されます。  

","#### モバイル版で使用できる用紙  
モバイル版で使用できる用紙は以下の用紙です。
* _A4普通用紙_  
* _A4光沢用紙_ 
* _A5普通用紙_ 
* _はがきサイズ普通用紙_ 
* _はがきサイズ光沢用紙_ 
* _L判光沢用紙_   
それ以外の用紙はPC版やDL版をご利用ください。 

#### 兼用紙の印刷について  
兼用紙の場合、レーザープリンターでは印刷できないのでご注意ください。  

#### ダイレクト印刷を利用する際の注意
ラベル屋さんモバイルはデータ通信が必要なアプリです。そのため、ダイレクト通信を用いる際は、  
印刷画面に移動してからダイレクト通信を行うプリンターと接続して下さい。
"
セクション画像3,section_3_img,,,,"![画像M 操作Tips_階層](./images/2/2_01-operation_tips_5.png ""操作Tips_階層"")","![画像M 操作の流れ_用紙選択](./images/2/2_02-operation_flow_03.png ""操作の流れ_用紙選択"")
![画像M 操作の流れ_用紙決定](./images/2/2_02-operation_flow_04.png ""操作の流れ_用紙決定"")",,"![画像M クラウド_GoogleDriveログイン](./images/2/2_04-operation_cloud_03.png ""クラウド_GoogleDriveログイン"")
![画像M クラウド_GoogleDriveパスワード](./images/2/2_04-operation_cloud_04.png ""クラウド_GoogleDriveパスワード"")
![画像M クラウド_Dropboxログイン](./images/2/2_04-operation_cloud_05.png ""クラウド_Dropboxログイン"")
![画像M クラウド_OneDriveログイン](./images/2/2_04-operation_cloud_06.png ""クラウド_OneDriveログイン"")
![画像M クラウド_OneDriveパスワード](./images/2/2_04-operation_cloud_07.png ""クラウド_OneDriveパスワード"")",,"![画像M 用紙選択_用紙情報](./images/3/3_02-screen_paper_5.png ""用紙選択_用紙情報"")",,,,,,,,,,,,,,"![画像M SNS_TwitterSNSテンプレート](./images/4/4_17-design_sns_03.png ""SNS_TwitterSNSテンプレート"")
![画像M SNS_TwitterSNS選択](./images/4/4_17-design_sns_04.png ""SNS_TwitterSNS選択"")
![画像M SNS_Twitterログイン](./images/4/4_17-design_sns_05.png ""SNS_Twitterログイン"")
![画像M SNS_Twitter投稿期間選択](./images/4/4_17-design_sns_06.png ""SNS_Twitter投稿期間選択"")
![画像M SNS_Twitter投稿項目選択](./images/4/4_17-design_sns_07.png ""SNS_Twitter投稿項目選択"")
![画像M SNS_Twitter投稿選択](./images/4/4_17-design_sns_08.png ""SNS_Twitter投稿選択"")
![画像M SNS_Twitter貼り付け後](./images/4/4_17-design_sns_09.png ""SNS_Twitter貼り付け後"")",,,,,,
セクション名4,section_4_name,,使用できるフォント,,オブジェクトの微調整,4.テンプレートの選択,,クラウドからファイルを開く,［公式サイト］ボタン,バーコード検索,,オブジェクト枠とポインター,,,,,,,,,,,,Facebookの投稿読み取り,,選択してコピー,,表裏の切替,,
セクション本文4,section_4_txt,,"ラベル屋さん10では以下のフォントが使用できます。

### 日本語
* [Kosugi](https://fonts.google.com/specimen/Kosugi)
* [Kosugi Maru](https://fonts.google.com/specimen/Kosugi+Maru)
* [M PLUS 1p](https://fonts.google.com/specimen/M+PLUS+1p)
* [M PLUS Rounded 1c](https://fonts.google.com/specimen/M+PLUS+Rounded+1c)
* [Noto Sans JP](https://fonts.google.com/specimen/Noto+Sans+JP)
* [Noto Serif JP](https://fonts.google.com/specimen/Noto+Serif+JP)
* [さわらびゴシック](https://sawarabi-fonts.osdn.jp/index.html)
* [さわらび明朝](https://sawarabi-fonts.osdn.jp/index.html)

### Sans-Serif / ゴシック
* [Anton](https://fonts.google.com/specimen/Anton)
* [Fira Sans](https://fonts.google.com/specimen/Fira+Sans)
* [Lato](https://fonts.google.com/specimen/Lato)
* [McLaren](https://fonts.google.com/specimen/McLaren)
* [Monoton](https://fonts.google.com/specimen/Monoton)
* [Montserrat](https://fonts.google.com/specimen/Montserrat)
* [Muli](https://fonts.google.com/specimen/Muli)
* [Open Sans](https://fonts.google.com/specimen/Open+Sans)
* [Oswald](https://fonts.google.com/specimen/Oswald)
* [Raleway](https://fonts.google.com/specimen/Raleway)
* [Righteous](https://fonts.google.com/specimen/Righteous)
* [Work Sans](https://fonts.google.com/specimen/Work+Sans)

### Serif / 明朝
* [Abril Fatface](https://fonts.google.com/specimen/Abril+Fatface)
* [Cardo](https://fonts.google.com/specimen/Cardo)
* [Cutive](https://fonts.google.com/specimen/Cutive)
* [Lora](https://fonts.google.com/specimen/Lora)
* [Lusitana](https://fonts.google.com/specimen/Lusitana)
* [Merriweather](https://fonts.google.com/specimen/Merriweather)
* [Playfair Display](https://fonts.google.com/specimen/Playfair+Display)
* [Slabo 27px](https://fonts.google.com/specimen/Slabo+27px)
* [Vollkorn](https://fonts.google.com/specimen/Vollkorn)

### スクリプト / 手書き
* [Amatic SC](https://fonts.google.com/specimen/Amatic+SC)
* [Covered By Your Grace](https://fonts.google.com/specimen/Covered+By+Your+Grace)
* [Great Vibes](https://fonts.google.com/specimen/Great+Vibes)
* [Indie Flower](https://fonts.google.com/specimen/Indie+Flower)
* [Lobster](https://fonts.google.com/specimen/Lobster)
",,"サイズや位置、角度をタップ操作で調節することができます。  
また、オブジェクトの回転もこの操作パネルで行うことができます。

<img1 操作Tips_オブジェクト微調整>
","画面上部の検索条件で、一辺サイズに近いもので絞り込み、画面右下の『カテゴリ』をタップすることでカテゴリ検索の画面が開かれ、テンプレートの検索が行えます。  

<img1 操作の流れ_テンプレート選択>  

<img2 操作の流れ_テンプレート決定>

",,"1. トップ画面からファイルを開くを選択し、クラウドからを選択します。

<img1 クラウド_ファイル読み込み> 

2. 使用するクラウドを選択します。 

<img2 クラウド_クラウド選択>

3. 開きたいファイルを選択します

<img3 クラウド_読み込み選択>

4. 選択するとレイアウト画面が表示されます。 

<img4 クラウド_レイアウト読み込み後>


",A-one公式サイトに移動します,"実物の用紙に記載されているバーコードからも用紙検索を行うことができます。
画面右上のバーコードをタップすることでカメラが起動するので、その状態で製品に記載されているバーコードをカメラ内に入れて少し待てばその用紙が表示されます。  

<img1 用紙選択_バーコード選択>
",,"選択されたオブジェクトは、文字や画像など領域を持つオブジェクトの場合、隣接する枠と、サイズ変更用の丸いポインターを表示します。  
線や曲線は、始点と終点、制御点にポインターを表示します。
",,,,,,,,,,,,"1. SNSを選択します。  
テンプレート画面で「SNSテンプレート」を選択し、表示される画面で 
「Facebookでログイン」をタップします。  

<img1 FacebookSNSテンプレート> 

<img2 FacebookSNS選択>

2. Facebookにログインします。  

<img3 Facebookログイン> 

3. 投稿期間を選択します。  
以下の期間から選択できます。   
    * _1ヶ月_ 
    * _3ヶ月_ 
    * _6ヶ月_ 
    * _12ヶ月_  

<img4 Facebook投稿期間選択>

4. 取得する投稿を選択します。  
以下の項目から選択できます。  
    * _アカウント名_ 
    * _アカウントのアイコン_ 
    * _テキスト_ 
    * _画像_ 
    * _いいね数_ 
    * _投稿日時_  

<img5 Facebook投稿項目選択>

5. 投稿選択 
ラベルに貼り付けたい投稿を選択します。  

<img6 Facebook投稿選択> 

6. ラベルに貼り付け
「決定」をタップすることでデザイン画面に貼り付けることができます。  

<img7 Facebook貼り付け後>",,"選択したデザイン面をコピーした後、好きな空白に貼り付けることが可能です。  
貼り付けたい面をタップしたあとに［決定］をタップしてください。  
別のページにデザインをコピーすることもできます。取り消したい場合は［中止］をタップしてください。  

<img1 デザイン面のコピーと移動_選択コピー>
",,"[レイアウト画面]に表示させる用紙の面の表、裏を切り替えます。  
※使用している用紙が『両面』でないと機能しません。  

",,
セクション画像4,section_4_img,,,,"![画像M 操作Tips_オブジェクト微調整](./images/2/2_01-operation_tips_3.png ""操作Tips_オブジェクト微調整"")","![画像M 操作の流れ_テンプレート選択](./images/2/2_02-operation_flow_05.png ""操作の流れ_テンプレート選択"")
![画像M 操作の流れ_テンプレート決定](./images/2/2_02-operation_flow_06.png ""操作の流れ_テンプレート決定"")",,"![画像M クラウド_ファイル読み込み](./images/2/2_04-operation_cloud_08.png ""クラウド_ファイル読み込み"")
![画像M クラウド_クラウド選択](./images/2/2_04-operation_cloud_09.png ""クラウド_クラウド選択"")
![画像M クラウド_読み込み選択](./images/2/2_04-operation_cloud_10.png ""クラウド_読み込み選択"")
![画像M クラウド_レイアウト読み込み後](./images/2/2_04-operation_cloud_11.png ""クラウド_レイアウト読み込み後"")",,"![画像M 用紙選択_バーコード選択](./images/3/3_02-screen_paper_6.png ""用紙選択_バーコード選択"")",,,,,,,,,,,,,,"![画像M SNS_FacebookSNSテンプレート](./images/4/4_17-design_sns_10.png ""SNS_FacebookSNSテンプレート"")
![画像M SNS_FacebookSNS選択](./images/4/4_17-design_sns_11.png ""SNS_FacebookSNS選択"")
![画像M SNS_Facebookログイン](./images/4/4_17-design_sns_12.png ""SNS_Facebookログイン"")
![画像M SNS_Facebook投稿期間選択](./images/4/4_17-design_sns_13.png ""SNS_Facebook投稿期間選択"")
![画像M SNS_Facebook投稿項目選択](./images/4/4_17-design_sns_14.png ""SNS_Facebook投稿項目選択"")
![画像M SNS_Facebook投稿選択](./images/4/4_17-design_sns_15.png ""SNS_Facebook投稿選択"")
![画像M SNS_Facebook貼り付け後](./images/4/4_17-design_sns_16.png ""SNS_Facebook貼り付け後"")",,"![画像M デザイン面のコピーと移動_選択コピー](./images/5/5_01-layout_copy_2.png ""デザイン面のコピーと移動_選択コピー"")",,,,
セクション名5,section_5_name,,,,デザインファイルについて,5.デザイン編集画面,,クラウドにファイルを保存する,［チュートリアル］ボタン,用紙を探すなら…,,"ツールバー  
（オブジェクト非選択時）",,,,,,,,,,,,,,別ファイルのデザインを利用する,,,,
セクション本文5,section_5_txt,,,,"### デザインファイル
ホーム画面の[新規作成]から作成したデザインの保存ファイルで、拡張子は”aly”になります。  
保存されているデザインを差し込みに使用することができます。  ","画面下部のバーより、『文字』や『画像』、『図形』などデザインに使うオブジェクトを挿入することが可能です。    
オブジェクトの移動はコントローラーで行うほか、オブジェクトをタップしてドラッグすることでも可能です。  

<img1 操作の流れ_デザイン画面>",,"1. 保存ボタンをタップし、「クラウドに保存」をタップします。 

<img1 クラウド_クラウドに保存>

2. 保存したいクラウドを選択します。 

<img2 クラウド_保存先クラウド選択> 

3. 保存したいフォルダを選択します。 

<img3 クラウド_保存先選択>

4. 「保存」をタップし、ファイル名を入力し、「OK」をタップします。

<img4 クラウド_クラウドファイル名設定>",本製品についてのチュートリアルが表示されます,"エーワン™のホームページの「商品情報サイト」を利用して、特設ページや用途別製品案内から探して、オンラインカタログで詳細情報を確認できます。是非御活用ください。  
[エーワン™](https://www.a-one.co.jp/product/)  
",,"* 文字  
通常文字、円周文字、日付文の中から選んでデザインに配置します  

*  画像  
端末のアルバム内から画像を配置します。アプリ内で用意されているサンプルから選択することもできます  

* 図形  
用意された図形をデザインに配置することができます  

* 線  
直線及び曲線をデザインに配置することができます  

* コード  
バーコード及びQRコードをデザインに配置することができます  

* AR確認  
AR確認を行うことができます  

* 編集面の切り替え  
用紙が両面対応の場合、編集する面を切り替えることができます  

* 情報  
プロフィール入力欄が表示されます。ここで入力した項目はデザインに反映させることができます  

* 用紙回転  
用紙を右に90度回転させます  

* 戻る  
一つ前の操作に戻ります  

* 進む  
一つ後の操作に進みます  


",,,,,,,,,,,,,,"保存されているデザインファイルを選択することで、選択したファイルのデザインを使用することができます。  
未使用の面をタップすることで表示される、「別ファイルのデザインを利用する」を選択することで利用が可能です。  

その後、端末内とクラウド上のファイルのどちらを利用するかを決定し、ファイルを選んでください。

「新規デザインを作成する」をタップすると、新たにデザイン編集画面が開かれます    
そこで作成したデザインはレイアウト画面に反映することができます。  

<img1 デザイン面のコピーと移動_別ファイル>",,,,
セクション画像5,section_5_img,,,,,"![画像M 操作の流れ_デザイン画面](./images/2/2_02-operation_flow_07.png ""操作の流れ_デザイン画面"")",,"![画像M クラウド_クラウドに保存](./images/2/2_04-operation_cloud_12.png ""クラウド_クラウドに保存"")
![画像M クラウド_保存先クラウド選択](./images/2/2_04-operation_cloud_13.png ""クラウド_保存先クラウド選択"")
![画像M クラウド_保存先選択](./images/2/2_04-operation_cloud_14.png ""クラウド_保存先選択"")
![画像M クラウド_クラウドファイル名設定](./images/2/2_04-operation_cloud_15.png ""クラウド_クラウドファイル名設定"")",,,,,,,,,,,,,,,,,,"![画像M デザイン面のコピーと移動_別ファイル](./images/5/5_01-layout_copy_3.png ""デザイン面のコピーと移動_別ファイル"")",,,,
セクション名6,section_6_name,,,,色変更,6.レイアウト画面,,クラウドのファイル操作,[一覧で見る],,,"ツールバー  
（オブジェクト選択時）",,,,,,,,,,,,,,,,,,
セクション本文6,section_6_txt,,,,"<img1 操作Tips_色変更>  
文字の色や図形の塗りつぶしなど、色を変更する際には上の画面で色を細かく操作します。  
赤、緑、青のスライドバーを動かすことで色を変更することができます。  

","デザインを各面に配置して印刷用のレイアウトを作成します。  
デザイン面を選び、コピーやデザインの再編集をして印刷レイアウトを完成させます。    

<img1 操作の流れ_レイアウト>

",,"クラウド画面の「•••」ボタンをタップすることでファイルの操作ができます。

<img1 クラウド_ファイル操作>

#### ファイル、フォルダ名変更
ファイルの名前を変更することができます。

<img2 クラウド_ファイル名変更> 

#### ファイル、フォルダ移動 
ファイルやフォルダを同じクラウド内で移動させることができます。 

<img3 クラウド_ファイル移動> 

#### ファイル、フォルダ削除 
ファイルやフォルダを削除することができます。  
「削除」をタップすることで削除できます。 

<img4 クラウド_ファイル削除> 
",新商品など、ラベル屋さん™ラベル＆カード作成ソフト10関連の最新情報の一覧を表示できます。,,,"* 階層  
オブジェクト同士が重なった際の表示の優先順位を設定します  

* 位置  
オブジェクトの回転及び位置の調整を行います  

* 編集  
オブジェクトの編集を行います。  
オブジェクトによって編集できる内容は異なります  

* コピー  
オブジェクトをコピーします。  
用紙が両面対応の場合、表面か裏面へコピーするかを選択することができます  

* 削除  
オブジェクトを削除します",,,,,,,,,,,,,,,,,,
セクション画像6,section_6_img,,,,"![画像M 操作Tips_色変更](./images/2/2_01-operation_tips_4.png ""操作Tips_色変更"")","![画像M 操作の流れ_レイアウト](./images/2/2_02-operation_flow_08.jpeg ""操作の流れ_レイアウト"")",,"![画像M クラウド_ファイル操作](./images/2/2_04-operation_cloud_16.png ""クラウド_ファイル操作"")
![画像M クラウド_ファイル操作](./images/2/2_04-operation_cloud_16.png ""クラウド_ファイル操作"")
![画像M クラウド_ファイル操作](./images/2/2_04-operation_cloud_16.png ""クラウド_ファイル操作"")
![画像M クラウド_ファイル操作](./images/2/2_04-operation_cloud_16.png ""クラウド_ファイル操作"")",,,,,,,,,,,,,,,,,,,,,,
セクション名7,section_7_name,,,,印刷時の注意,7.印刷画面,,アカウント操作,,,,,,,,,,,,,,,,,,,,,,
セクション本文7,section_7_txt,,,,"#### モバイル版で使用できる用紙  
モバイル版で使用できる用紙は以下の用紙です。
* _A4普通用紙_
* _A4光沢用紙_
* _はがきサイズ普通用紙_
* _はがきサイズ光沢用紙_
* _L判光沢用紙_  
それ以外の用紙はPC版やDL版をご利用ください。  

#### 兼用紙の印刷について  
兼用紙の場合、レーザープリンターでは印刷できないのでご注意ください。  

#### ダイレクト印刷を利用する際の注意
ラベル屋さんモバイルはデータ通信が必要なアプリです。そのため、ダイレクト通信を用いる際は、  
印刷画面に移動してからダイレクト通信を行うプリンターと接続して下さい。
","印刷を行います。  
印刷面の表裏や、印刷ページ数の確認が終わったら、[印刷する]ボタンをタップして印刷を行いましょう。  

<img1 操作の流れ_印刷プレビュー>

",,"クラウド画面の歯車ボタンでアカウントの操作ができます。

<img1 クラウド_アカウント操作> 

#### パスワード変更 
パスワードを変更できます。  

<img2 クラウド_パスワード変更>

#### ログアウト 
ラベル屋さんからログアウトします。 
",,,,,,,,,,,,,,,,,,,,,,
セクション画像7,section_7_img,,,,,"![画像M 操作の流れ_印刷プレビュー](./images/2/2_02-operation_flow_09.png ""操作の流れ_印刷プレビュー"")",,"![画像M クラウド_ファイル操作](./images/2/2_04-operation_cloud_16.png ""クラウド_ファイル操作"")
![画像M クラウド_ファイル操作](./images/2/2_04-operation_cloud_16.png ""クラウド_ファイル操作"")",,,,,,,,,,,,,,,,,,,,,,
セクション名8,section_8_name,,,,,8.保存,,,,,,,,,,,,,,,,,,,,,,,,
セクション本文8,section_8_txt,,,,,"作成したデザインの保存は[保存]ボタンを使います。  
初期の保存名は「日付-用紙の品番」になり、保存する場所は[使用端末]、[ラベル屋さんクラウド]から選ぶことができます  

<img1 操作の流れ_保存画面>",,,,,,,,,,,,,,,,,,,,,,,,
セクション画像8,section_8_img,,,,,"![画像M 操作の流れ_保存画面](./images/2/2_02-operation_flow_10.png ""操作の流れ_保存画面"")",,,,,,,,,,,,,,,,,,,,,,,,
セクション名9,section_9_name,,,,,,,,,,,,,,,,,,,,,,,,,,,,,
セクション本文9,section_9_txt,,,,,,,,,,,,,,,,,,,,,,,,,,,,,
セクション画像9,section_9_img,,,,,,,,,,,,,,,,,,,,,,,,,,,,,
セクションが9以上に増える場合、gulp.jsの修正が必要,,,,,,,,,,,,,,,,,,,,,,,,,,,,,,