<?xml version="1.0" encoding="utf-8"?>
<!-- Generator: Adobe Illustrator 23.0.1, SVG Export Plug-In . SVG Version: 6.00 Build 0)  -->
<svg version="1.1" id="レイヤー_1" xmlns="http://www.w3.org/2000/svg" xmlns:xlink="http://www.w3.org/1999/xlink" x="0px"
	 y="0px" width="136px" height="136px" viewBox="0 0 136 136" style="enable-background:new 0 0 136 136;" xml:space="preserve">
<path d="M103.7,92.9c7.9-9.7,12.6-22.1,12.6-35.7c0-31.3-25.4-56.8-56.8-56.8C28.2,0.5,2.7,25.9,2.7,57.3S28.2,114,59.5,114
	c11.4,0,22-3.4,30.9-9.2l-0.4,0.4l30.3,30.3l13-13L103.7,92.9z M59.5,94.4c-20.7,0-37.4-16.8-37.4-37.4s16.8-37.4,37.4-37.4
	c20.7,0,37.4,16.8,37.4,37.4S80.2,94.4,59.5,94.4z"/>
</svg>
